%YAML 1.1
%TAG !u! tag:unity3d.com,2011:
--- !u!114 &11400000
MonoBehaviour:
  m_ObjectHideFlags: 0
  m_CorrespondingSourceObject: {fileID: 0}
  m_PrefabInstance: {fileID: 0}
  m_PrefabAsset: {fileID: 0}
  m_GameObject: {fileID: 0}
  m_Enabled: 1
  m_EditorHideFlags: 0
  m_Script: {fileID: 11500000, guid: 9f3758f8f58fdef43803eb9be1df0608, type: 3}
  m_Name: PhotonServerSettings
  m_EditorClassIdentifier: 
  AppSettings:
    AppIdRealtime: 41318c86-6e1d-4896-aedc-36ba444a44bd
    AppIdFusion: 
    AppIdChat: 
    AppIdVoice: 5411d519-43ce-48d2-a3cb-374bed798865
    AppVersion: 
    UseNameServer: 1
    FixedRegion: 
    Server: 
    Port: 0
    ProxyServer: 
    Protocol: 0
    EnableProtocolFallback: 1
    AuthMode: 0
    EnableLobbyStatistics: 0
    NetworkLogging: 1
  DevRegion: 
  PunLogging: 0
  EnableSupportLogger: 0
  RunInBackground: 1
  StartInOfflineMode: 0
  RpcList:
  - ClickRpc
  - DestroyRpc
  - DestroySpaceship
  - Fire
  - RespawnSpaceship
  - OnDisable
  - OnEnable
  - ChangeRoomPun
  - ChangeRigPun
  - ClearAllDiceRPC
  - InitiateAvatar
  - UpdateAvatar
  - UpdateAvatarRPC
  - UpdateMusicRPC
  - PlayMusicRPC
  - AskForCurrentMusicRPC
  - SetNameplate
  - SetDiceplateOff
  - SetDiceplateOn
  - CantHearYou
  - ChangeColour
  - HeresWhy
  - SetMaterialRPC
  - UpdateCardRPC
  - SetChairMesh
  - SetChairMeshRPC
  - ResetChairsRPC
  - VerifyTakenChairsRPC
  - GatherNameRPC
  - SendNameRPC
  - GatherDetailsRPC
  - SendDetailsRPC
  - BoardToggleRPC
  - MaterialChangeRPC
  - TobbleObjRPC
  DisableAutoOpenWizard: 1
  ShowSettings: 1
  DevRegionSetOnce: 1
