%YAML 1.1
%TAG !u! tag:unity3d.com,2011:
--- !u!1 &2036957869670329291
GameObject:
  m_ObjectHideFlags: 0
  m_CorrespondingSourceObject: {fileID: 0}
  m_PrefabInstance: {fileID: 0}
  m_PrefabAsset: {fileID: 0}
  serializedVersion: 6
  m_Component:
  - component: {fileID: 2997452837569041550}
  m_Layer: 0
  m_Name: P_SM_Die_10_Medium
  m_TagString: Untagged
  m_Icon: {fileID: 0}
  m_NavMeshLayer: 0
  m_StaticEditorFlags: 0
  m_IsActive: 1
--- !u!4 &2997452837569041550
Transform:
  m_ObjectHideFlags: 0
  m_CorrespondingSourceObject: {fileID: 0}
  m_PrefabInstance: {fileID: 0}
  m_PrefabAsset: {fileID: 0}
  m_GameObject: {fileID: 2036957869670329291}
  m_LocalRotation: {x: 0, y: 0, z: 0, w: 1}
  m_LocalPosition: {x: 0, y: 0, z: 0}
  m_LocalScale: {x: 1, y: 1, z: 1}
  m_Children:
  - {fileID: 6217553389424465325}
  m_Father: {fileID: 0}
  m_RootOrder: 0
  m_LocalEulerAnglesHint: {x: 0, y: 0, z: 0}
--- !u!64 &5681698596858525023
MeshCollider:
  m_ObjectHideFlags: 0
  m_CorrespondingSourceObject: {fileID: 0}
  m_PrefabInstance: {fileID: 0}
  m_PrefabAsset: {fileID: 0}
  m_GameObject: {fileID: 6702200056379576087}
  m_Material: {fileID: 0}
  m_IsTrigger: 0
  m_Enabled: 1
  serializedVersion: 4
  m_Convex: 1
  m_CookingOptions: 30
  m_Mesh: {fileID: 4014531703622792370, guid: 63b7f673861ca264990dff4554bc3467, type: 3}
--- !u!1001 &5891718355262812742
PrefabInstance:
  m_ObjectHideFlags: 0
  serializedVersion: 2
  m_Modification:
    m_TransformParent: {fileID: 2997452837569041550}
    m_Modifications:
    - target: {fileID: -8679921383154817045, guid: d4046ea90bfcb544dba463eb4ca80725,
        type: 3}
      propertyPath: m_LocalPosition.x
      value: -0
      objectReference: {fileID: 0}
    - target: {fileID: -8679921383154817045, guid: d4046ea90bfcb544dba463eb4ca80725,
        type: 3}
      propertyPath: m_LocalPosition.y
      value: 0
      objectReference: {fileID: 0}
    - target: {fileID: -8679921383154817045, guid: d4046ea90bfcb544dba463eb4ca80725,
        type: 3}
      propertyPath: m_LocalPosition.z
      value: 0
      objectReference: {fileID: 0}
    - target: {fileID: -8679921383154817045, guid: d4046ea90bfcb544dba463eb4ca80725,
        type: 3}
      propertyPath: m_LocalRotation.x
      value: 0
      objectReference: {fileID: 0}
    - target: {fileID: -8679921383154817045, guid: d4046ea90bfcb544dba463eb4ca80725,
        type: 3}
      propertyPath: m_LocalRotation.y
      value: -0
      objectReference: {fileID: 0}
    - target: {fileID: -8679921383154817045, guid: d4046ea90bfcb544dba463eb4ca80725,
        type: 3}
      propertyPath: m_LocalRotation.z
      value: -0
      objectReference: {fileID: 0}
    - target: {fileID: -8679921383154817045, guid: d4046ea90bfcb544dba463eb4ca80725,
        type: 3}
      propertyPath: m_LocalRotation.w
      value: 1
      objectReference: {fileID: 0}
    - target: {fileID: -8679921383154817045, guid: d4046ea90bfcb544dba463eb4ca80725,
        type: 3}
      propertyPath: m_RootOrder
      value: 0
      objectReference: {fileID: 0}
    - target: {fileID: -8679921383154817045, guid: d4046ea90bfcb544dba463eb4ca80725,
        type: 3}
      propertyPath: m_LocalEulerAnglesHint.x
      value: 0
      objectReference: {fileID: 0}
    - target: {fileID: -8679921383154817045, guid: d4046ea90bfcb544dba463eb4ca80725,
        type: 3}
      propertyPath: m_LocalEulerAnglesHint.y
      value: 0
      objectReference: {fileID: 0}
    - target: {fileID: -8679921383154817045, guid: d4046ea90bfcb544dba463eb4ca80725,
        type: 3}
      propertyPath: m_LocalEulerAnglesHint.z
      value: 0
      objectReference: {fileID: 0}
    - target: {fileID: -7511558181221131132, guid: d4046ea90bfcb544dba463eb4ca80725,
        type: 3}
      propertyPath: m_Materials.Array.data[0]
      value: 
      objectReference: {fileID: 2100000, guid: 277c7d5538e8c2742aafa20186997733, type: 2}
    - target: {fileID: 919132149155446097, guid: d4046ea90bfcb544dba463eb4ca80725,
        type: 3}
      propertyPath: m_Name
      value: SM_Die_10_Medium
      objectReference: {fileID: 0}
    m_RemovedComponents: []
  m_SourcePrefab: {fileID: 100100000, guid: d4046ea90bfcb544dba463eb4ca80725, type: 3}
--- !u!1 &6702200056379576087 stripped
GameObject:
  m_CorrespondingSourceObject: {fileID: 919132149155446097, guid: d4046ea90bfcb544dba463eb4ca80725,
    type: 3}
  m_PrefabInstance: {fileID: 5891718355262812742}
  m_PrefabAsset: {fileID: 0}
--- !u!4 &6217553389424465325 stripped
Transform:
  m_CorrespondingSourceObject: {fileID: -8679921383154817045, guid: d4046ea90bfcb544dba463eb4ca80725,
    type: 3}
  m_PrefabInstance: {fileID: 5891718355262812742}
  m_PrefabAsset: {fileID: 0}
