%YAML 1.1
%TAG !u! tag:unity3d.com,2011:
--- !u!1 &3171310785990829803
GameObject:
  m_ObjectHideFlags: 0
  m_CorrespondingSourceObject: {fileID: 0}
  m_PrefabInstance: {fileID: 0}
  m_PrefabAsset: {fileID: 0}
  serializedVersion: 6
  m_Component:
  - component: {fileID: 7465351746627185344}
  m_Layer: 0
  m_Name: P_SM_Die_10_Low
  m_TagString: Untagged
  m_Icon: {fileID: 0}
  m_NavMeshLayer: 0
  m_StaticEditorFlags: 0
  m_IsActive: 1
--- !u!4 &7465351746627185344
Transform:
  m_ObjectHideFlags: 0
  m_CorrespondingSourceObject: {fileID: 0}
  m_PrefabInstance: {fileID: 0}
  m_PrefabAsset: {fileID: 0}
  m_GameObject: {fileID: 3171310785990829803}
  m_LocalRotation: {x: 0, y: 0, z: 0, w: 1}
  m_LocalPosition: {x: 0, y: 0, z: 0}
  m_LocalScale: {x: 1, y: 1, z: 1}
  m_Children:
  - {fileID: 6849321878847375061}
  m_Father: {fileID: 0}
  m_RootOrder: 0
  m_LocalEulerAnglesHint: {x: 0, y: 0, z: 0}
--- !u!64 &6375743507988074879
MeshCollider:
  m_ObjectHideFlags: 0
  m_CorrespondingSourceObject: {fileID: 0}
  m_PrefabInstance: {fileID: 0}
  m_PrefabAsset: {fileID: 0}
  m_GameObject: {fileID: 6072678969829891183}
  m_Material: {fileID: 0}
  m_IsTrigger: 0
  m_Enabled: 1
  serializedVersion: 4
  m_Convex: 1
  m_CookingOptions: 30
  m_Mesh: {fileID: 4014531703622792370, guid: 63b7f673861ca264990dff4554bc3467, type: 3}
--- !u!1001 &6379089975228440894
PrefabInstance:
  m_ObjectHideFlags: 0
  serializedVersion: 2
  m_Modification:
    m_TransformParent: {fileID: 7465351746627185344}
    m_Modifications:
    - target: {fileID: -8679921383154817045, guid: 63b7f673861ca264990dff4554bc3467,
        type: 3}
      propertyPath: m_LocalPosition.x
      value: -0
      objectReference: {fileID: 0}
    - target: {fileID: -8679921383154817045, guid: 63b7f673861ca264990dff4554bc3467,
        type: 3}
      propertyPath: m_LocalPosition.y
      value: 0
      objectReference: {fileID: 0}
    - target: {fileID: -8679921383154817045, guid: 63b7f673861ca264990dff4554bc3467,
        type: 3}
      propertyPath: m_LocalPosition.z
      value: 0
      objectReference: {fileID: 0}
    - target: {fileID: -8679921383154817045, guid: 63b7f673861ca264990dff4554bc3467,
        type: 3}
      propertyPath: m_LocalRotation.x
      value: 0
      objectReference: {fileID: 0}
    - target: {fileID: -8679921383154817045, guid: 63b7f673861ca264990dff4554bc3467,
        type: 3}
      propertyPath: m_LocalRotation.y
      value: -0
      objectReference: {fileID: 0}
    - target: {fileID: -8679921383154817045, guid: 63b7f673861ca264990dff4554bc3467,
        type: 3}
      propertyPath: m_LocalRotation.z
      value: -0
      objectReference: {fileID: 0}
    - target: {fileID: -8679921383154817045, guid: 63b7f673861ca264990dff4554bc3467,
        type: 3}
      propertyPath: m_LocalRotation.w
      value: 1
      objectReference: {fileID: 0}
    - target: {fileID: -8679921383154817045, guid: 63b7f673861ca264990dff4554bc3467,
        type: 3}
      propertyPath: m_RootOrder
      value: 0
      objectReference: {fileID: 0}
    - target: {fileID: -8679921383154817045, guid: 63b7f673861ca264990dff4554bc3467,
        type: 3}
      propertyPath: m_LocalEulerAnglesHint.x
      value: 0
      objectReference: {fileID: 0}
    - target: {fileID: -8679921383154817045, guid: 63b7f673861ca264990dff4554bc3467,
        type: 3}
      propertyPath: m_LocalEulerAnglesHint.y
      value: 0
      objectReference: {fileID: 0}
    - target: {fileID: -8679921383154817045, guid: 63b7f673861ca264990dff4554bc3467,
        type: 3}
      propertyPath: m_LocalEulerAnglesHint.z
      value: 0
      objectReference: {fileID: 0}
    - target: {fileID: -7511558181221131132, guid: 63b7f673861ca264990dff4554bc3467,
        type: 3}
      propertyPath: m_Materials.Array.data[0]
      value: 
      objectReference: {fileID: 2100000, guid: 277c7d5538e8c2742aafa20186997733, type: 2}
    - target: {fileID: 919132149155446097, guid: 63b7f673861ca264990dff4554bc3467,
        type: 3}
      propertyPath: m_Name
      value: SM_Die_10_Low
      objectReference: {fileID: 0}
    m_RemovedComponents: []
  m_SourcePrefab: {fileID: 100100000, guid: 63b7f673861ca264990dff4554bc3467, type: 3}
--- !u!1 &6072678969829891183 stripped
GameObject:
  m_CorrespondingSourceObject: {fileID: 919132149155446097, guid: 63b7f673861ca264990dff4554bc3467,
    type: 3}
  m_PrefabInstance: {fileID: 6379089975228440894}
  m_PrefabAsset: {fileID: 0}
--- !u!4 &6849321878847375061 stripped
Transform:
  m_CorrespondingSourceObject: {fileID: -8679921383154817045, guid: 63b7f673861ca264990dff4554bc3467,
    type: 3}
  m_PrefabInstance: {fileID: 6379089975228440894}
  m_PrefabAsset: {fileID: 0}
