%YAML 1.1
%TAG !u! tag:unity3d.com,2011:
--- !u!1 &6186377848741385833
GameObject:
  m_ObjectHideFlags: 0
  m_CorrespondingSourceObject: {fileID: 0}
  m_PrefabInstance: {fileID: 0}
  m_PrefabAsset: {fileID: 0}
  serializedVersion: 6
  m_Component:
  - component: {fileID: 5323149621390889775}
  m_Layer: 0
  m_Name: P_SM_Die_6_Soft
  m_TagString: Untagged
  m_Icon: {fileID: 0}
  m_NavMeshLayer: 0
  m_StaticEditorFlags: 0
  m_IsActive: 1
--- !u!4 &5323149621390889775
Transform:
  m_ObjectHideFlags: 0
  m_CorrespondingSourceObject: {fileID: 0}
  m_PrefabInstance: {fileID: 0}
  m_PrefabAsset: {fileID: 0}
  m_GameObject: {fileID: 6186377848741385833}
  m_LocalRotation: {x: 0, y: 0, z: 0, w: 1}
  m_LocalPosition: {x: 0, y: 0, z: 0}
  m_LocalScale: {x: 1, y: 1, z: 1}
  m_Children:
  - {fileID: 7571474495037959212}
  m_Father: {fileID: 0}
  m_RootOrder: 0
  m_LocalEulerAnglesHint: {x: 0, y: 0, z: 0}
--- !u!64 &5444821300853855262
MeshCollider:
  m_ObjectHideFlags: 0
  m_CorrespondingSourceObject: {fileID: 0}
  m_PrefabInstance: {fileID: 0}
  m_PrefabAsset: {fileID: 0}
  m_GameObject: {fileID: 7086580437410821782}
  m_Material: {fileID: 0}
  m_IsTrigger: 0
  m_Enabled: 1
  serializedVersion: 4
  m_Convex: 1
  m_CookingOptions: 30
  m_Mesh: {fileID: -9112031710535650976, guid: b2d705f03e992a94b8f52c8692ae6239, type: 3}
--- !u!1001 &7969680898899020743
PrefabInstance:
  m_ObjectHideFlags: 0
  serializedVersion: 2
  m_Modification:
    m_TransformParent: {fileID: 5323149621390889775}
    m_Modifications:
    - target: {fileID: -8679921383154817045, guid: b2d705f03e992a94b8f52c8692ae6239,
        type: 3}
      propertyPath: m_LocalPosition.x
      value: -0
      objectReference: {fileID: 0}
    - target: {fileID: -8679921383154817045, guid: b2d705f03e992a94b8f52c8692ae6239,
        type: 3}
      propertyPath: m_LocalPosition.y
      value: 0
      objectReference: {fileID: 0}
    - target: {fileID: -8679921383154817045, guid: b2d705f03e992a94b8f52c8692ae6239,
        type: 3}
      propertyPath: m_LocalPosition.z
      value: 0
      objectReference: {fileID: 0}
    - target: {fileID: -8679921383154817045, guid: b2d705f03e992a94b8f52c8692ae6239,
        type: 3}
      propertyPath: m_LocalRotation.x
      value: 0
      objectReference: {fileID: 0}
    - target: {fileID: -8679921383154817045, guid: b2d705f03e992a94b8f52c8692ae6239,
        type: 3}
      propertyPath: m_LocalRotation.y
      value: -0
      objectReference: {fileID: 0}
    - target: {fileID: -8679921383154817045, guid: b2d705f03e992a94b8f52c8692ae6239,
        type: 3}
      propertyPath: m_LocalRotation.z
      value: -0
      objectReference: {fileID: 0}
    - target: {fileID: -8679921383154817045, guid: b2d705f03e992a94b8f52c8692ae6239,
        type: 3}
      propertyPath: m_LocalRotation.w
      value: 1
      objectReference: {fileID: 0}
    - target: {fileID: -8679921383154817045, guid: b2d705f03e992a94b8f52c8692ae6239,
        type: 3}
      propertyPath: m_RootOrder
      value: 0
      objectReference: {fileID: 0}
    - target: {fileID: -8679921383154817045, guid: b2d705f03e992a94b8f52c8692ae6239,
        type: 3}
      propertyPath: m_LocalEulerAnglesHint.x
      value: 0
      objectReference: {fileID: 0}
    - target: {fileID: -8679921383154817045, guid: b2d705f03e992a94b8f52c8692ae6239,
        type: 3}
      propertyPath: m_LocalEulerAnglesHint.y
      value: 0
      objectReference: {fileID: 0}
    - target: {fileID: -8679921383154817045, guid: b2d705f03e992a94b8f52c8692ae6239,
        type: 3}
      propertyPath: m_LocalEulerAnglesHint.z
      value: 0
      objectReference: {fileID: 0}
    - target: {fileID: -7511558181221131132, guid: b2d705f03e992a94b8f52c8692ae6239,
        type: 3}
      propertyPath: m_Materials.Array.data[0]
      value: 
      objectReference: {fileID: 2100000, guid: 277c7d5538e8c2742aafa20186997733, type: 2}
    - target: {fileID: 919132149155446097, guid: b2d705f03e992a94b8f52c8692ae6239,
        type: 3}
      propertyPath: m_Name
      value: SM_Die_6_Soft
      objectReference: {fileID: 0}
    m_RemovedComponents: []
  m_SourcePrefab: {fileID: 100100000, guid: b2d705f03e992a94b8f52c8692ae6239, type: 3}
--- !u!1 &7086580437410821782 stripped
GameObject:
  m_CorrespondingSourceObject: {fileID: 919132149155446097, guid: b2d705f03e992a94b8f52c8692ae6239,
    type: 3}
  m_PrefabInstance: {fileID: 7969680898899020743}
  m_PrefabAsset: {fileID: 0}
--- !u!4 &7571474495037959212 stripped
Transform:
  m_CorrespondingSourceObject: {fileID: -8679921383154817045, guid: b2d705f03e992a94b8f52c8692ae6239,
    type: 3}
  m_PrefabInstance: {fileID: 7969680898899020743}
  m_PrefabAsset: {fileID: 0}
