%YAML 1.1
%TAG !u! tag:unity3d.com,2011:
--- !u!1 &7736507067259676398
GameObject:
  m_ObjectHideFlags: 0
  m_CorrespondingSourceObject: {fileID: 0}
  m_PrefabInstance: {fileID: 0}
  m_PrefabAsset: {fileID: 0}
  serializedVersion: 6
  m_Component:
  - component: {fileID: 7801583717396381968}
  m_Layer: 0
  m_Name: P_SM_Die_20_Low
  m_TagString: Untagged
  m_Icon: {fileID: 0}
  m_NavMeshLayer: 0
  m_StaticEditorFlags: 0
  m_IsActive: 1
--- !u!4 &7801583717396381968
Transform:
  m_ObjectHideFlags: 0
  m_CorrespondingSourceObject: {fileID: 0}
  m_PrefabInstance: {fileID: 0}
  m_PrefabAsset: {fileID: 0}
  m_GameObject: {fileID: 7736507067259676398}
  m_LocalRotation: {x: 0, y: 0, z: 0, w: 1}
  m_LocalPosition: {x: 0, y: 0, z: 0}
  m_LocalScale: {x: 1, y: 1, z: 1}
  m_Children:
  - {fileID: 7343183547331002880}
  m_Father: {fileID: 0}
  m_RootOrder: 0
  m_LocalEulerAnglesHint: {x: 0, y: 0, z: 0}
--- !u!64 &1944094751025860915
MeshCollider:
  m_ObjectHideFlags: 0
  m_CorrespondingSourceObject: {fileID: 0}
  m_PrefabInstance: {fileID: 0}
  m_PrefabAsset: {fileID: 0}
  m_GameObject: {fileID: 7972473237149325498}
  m_Material: {fileID: 0}
  m_IsTrigger: 0
  m_Enabled: 1
  serializedVersion: 4
  m_Convex: 1
  m_CookingOptions: 30
  m_Mesh: {fileID: 1585077070586920961, guid: e18f8e9d2aaca1b4e8bf3d06556e5749, type: 3}
--- !u!1001 &7089373876246095339
PrefabInstance:
  m_ObjectHideFlags: 0
  serializedVersion: 2
  m_Modification:
    m_TransformParent: {fileID: 7801583717396381968}
    m_Modifications:
    - target: {fileID: -8679921383154817045, guid: e18f8e9d2aaca1b4e8bf3d06556e5749,
        type: 3}
      propertyPath: m_LocalPosition.x
      value: -0
      objectReference: {fileID: 0}
    - target: {fileID: -8679921383154817045, guid: e18f8e9d2aaca1b4e8bf3d06556e5749,
        type: 3}
      propertyPath: m_LocalPosition.y
      value: 0
      objectReference: {fileID: 0}
    - target: {fileID: -8679921383154817045, guid: e18f8e9d2aaca1b4e8bf3d06556e5749,
        type: 3}
      propertyPath: m_LocalPosition.z
      value: 0
      objectReference: {fileID: 0}
    - target: {fileID: -8679921383154817045, guid: e18f8e9d2aaca1b4e8bf3d06556e5749,
        type: 3}
      propertyPath: m_LocalRotation.x
      value: 0
      objectReference: {fileID: 0}
    - target: {fileID: -8679921383154817045, guid: e18f8e9d2aaca1b4e8bf3d06556e5749,
        type: 3}
      propertyPath: m_LocalRotation.y
      value: -0
      objectReference: {fileID: 0}
    - target: {fileID: -8679921383154817045, guid: e18f8e9d2aaca1b4e8bf3d06556e5749,
        type: 3}
      propertyPath: m_LocalRotation.z
      value: -0
      objectReference: {fileID: 0}
    - target: {fileID: -8679921383154817045, guid: e18f8e9d2aaca1b4e8bf3d06556e5749,
        type: 3}
      propertyPath: m_LocalRotation.w
      value: 1
      objectReference: {fileID: 0}
    - target: {fileID: -8679921383154817045, guid: e18f8e9d2aaca1b4e8bf3d06556e5749,
        type: 3}
      propertyPath: m_RootOrder
      value: 0
      objectReference: {fileID: 0}
    - target: {fileID: -8679921383154817045, guid: e18f8e9d2aaca1b4e8bf3d06556e5749,
        type: 3}
      propertyPath: m_LocalEulerAnglesHint.x
      value: 0
      objectReference: {fileID: 0}
    - target: {fileID: -8679921383154817045, guid: e18f8e9d2aaca1b4e8bf3d06556e5749,
        type: 3}
      propertyPath: m_LocalEulerAnglesHint.y
      value: 0
      objectReference: {fileID: 0}
    - target: {fileID: -8679921383154817045, guid: e18f8e9d2aaca1b4e8bf3d06556e5749,
        type: 3}
      propertyPath: m_LocalEulerAnglesHint.z
      value: 0
      objectReference: {fileID: 0}
    - target: {fileID: -7511558181221131132, guid: e18f8e9d2aaca1b4e8bf3d06556e5749,
        type: 3}
      propertyPath: m_Materials.Array.data[0]
      value: 
      objectReference: {fileID: 2100000, guid: 277c7d5538e8c2742aafa20186997733, type: 2}
    - target: {fileID: 919132149155446097, guid: e18f8e9d2aaca1b4e8bf3d06556e5749,
        type: 3}
      propertyPath: m_Name
      value: SM_Die_20_Low
      objectReference: {fileID: 0}
    m_RemovedComponents: []
  m_SourcePrefab: {fileID: 100100000, guid: e18f8e9d2aaca1b4e8bf3d06556e5749, type: 3}
--- !u!1 &7972473237149325498 stripped
GameObject:
  m_CorrespondingSourceObject: {fileID: 919132149155446097, guid: e18f8e9d2aaca1b4e8bf3d06556e5749,
    type: 3}
  m_PrefabInstance: {fileID: 7089373876246095339}
  m_PrefabAsset: {fileID: 0}
--- !u!4 &7343183547331002880 stripped
Transform:
  m_CorrespondingSourceObject: {fileID: -8679921383154817045, guid: e18f8e9d2aaca1b4e8bf3d06556e5749,
    type: 3}
  m_PrefabInstance: {fileID: 7089373876246095339}
  m_PrefabAsset: {fileID: 0}
