%YAML 1.1
%TAG !u! tag:unity3d.com,2011:
--- !u!1 &2369712856593307681
GameObject:
  m_ObjectHideFlags: 0
  m_CorrespondingSourceObject: {fileID: 0}
  m_PrefabInstance: {fileID: 0}
  m_PrefabAsset: {fileID: 0}
  serializedVersion: 6
  m_Component:
  - component: {fileID: 2369712856593335297}
  m_Layer: 0
  m_Name: LowManLeftHand
  m_TagString: Untagged
  m_Icon: {fileID: 0}
  m_NavMeshLayer: 0
  m_StaticEditorFlags: 0
  m_IsActive: 1
--- !u!4 &2369712856593335297
Transform:
  m_ObjectHideFlags: 0
  m_CorrespondingSourceObject: {fileID: 0}
  m_PrefabInstance: {fileID: 0}
  m_PrefabAsset: {fileID: 0}
  m_GameObject: {fileID: 2369712856593307681}
  m_LocalRotation: {x: -0.3663809, y: 0.05575993, z: -0.019344117, w: 0.92859125}
  m_LocalPosition: {x: -0.0000005605242, y: -0.0000001881077, z: 0.26024285}
  m_LocalScale: {x: 1, y: 1, z: 1}
  m_Children:
  - {fileID: 2369712856593335299}
  - {fileID: 2369712856593335305}
  - {fileID: 2369712856593335351}
  - {fileID: 2369712856593335357}
  - {fileID: 2369712856593335355}
  m_Father: {fileID: 2369712856593335303}
  m_RootOrder: 0
  m_LocalEulerAnglesHint: {x: 0, y: 0, z: 0}
--- !u!1 &2369712856593307683
GameObject:
  m_ObjectHideFlags: 0
  m_CorrespondingSourceObject: {fileID: 0}
  m_PrefabInstance: {fileID: 0}
  m_PrefabAsset: {fileID: 0}
  serializedVersion: 6
  m_Component:
  - component: {fileID: 2369712856593335299}
  m_Layer: 0
  m_Name: LowManLeftHandIndex1
  m_TagString: Untagged
  m_Icon: {fileID: 0}
  m_NavMeshLayer: 0
  m_StaticEditorFlags: 0
  m_IsActive: 1
--- !u!4 &2369712856593335299
Transform:
  m_ObjectHideFlags: 0
  m_CorrespondingSourceObject: {fileID: 0}
  m_PrefabInstance: {fileID: 0}
  m_PrefabAsset: {fileID: 0}
  m_GameObject: {fileID: 2369712856593307683}
  m_LocalRotation: {x: 0.9115933, y: 0.1181507, z: -0.21402723, w: -0.33050022}
  m_LocalPosition: {x: -0.02409304, y: -0.055163946, z: 0.08407598}
  m_LocalScale: {x: 1, y: 1.0000001, z: 1.0000007}
  m_Children:
  - {fileID: 2369712856593335309}
  m_Father: {fileID: 2369712856593335297}
  m_RootOrder: 0
  m_LocalEulerAnglesHint: {x: 0, y: 0, z: 0}
--- !u!1 &2369712856593307685
GameObject:
  m_ObjectHideFlags: 0
  m_CorrespondingSourceObject: {fileID: 0}
  m_PrefabInstance: {fileID: 0}
  m_PrefabAsset: {fileID: 0}
  serializedVersion: 6
  m_Component:
  - component: {fileID: 2369712856593335301}
  m_Layer: 0
  m_Name: LowManLeftFoot
  m_TagString: Untagged
  m_Icon: {fileID: 0}
  m_NavMeshLayer: 0
  m_StaticEditorFlags: 0
  m_IsActive: 1
--- !u!4 &2369712856593335301
Transform:
  m_ObjectHideFlags: 0
  m_CorrespondingSourceObject: {fileID: 0}
  m_PrefabInstance: {fileID: 0}
  m_PrefabAsset: {fileID: 0}
  m_GameObject: {fileID: 2369712856593307685}
  m_LocalRotation: {x: -0.52928215, y: 0.00394459, z: 0.0532976, w: 0.84676105}
  m_LocalPosition: {x: -0.00000034323892, y: -0.000000038763368, z: 0.35561472}
  m_LocalScale: {x: 1, y: 1, z: 1}
  m_Children:
  - {fileID: 2369712856593335331}
  m_Father: {fileID: 2369712856593335335}
  m_RootOrder: 0
  m_LocalEulerAnglesHint: {x: 0, y: 0, z: 0}
--- !u!1 &2369712856593307687
GameObject:
  m_ObjectHideFlags: 0
  m_CorrespondingSourceObject: {fileID: 0}
  m_PrefabInstance: {fileID: 0}
  m_PrefabAsset: {fileID: 0}
  serializedVersion: 6
  m_Component:
  - component: {fileID: 2369712856593335303}
  m_Layer: 0
  m_Name: LowManLeftForeArm
  m_TagString: Untagged
  m_Icon: {fileID: 0}
  m_NavMeshLayer: 0
  m_StaticEditorFlags: 0
  m_IsActive: 1
--- !u!4 &2369712856593335303
Transform:
  m_ObjectHideFlags: 0
  m_CorrespondingSourceObject: {fileID: 0}
  m_PrefabInstance: {fileID: 0}
  m_PrefabAsset: {fileID: 0}
  m_GameObject: {fileID: 2369712856593307687}
  m_LocalRotation: {x: -0.015774395, y: -0.018468376, z: -0.0001773863, w: 0.999705}
  m_LocalPosition: {x: 0.0000009870529, y: 0, z: 0.25175828}
  m_LocalScale: {x: 1, y: 0.99999994, z: 0.99999994}
  m_Children:
  - {fileID: 2369712856593335297}
  m_Father: {fileID: 2369712856593335323}
  m_RootOrder: 0
  m_LocalEulerAnglesHint: {x: 0, y: 0, z: 0}
--- !u!1 &2369712856593307689
GameObject:
  m_ObjectHideFlags: 0
  m_CorrespondingSourceObject: {fileID: 0}
  m_PrefabInstance: {fileID: 0}
  m_PrefabAsset: {fileID: 0}
  serializedVersion: 6
  m_Component:
  - component: {fileID: 2369712856593335305}
  m_Layer: 0
  m_Name: LowManLeftHandMiddle1
  m_TagString: Untagged
  m_Icon: {fileID: 0}
  m_NavMeshLayer: 0
  m_StaticEditorFlags: 0
  m_IsActive: 1
--- !u!4 &2369712856593335305
Transform:
  m_ObjectHideFlags: 0
  m_CorrespondingSourceObject: {fileID: 0}
  m_PrefabInstance: {fileID: 0}
  m_PrefabAsset: {fileID: 0}
  m_GameObject: {fileID: 2369712856593307689}
  m_LocalRotation: {x: 0.9115934, y: 0.11815059, z: -0.21402721, w: -0.33050013}
  m_LocalPosition: {x: -0.022832744, y: -0.06642447, z: 0.07294309}
  m_LocalScale: {x: 0.99999994, y: 1, z: 1.0000001}
  m_Children:
  - {fileID: 2369712856593335307}
  m_Father: {fileID: 2369712856593335297}
  m_RootOrder: 1
  m_LocalEulerAnglesHint: {x: 0, y: 0, z: 0}
--- !u!1 &2369712856593307691
GameObject:
  m_ObjectHideFlags: 0
  m_CorrespondingSourceObject: {fileID: 0}
  m_PrefabInstance: {fileID: 0}
  m_PrefabAsset: {fileID: 0}
  serializedVersion: 6
  m_Component:
  - component: {fileID: 2369712856593335307}
  m_Layer: 0
  m_Name: LowManLeftHandMiddle2
  m_TagString: Untagged
  m_Icon: {fileID: 0}
  m_NavMeshLayer: 0
  m_StaticEditorFlags: 0
  m_IsActive: 1
--- !u!4 &2369712856593335307
Transform:
  m_ObjectHideFlags: 0
  m_CorrespondingSourceObject: {fileID: 0}
  m_PrefabInstance: {fileID: 0}
  m_PrefabAsset: {fileID: 0}
  m_GameObject: {fileID: 2369712856593307691}
  m_LocalRotation: {x: -0.14915754, y: -0.499461, z: 0.69119614, w: 0.50053835}
  m_LocalPosition: {x: -0.019423706, y: 0.0023516074, z: -0.030042741}
  m_LocalScale: {x: 1, y: 1.0000001, z: 1.0000001}
  m_Children:
  - {fileID: 2369712856593335349}
  m_Father: {fileID: 2369712856593335305}
  m_RootOrder: 0
  m_LocalEulerAnglesHint: {x: 0, y: 0, z: 0}
--- !u!1 &2369712856593307693
GameObject:
  m_ObjectHideFlags: 0
  m_CorrespondingSourceObject: {fileID: 0}
  m_PrefabInstance: {fileID: 0}
  m_PrefabAsset: {fileID: 0}
  serializedVersion: 6
  m_Component:
  - component: {fileID: 2369712856593335309}
  m_Layer: 0
  m_Name: LowManLeftHandIndex2
  m_TagString: Untagged
  m_Icon: {fileID: 0}
  m_NavMeshLayer: 0
  m_StaticEditorFlags: 0
  m_IsActive: 1
--- !u!4 &2369712856593335309
Transform:
  m_ObjectHideFlags: 0
  m_CorrespondingSourceObject: {fileID: 0}
  m_PrefabInstance: {fileID: 0}
  m_PrefabAsset: {fileID: 0}
  m_GameObject: {fileID: 2369712856593307693}
  m_LocalRotation: {x: -0.1491574, y: -0.49946102, z: 0.69119596, w: 0.50053865}
  m_LocalPosition: {x: -0.019423757, y: 0.0023515965, z: -0.030042682}
  m_LocalScale: {x: 0.99999994, y: 0.99999994, z: 0.9999999}
  m_Children:
  - {fileID: 2369712856593335311}
  m_Father: {fileID: 2369712856593335299}
  m_RootOrder: 0
  m_LocalEulerAnglesHint: {x: 0, y: 0, z: 0}
--- !u!1 &2369712856593307695
GameObject:
  m_ObjectHideFlags: 0
  m_CorrespondingSourceObject: {fileID: 0}
  m_PrefabInstance: {fileID: 0}
  m_PrefabAsset: {fileID: 0}
  serializedVersion: 6
  m_Component:
  - component: {fileID: 2369712856593335311}
  m_Layer: 0
  m_Name: LowManLeftHandIndex2_end
  m_TagString: Untagged
  m_Icon: {fileID: 0}
  m_NavMeshLayer: 0
  m_StaticEditorFlags: 0
  m_IsActive: 1
--- !u!4 &2369712856593335311
Transform:
  m_ObjectHideFlags: 0
  m_CorrespondingSourceObject: {fileID: 0}
  m_PrefabInstance: {fileID: 0}
  m_PrefabAsset: {fileID: 0}
  m_GameObject: {fileID: 2369712856593307695}
  m_LocalRotation: {x: 0, y: -0, z: -0, w: 1}
  m_LocalPosition: {x: -0, y: 0.09924485, z: 0}
  m_LocalScale: {x: 1, y: 1, z: 1}
  m_Children: []
  m_Father: {fileID: 2369712856593335309}
  m_RootOrder: 0
  m_LocalEulerAnglesHint: {x: 0, y: 0, z: 0}
--- !u!1 &2369712856593307697
GameObject:
  m_ObjectHideFlags: 0
  m_CorrespondingSourceObject: {fileID: 0}
  m_PrefabInstance: {fileID: 0}
  m_PrefabAsset: {fileID: 0}
  serializedVersion: 6
  m_Component:
  - component: {fileID: 2369712856593335313}
  - component: {fileID: 2369712856581739825}
  m_Layer: 0
  m_Name: Head 1 Male Hair 2
  m_TagString: Untagged
  m_Icon: {fileID: 0}
  m_NavMeshLayer: 0
  m_StaticEditorFlags: 0
  m_IsActive: 0
--- !u!4 &2369712856593335313
Transform:
  m_ObjectHideFlags: 0
  m_CorrespondingSourceObject: {fileID: 0}
  m_PrefabInstance: {fileID: 0}
  m_PrefabAsset: {fileID: 0}
  m_GameObject: {fileID: 2369712856593307697}
  m_LocalRotation: {x: 0.00000008146035, y: 1.1763632e-17, z: 6.887626e-18, w: 1}
  m_LocalPosition: {x: -0, y: 5.293956e-23, z: -0.0000000040949577}
  m_LocalScale: {x: 1.0000005, y: 1.0000005, z: 1.0000005}
  m_Children: []
  m_Father: {fileID: 2369712856593335393}
  m_RootOrder: 2
  m_LocalEulerAnglesHint: {x: 0, y: 0, z: 0}
--- !u!137 &2369712856581739825
SkinnedMeshRenderer:
  m_ObjectHideFlags: 0
  m_CorrespondingSourceObject: {fileID: 0}
  m_PrefabInstance: {fileID: 0}
  m_PrefabAsset: {fileID: 0}
  m_GameObject: {fileID: 2369712856593307697}
  m_Enabled: 1
  m_CastShadows: 1
  m_ReceiveShadows: 1
  m_DynamicOccludee: 1
  m_MotionVectors: 1
  m_LightProbeUsage: 1
  m_ReflectionProbeUsage: 1
  m_RayTracingMode: 3
  m_RayTraceProcedural: 0
  m_RenderingLayerMask: 1
  m_RendererPriority: 0
  m_Materials:
  - {fileID: 2100000, guid: f8709670b974bb34b9bb5bde311063da, type: 2}
  - {fileID: 2100000, guid: ebe0fedcf36050348ae48d12e109f895, type: 2}
  m_StaticBatchInfo:
    firstSubMesh: 0
    subMeshCount: 0
  m_StaticBatchRoot: {fileID: 0}
  m_ProbeAnchor: {fileID: 0}
  m_LightProbeVolumeOverride: {fileID: 0}
  m_ScaleInLightmap: 1
  m_ReceiveGI: 1
  m_PreserveUVs: 0
  m_IgnoreNormalsForChartDetection: 0
  m_ImportantGI: 0
  m_StitchLightmapSeams: 0
  m_SelectedEditorRenderState: 3
  m_MinimumChartSize: 4
  m_AutoUVMaxDistance: 0.5
  m_AutoUVMaxAngle: 89
  m_LightmapParameters: {fileID: 0}
  m_SortingLayerID: 0
  m_SortingLayer: 0
  m_SortingOrder: 0
  serializedVersion: 2
  m_Quality: 0
  m_UpdateWhenOffscreen: 0
  m_SkinnedMotionVectors: 1
  m_Mesh: {fileID: 4300008, guid: 6ff98783d10689e4199627949324d20f, type: 3}
  m_Bones:
  - {fileID: 2369712856593335321}
  - {fileID: 2369712856593335343}
  - {fileID: 2369712856593335335}
  - {fileID: 2369712856593335301}
  - {fileID: 2369712856593335331}
  - {fileID: 2369712856593335423}
  - {fileID: 2369712856593335415}
  - {fileID: 2369712856593335381}
  - {fileID: 2369712856593335411}
  - {fileID: 2369712856593335417}
  - {fileID: 2369712856593335419}
  - {fileID: 2369712856593335397}
  - {fileID: 2369712856593335329}
  - {fileID: 2369712856593335323}
  - {fileID: 2369712856593335303}
  - {fileID: 2369712856593335297}
  - {fileID: 2369712856593335355}
  - {fileID: 2369712856593335299}
  - {fileID: 2369712856593335309}
  - {fileID: 2369712856593335305}
  - {fileID: 2369712856593335307}
  - {fileID: 2369712856593335357}
  - {fileID: 2369712856593335359}
  - {fileID: 2369712856593335351}
  - {fileID: 2369712856593335345}
  - {fileID: 2369712856593335409}
  - {fileID: 2369712856593335339}
  - {fileID: 2369712856593335383}
  - {fileID: 2369712856593335377}
  - {fileID: 2369712856593335371}
  - {fileID: 2369712856593335379}
  - {fileID: 2369712856593335389}
  - {fileID: 2369712856593335385}
  - {fileID: 2369712856593335387}
  - {fileID: 2369712856593335373}
  - {fileID: 2369712856593335375}
  - {fileID: 2369712856593335367}
  - {fileID: 2369712856593335361}
  - {fileID: 2369712856593335337}
  - {fileID: 2369712856593335325}
  m_BlendShapeWeights: []
  m_RootBone: {fileID: 2369712856593335321}
  m_AABB:
    m_Center: {x: -0.0013199635, y: 0.6432564, z: 0.044900917}
    m_Extent: {x: 0.09294766, y: 0.18421885, z: 0.11874143}
  m_DirtyAABB: 0
--- !u!1 &2369712856593307699
GameObject:
  m_ObjectHideFlags: 0
  m_CorrespondingSourceObject: {fileID: 0}
  m_PrefabInstance: {fileID: 0}
  m_PrefabAsset: {fileID: 0}
  serializedVersion: 6
  m_Component:
  - component: {fileID: 2369712856593335315}
  - component: {fileID: 2369712856581739827}
  m_Layer: 0
  m_Name: Head 1 Male Hair 3
  m_TagString: Untagged
  m_Icon: {fileID: 0}
  m_NavMeshLayer: 0
  m_StaticEditorFlags: 0
  m_IsActive: 0
--- !u!4 &2369712856593335315
Transform:
  m_ObjectHideFlags: 0
  m_CorrespondingSourceObject: {fileID: 0}
  m_PrefabInstance: {fileID: 0}
  m_PrefabAsset: {fileID: 0}
  m_GameObject: {fileID: 2369712856593307699}
  m_LocalRotation: {x: 0.00000008146035, y: 1.1763632e-17, z: 6.887626e-18, w: 1}
  m_LocalPosition: {x: -4.0208827e-25, y: 5.293956e-23, z: -0.0000000040949577}
  m_LocalScale: {x: 1.0000005, y: 1.0000005, z: 1.0000005}
  m_Children: []
  m_Father: {fileID: 2369712856593335393}
  m_RootOrder: 3
  m_LocalEulerAnglesHint: {x: 0, y: 0, z: 0}
--- !u!137 &2369712856581739827
SkinnedMeshRenderer:
  m_ObjectHideFlags: 0
  m_CorrespondingSourceObject: {fileID: 0}
  m_PrefabInstance: {fileID: 0}
  m_PrefabAsset: {fileID: 0}
  m_GameObject: {fileID: 2369712856593307699}
  m_Enabled: 1
  m_CastShadows: 1
  m_ReceiveShadows: 1
  m_DynamicOccludee: 1
  m_MotionVectors: 1
  m_LightProbeUsage: 1
  m_ReflectionProbeUsage: 1
  m_RayTracingMode: 3
  m_RayTraceProcedural: 0
  m_RenderingLayerMask: 1
  m_RendererPriority: 0
  m_Materials:
  - {fileID: 2100000, guid: ebe0fedcf36050348ae48d12e109f895, type: 2}
  - {fileID: 2100000, guid: f8709670b974bb34b9bb5bde311063da, type: 2}
  m_StaticBatchInfo:
    firstSubMesh: 0
    subMeshCount: 0
  m_StaticBatchRoot: {fileID: 0}
  m_ProbeAnchor: {fileID: 0}
  m_LightProbeVolumeOverride: {fileID: 0}
  m_ScaleInLightmap: 1
  m_ReceiveGI: 1
  m_PreserveUVs: 0
  m_IgnoreNormalsForChartDetection: 0
  m_ImportantGI: 0
  m_StitchLightmapSeams: 0
  m_SelectedEditorRenderState: 3
  m_MinimumChartSize: 4
  m_AutoUVMaxDistance: 0.5
  m_AutoUVMaxAngle: 89
  m_LightmapParameters: {fileID: 0}
  m_SortingLayerID: 0
  m_SortingLayer: 0
  m_SortingOrder: 0
  serializedVersion: 2
  m_Quality: 0
  m_UpdateWhenOffscreen: 0
  m_SkinnedMotionVectors: 1
  m_Mesh: {fileID: 4300010, guid: 6ff98783d10689e4199627949324d20f, type: 3}
  m_Bones:
  - {fileID: 2369712856593335321}
  - {fileID: 2369712856593335343}
  - {fileID: 2369712856593335335}
  - {fileID: 2369712856593335301}
  - {fileID: 2369712856593335331}
  - {fileID: 2369712856593335423}
  - {fileID: 2369712856593335415}
  - {fileID: 2369712856593335381}
  - {fileID: 2369712856593335411}
  - {fileID: 2369712856593335417}
  - {fileID: 2369712856593335419}
  - {fileID: 2369712856593335397}
  - {fileID: 2369712856593335329}
  - {fileID: 2369712856593335323}
  - {fileID: 2369712856593335303}
  - {fileID: 2369712856593335297}
  - {fileID: 2369712856593335355}
  - {fileID: 2369712856593335299}
  - {fileID: 2369712856593335309}
  - {fileID: 2369712856593335305}
  - {fileID: 2369712856593335307}
  - {fileID: 2369712856593335357}
  - {fileID: 2369712856593335359}
  - {fileID: 2369712856593335351}
  - {fileID: 2369712856593335345}
  - {fileID: 2369712856593335409}
  - {fileID: 2369712856593335339}
  - {fileID: 2369712856593335383}
  - {fileID: 2369712856593335377}
  - {fileID: 2369712856593335371}
  - {fileID: 2369712856593335379}
  - {fileID: 2369712856593335389}
  - {fileID: 2369712856593335385}
  - {fileID: 2369712856593335387}
  - {fileID: 2369712856593335373}
  - {fileID: 2369712856593335375}
  - {fileID: 2369712856593335367}
  - {fileID: 2369712856593335361}
  - {fileID: 2369712856593335337}
  - {fileID: 2369712856593335325}
  m_BlendShapeWeights: []
  m_RootBone: {fileID: 2369712856593335321}
  m_AABB:
    m_Center: {x: -0.000948146, y: 0.638571, z: 0.045487106}
    m_Extent: {x: 0.09257585, y: 0.17953345, z: 0.106818214}
  m_DirtyAABB: 0
--- !u!1 &2369712856593307701
GameObject:
  m_ObjectHideFlags: 0
  m_CorrespondingSourceObject: {fileID: 0}
  m_PrefabInstance: {fileID: 0}
  m_PrefabAsset: {fileID: 0}
  serializedVersion: 6
  m_Component:
  - component: {fileID: 2369712856593335317}
  - component: {fileID: 2369712856581739829}
  m_Layer: 0
  m_Name: Head 1 Male Bald
  m_TagString: Untagged
  m_Icon: {fileID: 0}
  m_NavMeshLayer: 0
  m_StaticEditorFlags: 0
  m_IsActive: 0
--- !u!4 &2369712856593335317
Transform:
  m_ObjectHideFlags: 0
  m_CorrespondingSourceObject: {fileID: 0}
  m_PrefabInstance: {fileID: 0}
  m_PrefabAsset: {fileID: 0}
  m_GameObject: {fileID: 2369712856593307701}
  m_LocalRotation: {x: 0.00000008146035, y: 1.1763632e-17, z: 6.887626e-18, w: 1}
  m_LocalPosition: {x: -0, y: 5.293956e-23, z: -0.0000000040949577}
  m_LocalScale: {x: 1.0000005, y: 1.0000005, z: 1.0000005}
  m_Children: []
  m_Father: {fileID: 2369712856593335393}
  m_RootOrder: 0
  m_LocalEulerAnglesHint: {x: 0, y: 0, z: 0}
--- !u!137 &2369712856581739829
SkinnedMeshRenderer:
  m_ObjectHideFlags: 0
  m_CorrespondingSourceObject: {fileID: 0}
  m_PrefabInstance: {fileID: 0}
  m_PrefabAsset: {fileID: 0}
  m_GameObject: {fileID: 2369712856593307701}
  m_Enabled: 1
  m_CastShadows: 1
  m_ReceiveShadows: 1
  m_DynamicOccludee: 1
  m_MotionVectors: 1
  m_LightProbeUsage: 1
  m_ReflectionProbeUsage: 1
  m_RayTracingMode: 3
  m_RayTraceProcedural: 0
  m_RenderingLayerMask: 1
  m_RendererPriority: 0
  m_Materials:
  - {fileID: 2100000, guid: f8709670b974bb34b9bb5bde311063da, type: 2}
  m_StaticBatchInfo:
    firstSubMesh: 0
    subMeshCount: 0
  m_StaticBatchRoot: {fileID: 0}
  m_ProbeAnchor: {fileID: 0}
  m_LightProbeVolumeOverride: {fileID: 0}
  m_ScaleInLightmap: 1
  m_ReceiveGI: 1
  m_PreserveUVs: 0
  m_IgnoreNormalsForChartDetection: 0
  m_ImportantGI: 0
  m_StitchLightmapSeams: 0
  m_SelectedEditorRenderState: 3
  m_MinimumChartSize: 4
  m_AutoUVMaxDistance: 0.5
  m_AutoUVMaxAngle: 89
  m_LightmapParameters: {fileID: 0}
  m_SortingLayerID: 0
  m_SortingLayer: 0
  m_SortingOrder: 0
  serializedVersion: 2
  m_Quality: 0
  m_UpdateWhenOffscreen: 0
  m_SkinnedMotionVectors: 1
  m_Mesh: {fileID: 4300000, guid: 6ff98783d10689e4199627949324d20f, type: 3}
  m_Bones:
  - {fileID: 2369712856593335321}
  - {fileID: 2369712856593335343}
  - {fileID: 2369712856593335335}
  - {fileID: 2369712856593335301}
  - {fileID: 2369712856593335331}
  - {fileID: 2369712856593335423}
  - {fileID: 2369712856593335415}
  - {fileID: 2369712856593335381}
  - {fileID: 2369712856593335411}
  - {fileID: 2369712856593335417}
  - {fileID: 2369712856593335419}
  - {fileID: 2369712856593335397}
  - {fileID: 2369712856593335329}
  - {fileID: 2369712856593335323}
  - {fileID: 2369712856593335303}
  - {fileID: 2369712856593335297}
  - {fileID: 2369712856593335355}
  - {fileID: 2369712856593335299}
  - {fileID: 2369712856593335309}
  - {fileID: 2369712856593335305}
  - {fileID: 2369712856593335307}
  - {fileID: 2369712856593335357}
  - {fileID: 2369712856593335359}
  - {fileID: 2369712856593335351}
  - {fileID: 2369712856593335345}
  - {fileID: 2369712856593335409}
  - {fileID: 2369712856593335339}
  - {fileID: 2369712856593335383}
  - {fileID: 2369712856593335377}
  - {fileID: 2369712856593335371}
  - {fileID: 2369712856593335379}
  - {fileID: 2369712856593335389}
  - {fileID: 2369712856593335385}
  - {fileID: 2369712856593335387}
  - {fileID: 2369712856593335373}
  - {fileID: 2369712856593335375}
  - {fileID: 2369712856593335367}
  - {fileID: 2369712856593335361}
  - {fileID: 2369712856593335337}
  - {fileID: 2369712856593335325}
  m_BlendShapeWeights: []
  m_RootBone: {fileID: 2369712856593335321}
  m_AABB:
    m_Center: {x: -0.000948146, y: 0.638571, z: 0.045487106}
    m_Extent: {x: 0.09257585, y: 0.17953345, z: 0.106818214}
  m_DirtyAABB: 0
--- !u!1 &2369712856593307703
GameObject:
  m_ObjectHideFlags: 0
  m_CorrespondingSourceObject: {fileID: 0}
  m_PrefabInstance: {fileID: 0}
  m_PrefabAsset: {fileID: 0}
  serializedVersion: 6
  m_Component:
  - component: {fileID: 2369712856593335319}
  - component: {fileID: 2369712856581739831}
  m_Layer: 0
  m_Name: Head 1 Male Hair 1
  m_TagString: Untagged
  m_Icon: {fileID: 0}
  m_NavMeshLayer: 0
  m_StaticEditorFlags: 0
  m_IsActive: 1
--- !u!4 &2369712856593335319
Transform:
  m_ObjectHideFlags: 0
  m_CorrespondingSourceObject: {fileID: 0}
  m_PrefabInstance: {fileID: 0}
  m_PrefabAsset: {fileID: 0}
  m_GameObject: {fileID: 2369712856593307703}
  m_LocalRotation: {x: 0.00000008146035, y: 1.1763632e-17, z: 6.887626e-18, w: 1}
  m_LocalPosition: {x: -0, y: 5.293956e-23, z: -0.0000000040949577}
  m_LocalScale: {x: 1.0000005, y: 1.0000005, z: 1.0000005}
  m_Children: []
  m_Father: {fileID: 2369712856593335393}
  m_RootOrder: 1
  m_LocalEulerAnglesHint: {x: 0, y: 0, z: 0}
--- !u!137 &2369712856581739831
SkinnedMeshRenderer:
  m_ObjectHideFlags: 0
  m_CorrespondingSourceObject: {fileID: 0}
  m_PrefabInstance: {fileID: 0}
  m_PrefabAsset: {fileID: 0}
  m_GameObject: {fileID: 2369712856593307703}
  m_Enabled: 1
  m_CastShadows: 1
  m_ReceiveShadows: 1
  m_DynamicOccludee: 1
  m_MotionVectors: 1
  m_LightProbeUsage: 1
  m_ReflectionProbeUsage: 1
  m_RayTracingMode: 3
  m_RayTraceProcedural: 0
  m_RenderingLayerMask: 1
  m_RendererPriority: 0
  m_Materials:
  - {fileID: 2100000, guid: 0cb07277ecdcb6547ad06f13b33b4736, type: 2}
  - {fileID: 2100000, guid: 5605e5920a541bf408757aac3099af95, type: 2}
  m_StaticBatchInfo:
    firstSubMesh: 0
    subMeshCount: 0
  m_StaticBatchRoot: {fileID: 0}
  m_ProbeAnchor: {fileID: 0}
  m_LightProbeVolumeOverride: {fileID: 0}
  m_ScaleInLightmap: 1
  m_ReceiveGI: 1
  m_PreserveUVs: 0
  m_IgnoreNormalsForChartDetection: 0
  m_ImportantGI: 0
  m_StitchLightmapSeams: 0
  m_SelectedEditorRenderState: 3
  m_MinimumChartSize: 4
  m_AutoUVMaxDistance: 0.5
  m_AutoUVMaxAngle: 89
  m_LightmapParameters: {fileID: 0}
  m_SortingLayerID: 0
  m_SortingLayer: 0
  m_SortingOrder: 0
  serializedVersion: 2
  m_Quality: 0
  m_UpdateWhenOffscreen: 0
  m_SkinnedMotionVectors: 1
  m_Mesh: {fileID: 4300004, guid: 6ff98783d10689e4199627949324d20f, type: 3}
  m_Bones:
  - {fileID: 2369712856593335321}
  - {fileID: 2369712856593335343}
  - {fileID: 2369712856593335335}
  - {fileID: 2369712856593335301}
  - {fileID: 2369712856593335331}
  - {fileID: 2369712856593335423}
  - {fileID: 2369712856593335415}
  - {fileID: 2369712856593335381}
  - {fileID: 2369712856593335411}
  - {fileID: 2369712856593335417}
  - {fileID: 2369712856593335419}
  - {fileID: 2369712856593335397}
  - {fileID: 2369712856593335329}
  - {fileID: 2369712856593335323}
  - {fileID: 2369712856593335303}
  - {fileID: 2369712856593335297}
  - {fileID: 2369712856593335355}
  - {fileID: 2369712856593335299}
  - {fileID: 2369712856593335309}
  - {fileID: 2369712856593335305}
  - {fileID: 2369712856593335307}
  - {fileID: 2369712856593335357}
  - {fileID: 2369712856593335359}
  - {fileID: 2369712856593335351}
  - {fileID: 2369712856593335345}
  - {fileID: 2369712856593335409}
  - {fileID: 2369712856593335339}
  - {fileID: 2369712856593335383}
  - {fileID: 2369712856593335377}
  - {fileID: 2369712856593335371}
  - {fileID: 2369712856593335379}
  - {fileID: 2369712856593335389}
  - {fileID: 2369712856593335385}
  - {fileID: 2369712856593335387}
  - {fileID: 2369712856593335373}
  - {fileID: 2369712856593335375}
  - {fileID: 2369712856593335367}
  - {fileID: 2369712856593335361}
  - {fileID: 2369712856593335337}
  - {fileID: 2369712856593335325}
  m_BlendShapeWeights: []
  m_RootBone: {fileID: 2369712856593335321}
  m_AABB:
    m_Center: {x: -0.000000044703484, y: 0.64899635, z: 0.05043216}
    m_Extent: {x: 0.095285095, y: 0.18995878, z: 0.12861483}
  m_DirtyAABB: 0
--- !u!1 &2369712856593307705
GameObject:
  m_ObjectHideFlags: 0
  m_CorrespondingSourceObject: {fileID: 0}
  m_PrefabInstance: {fileID: 0}
  m_PrefabAsset: {fileID: 0}
  serializedVersion: 6
  m_Component:
  - component: {fileID: 2369712856593335321}
  m_Layer: 0
  m_Name: LowManHips
  m_TagString: Untagged
  m_Icon: {fileID: 0}
  m_NavMeshLayer: 0
  m_StaticEditorFlags: 0
  m_IsActive: 1
--- !u!4 &2369712856593335321
Transform:
  m_ObjectHideFlags: 0
  m_CorrespondingSourceObject: {fileID: 0}
  m_PrefabInstance: {fileID: 0}
  m_PrefabAsset: {fileID: 0}
  m_GameObject: {fileID: 2369712856593307705}
  m_LocalRotation: {x: 0, y: -0, z: -0, w: 1}
  m_LocalPosition: {x: -0, y: 0.92160004, z: 0}
  m_LocalScale: {x: 1, y: 1, z: 1}
  m_Children:
  - {fileID: 2369712856593335343}
  - {fileID: 2369712856593335423}
  - {fileID: 2369712856593335417}
  m_Father: {fileID: 2369712856593335399}
  m_RootOrder: 0
  m_LocalEulerAnglesHint: {x: 0, y: 0, z: 0}
--- !u!1 &2369712856593307707
GameObject:
  m_ObjectHideFlags: 0
  m_CorrespondingSourceObject: {fileID: 0}
  m_PrefabInstance: {fileID: 0}
  m_PrefabAsset: {fileID: 0}
  serializedVersion: 6
  m_Component:
  - component: {fileID: 2369712856593335323}
  m_Layer: 0
  m_Name: LowManLeftArm
  m_TagString: Untagged
  m_Icon: {fileID: 0}
  m_NavMeshLayer: 0
  m_StaticEditorFlags: 0
  m_IsActive: 1
--- !u!4 &2369712856593335323
Transform:
  m_ObjectHideFlags: 0
  m_CorrespondingSourceObject: {fileID: 0}
  m_PrefabInstance: {fileID: 0}
  m_PrefabAsset: {fileID: 0}
  m_GameObject: {fileID: 2369712856593307707}
  m_LocalRotation: {x: 0, y: 0.014864146, z: -0, w: 0.99988955}
  m_LocalPosition: {x: -0.0000004832598, y: 0, z: 0.09867812}
  m_LocalScale: {x: 0.99999994, y: 1, z: 0.99999994}
  m_Children:
  - {fileID: 2369712856593335303}
  m_Father: {fileID: 2369712856593335329}
  m_RootOrder: 0
  m_LocalEulerAnglesHint: {x: 0, y: 0, z: 0}
--- !u!1 &2369712856593307709
GameObject:
  m_ObjectHideFlags: 0
  m_CorrespondingSourceObject: {fileID: 0}
  m_PrefabInstance: {fileID: 0}
  m_PrefabAsset: {fileID: 0}
  serializedVersion: 6
  m_Component:
  - component: {fileID: 2369712856593335325}
  m_Layer: 0
  m_Name: LowManHead
  m_TagString: Untagged
  m_Icon: {fileID: 0}
  m_NavMeshLayer: 0
  m_StaticEditorFlags: 0
  m_IsActive: 1
--- !u!4 &2369712856593335325
Transform:
  m_ObjectHideFlags: 0
  m_CorrespondingSourceObject: {fileID: 0}
  m_PrefabInstance: {fileID: 0}
  m_PrefabAsset: {fileID: 0}
  m_GameObject: {fileID: 2369712856593307709}
  m_LocalRotation: {x: 0.7071068, y: -1.2560731e-15, z: 1.2560751e-15, w: 0.7071067}
  m_LocalPosition: {x: 0.00000001351647, y: 0, z: 0.10339248}
  m_LocalScale: {x: 1, y: 1, z: 1}
  m_Children:
  - {fileID: 2369712856593335327}
  m_Father: {fileID: 2369712856593335337}
  m_RootOrder: 0
  m_LocalEulerAnglesHint: {x: 0, y: 0, z: 0}
--- !u!1 &2369712856593307711
GameObject:
  m_ObjectHideFlags: 0
  m_CorrespondingSourceObject: {fileID: 0}
  m_PrefabInstance: {fileID: 0}
  m_PrefabAsset: {fileID: 0}
  serializedVersion: 6
  m_Component:
  - component: {fileID: 2369712856593335327}
  m_Layer: 0
  m_Name: LowManHead_end
  m_TagString: Untagged
  m_Icon: {fileID: 0}
  m_NavMeshLayer: 0
  m_StaticEditorFlags: 0
  m_IsActive: 1
--- !u!4 &2369712856593335327
Transform:
  m_ObjectHideFlags: 0
  m_CorrespondingSourceObject: {fileID: 0}
  m_PrefabInstance: {fileID: 0}
  m_PrefabAsset: {fileID: 0}
  m_GameObject: {fileID: 2369712856593307711}
  m_LocalRotation: {x: 0, y: -0, z: -0, w: 1}
  m_LocalPosition: {x: -0, y: 0.10339248, z: 0}
  m_LocalScale: {x: 1, y: 1, z: 1}
  m_Children: []
  m_Father: {fileID: 2369712856593335325}
  m_RootOrder: 0
  m_LocalEulerAnglesHint: {x: 0, y: 0, z: 0}
--- !u!1 &2369712856593307713
GameObject:
  m_ObjectHideFlags: 0
  m_CorrespondingSourceObject: {fileID: 0}
  m_PrefabInstance: {fileID: 0}
  m_PrefabAsset: {fileID: 0}
  serializedVersion: 6
  m_Component:
  - component: {fileID: 2369712856593335329}
  m_Layer: 0
  m_Name: LowManLeftShoulder
  m_TagString: Untagged
  m_Icon: {fileID: 0}
  m_NavMeshLayer: 0
  m_StaticEditorFlags: 0
  m_IsActive: 1
--- !u!4 &2369712856593335329
Transform:
  m_ObjectHideFlags: 0
  m_CorrespondingSourceObject: {fileID: 0}
  m_PrefabInstance: {fileID: 0}
  m_PrefabAsset: {fileID: 0}
  m_GameObject: {fileID: 2369712856593307713}
  m_LocalRotation: {x: -0.41203037, y: 0.00000001801042, z: 0.9111701, w: 0.000000039828514}
  m_LocalPosition: {x: -0.00000026226044, y: 0, z: 0.09767824}
  m_LocalScale: {x: 1, y: 1, z: 1}
  m_Children:
  - {fileID: 2369712856593335323}
  m_Father: {fileID: 2369712856593335397}
  m_RootOrder: 0
  m_LocalEulerAnglesHint: {x: 0, y: 0, z: 0}
--- !u!1 &2369712856593307715
GameObject:
  m_ObjectHideFlags: 0
  m_CorrespondingSourceObject: {fileID: 0}
  m_PrefabInstance: {fileID: 0}
  m_PrefabAsset: {fileID: 0}
  serializedVersion: 6
  m_Component:
  - component: {fileID: 2369712856593335331}
  m_Layer: 0
  m_Name: LowManLeftToeBase
  m_TagString: Untagged
  m_Icon: {fileID: 0}
  m_NavMeshLayer: 0
  m_StaticEditorFlags: 0
  m_IsActive: 1
--- !u!4 &2369712856593335331
Transform:
  m_ObjectHideFlags: 0
  m_CorrespondingSourceObject: {fileID: 0}
  m_PrefabInstance: {fileID: 0}
  m_PrefabAsset: {fileID: 0}
  m_GameObject: {fileID: 2369712856593307715}
  m_LocalRotation: {x: -0.26146156, y: 0.046164513, z: 0.012520741, w: 0.964028}
  m_LocalPosition: {x: 0.000000049695373, y: 0.000000008166836, z: 0.18345621}
  m_LocalScale: {x: 0.99999994, y: 1.0000001, z: 1}
  m_Children:
  - {fileID: 2369712856593335341}
  m_Father: {fileID: 2369712856593335301}
  m_RootOrder: 0
  m_LocalEulerAnglesHint: {x: 0, y: 0, z: 0}
--- !u!1 &2369712856593307717
GameObject:
  m_ObjectHideFlags: 0
  m_CorrespondingSourceObject: {fileID: 0}
  m_PrefabInstance: {fileID: 0}
  m_PrefabAsset: {fileID: 0}
  serializedVersion: 6
  m_Component:
  - component: {fileID: 2369712856593335333}
  m_Layer: 0
  m_Name: LowManLeftHandThumb1_end
  m_TagString: Untagged
  m_Icon: {fileID: 0}
  m_NavMeshLayer: 0
  m_StaticEditorFlags: 0
  m_IsActive: 1
--- !u!4 &2369712856593335333
Transform:
  m_ObjectHideFlags: 0
  m_CorrespondingSourceObject: {fileID: 0}
  m_PrefabInstance: {fileID: 0}
  m_PrefabAsset: {fileID: 0}
  m_GameObject: {fileID: 2369712856593307717}
  m_LocalRotation: {x: 0, y: -0, z: -0, w: 1}
  m_LocalPosition: {x: -0, y: 0.08623934, z: 0}
  m_LocalScale: {x: 1, y: 1, z: 1}
  m_Children: []
  m_Father: {fileID: 2369712856593335355}
  m_RootOrder: 0
  m_LocalEulerAnglesHint: {x: 0, y: 0, z: 0}
--- !u!1 &2369712856593307719
GameObject:
  m_ObjectHideFlags: 0
  m_CorrespondingSourceObject: {fileID: 0}
  m_PrefabInstance: {fileID: 0}
  m_PrefabAsset: {fileID: 0}
  serializedVersion: 6
  m_Component:
  - component: {fileID: 2369712856593335335}
  m_Layer: 0
  m_Name: LowManLeftLeg
  m_TagString: Untagged
  m_Icon: {fileID: 0}
  m_NavMeshLayer: 0
  m_StaticEditorFlags: 0
  m_IsActive: 1
--- !u!4 &2369712856593335335
Transform:
  m_ObjectHideFlags: 0
  m_CorrespondingSourceObject: {fileID: 0}
  m_PrefabInstance: {fileID: 0}
  m_PrefabAsset: {fileID: 0}
  m_GameObject: {fileID: 2369712856593307719}
  m_LocalRotation: {x: 0.06093687, y: 0.025125531, z: -0.007978735, w: 0.99779344}
  m_LocalPosition: {x: -0.00000014260411, y: 0.000000077626396, z: 0.41396242}
  m_LocalScale: {x: 0.99999994, y: 1.0000001, z: 1}
  m_Children:
  - {fileID: 2369712856593335301}
  m_Father: {fileID: 2369712856593335343}
  m_RootOrder: 0
  m_LocalEulerAnglesHint: {x: 0, y: 0, z: 0}
--- !u!1 &2369712856593307721
GameObject:
  m_ObjectHideFlags: 0
  m_CorrespondingSourceObject: {fileID: 0}
  m_PrefabInstance: {fileID: 0}
  m_PrefabAsset: {fileID: 0}
  serializedVersion: 6
  m_Component:
  - component: {fileID: 2369712856593335337}
  m_Layer: 0
  m_Name: LowManNeck
  m_TagString: Untagged
  m_Icon: {fileID: 0}
  m_NavMeshLayer: 0
  m_StaticEditorFlags: 0
  m_IsActive: 1
--- !u!4 &2369712856593335337
Transform:
  m_ObjectHideFlags: 0
  m_CorrespondingSourceObject: {fileID: 0}
  m_PrefabInstance: {fileID: 0}
  m_PrefabAsset: {fileID: 0}
  m_GameObject: {fileID: 2369712856593307721}
  m_LocalRotation: {x: 0, y: 0.35293898, z: -0, w: 0.93564636}
  m_LocalPosition: {x: 0.0971186, y: 0, z: 0.110414274}
  m_LocalScale: {x: 0.9999999, y: 1, z: 0.9999999}
  m_Children:
  - {fileID: 2369712856593335325}
  m_Father: {fileID: 2369712856593335397}
  m_RootOrder: 1
  m_LocalEulerAnglesHint: {x: 0, y: 0, z: 0}
--- !u!1 &2369712856593307723
GameObject:
  m_ObjectHideFlags: 0
  m_CorrespondingSourceObject: {fileID: 0}
  m_PrefabInstance: {fileID: 0}
  m_PrefabAsset: {fileID: 0}
  serializedVersion: 6
  m_Component:
  - component: {fileID: 2369712856593335339}
  m_Layer: 0
  m_Name: LowManRightArm
  m_TagString: Untagged
  m_Icon: {fileID: 0}
  m_NavMeshLayer: 0
  m_StaticEditorFlags: 0
  m_IsActive: 1
--- !u!4 &2369712856593335339
Transform:
  m_ObjectHideFlags: 0
  m_CorrespondingSourceObject: {fileID: 0}
  m_PrefabInstance: {fileID: 0}
  m_PrefabAsset: {fileID: 0}
  m_GameObject: {fileID: 2369712856593307723}
  m_LocalRotation: {x: 0, y: 0.014864369, z: -0, w: 0.99988955}
  m_LocalPosition: {x: -0.00000063584736, y: -0.000000009536743, z: 0.09867809}
  m_LocalScale: {x: 0.99999994, y: 1, z: 0.99999994}
  m_Children:
  - {fileID: 2369712856593335383}
  m_Father: {fileID: 2369712856593335409}
  m_RootOrder: 0
  m_LocalEulerAnglesHint: {x: 0, y: 0, z: 0}
--- !u!1 &2369712856593307725
GameObject:
  m_ObjectHideFlags: 0
  m_CorrespondingSourceObject: {fileID: 0}
  m_PrefabInstance: {fileID: 0}
  m_PrefabAsset: {fileID: 0}
  serializedVersion: 6
  m_Component:
  - component: {fileID: 2369712856593335341}
  m_Layer: 0
  m_Name: LowManLeftToeBase_end
  m_TagString: Untagged
  m_Icon: {fileID: 0}
  m_NavMeshLayer: 0
  m_StaticEditorFlags: 0
  m_IsActive: 1
--- !u!4 &2369712856593335341
Transform:
  m_ObjectHideFlags: 0
  m_CorrespondingSourceObject: {fileID: 0}
  m_PrefabInstance: {fileID: 0}
  m_PrefabAsset: {fileID: 0}
  m_GameObject: {fileID: 2369712856593307725}
  m_LocalRotation: {x: 0, y: -0, z: -0, w: 1}
  m_LocalPosition: {x: -0, y: 0.18345615, z: 0}
  m_LocalScale: {x: 1, y: 1, z: 1}
  m_Children: []
  m_Father: {fileID: 2369712856593335331}
  m_RootOrder: 0
  m_LocalEulerAnglesHint: {x: 0, y: 0, z: 0}
--- !u!1 &2369712856593307727
GameObject:
  m_ObjectHideFlags: 0
  m_CorrespondingSourceObject: {fileID: 0}
  m_PrefabInstance: {fileID: 0}
  m_PrefabAsset: {fileID: 0}
  serializedVersion: 6
  m_Component:
  - component: {fileID: 2369712856593335343}
  m_Layer: 0
  m_Name: LowManLeftUpLeg
  m_TagString: Untagged
  m_Icon: {fileID: 0}
  m_NavMeshLayer: 0
  m_StaticEditorFlags: 0
  m_IsActive: 1
--- !u!4 &2369712856593335343
Transform:
  m_ObjectHideFlags: 0
  m_CorrespondingSourceObject: {fileID: 0}
  m_PrefabInstance: {fileID: 0}
  m_PrefabAsset: {fileID: 0}
  m_GameObject: {fileID: 2369712856593307727}
  m_LocalRotation: {x: 0.689918, y: -0.056023676, z: -0.053704184, w: 0.7197155}
  m_LocalPosition: {x: -0.09726756, y: -0.057784498, z: 0.0000000034498122}
  m_LocalScale: {x: 1, y: 0.99999994, z: 0.99999994}
  m_Children:
  - {fileID: 2369712856593335335}
  m_Father: {fileID: 2369712856593335321}
  m_RootOrder: 0
  m_LocalEulerAnglesHint: {x: 0, y: 0, z: 0}
--- !u!1 &2369712856593307729
GameObject:
  m_ObjectHideFlags: 0
  m_CorrespondingSourceObject: {fileID: 0}
  m_PrefabInstance: {fileID: 0}
  m_PrefabAsset: {fileID: 0}
  serializedVersion: 6
  m_Component:
  - component: {fileID: 2369712856593335345}
  m_Layer: 0
  m_Name: LowManLeftHandPinky2
  m_TagString: Untagged
  m_Icon: {fileID: 0}
  m_NavMeshLayer: 0
  m_StaticEditorFlags: 0
  m_IsActive: 1
--- !u!4 &2369712856593335345
Transform:
  m_ObjectHideFlags: 0
  m_CorrespondingSourceObject: {fileID: 0}
  m_PrefabInstance: {fileID: 0}
  m_PrefabAsset: {fileID: 0}
  m_GameObject: {fileID: 2369712856593307729}
  m_LocalRotation: {x: -0.14915751, y: -0.4994609, z: 0.69119614, w: 0.50053847}
  m_LocalPosition: {x: -0.019423649, y: 0.0023515795, z: -0.03004266}
  m_LocalScale: {x: 1.0000002, y: 1.0000002, z: 1.0000001}
  m_Children:
  - {fileID: 2369712856593335347}
  m_Father: {fileID: 2369712856593335351}
  m_RootOrder: 0
  m_LocalEulerAnglesHint: {x: 0, y: 0, z: 0}
--- !u!1 &2369712856593307731
GameObject:
  m_ObjectHideFlags: 0
  m_CorrespondingSourceObject: {fileID: 0}
  m_PrefabInstance: {fileID: 0}
  m_PrefabAsset: {fileID: 0}
  serializedVersion: 6
  m_Component:
  - component: {fileID: 2369712856593335347}
  m_Layer: 0
  m_Name: LowManLeftHandPinky2_end
  m_TagString: Untagged
  m_Icon: {fileID: 0}
  m_NavMeshLayer: 0
  m_StaticEditorFlags: 0
  m_IsActive: 1
--- !u!4 &2369712856593335347
Transform:
  m_ObjectHideFlags: 0
  m_CorrespondingSourceObject: {fileID: 0}
  m_PrefabInstance: {fileID: 0}
  m_PrefabAsset: {fileID: 0}
  m_GameObject: {fileID: 2369712856593307731}
  m_LocalRotation: {x: 0, y: -0, z: -0, w: 1}
  m_LocalPosition: {x: -0, y: 0.09924485, z: 0}
  m_LocalScale: {x: 1, y: 1, z: 1}
  m_Children: []
  m_Father: {fileID: 2369712856593335345}
  m_RootOrder: 0
  m_LocalEulerAnglesHint: {x: 0, y: 0, z: 0}
--- !u!1 &2369712856593307733
GameObject:
  m_ObjectHideFlags: 0
  m_CorrespondingSourceObject: {fileID: 0}
  m_PrefabInstance: {fileID: 0}
  m_PrefabAsset: {fileID: 0}
  serializedVersion: 6
  m_Component:
  - component: {fileID: 2369712856593335349}
  m_Layer: 0
  m_Name: LowManLeftHandMiddle2_end
  m_TagString: Untagged
  m_Icon: {fileID: 0}
  m_NavMeshLayer: 0
  m_StaticEditorFlags: 0
  m_IsActive: 1
--- !u!4 &2369712856593335349
Transform:
  m_ObjectHideFlags: 0
  m_CorrespondingSourceObject: {fileID: 0}
  m_PrefabInstance: {fileID: 0}
  m_PrefabAsset: {fileID: 0}
  m_GameObject: {fileID: 2369712856593307733}
  m_LocalRotation: {x: 0, y: -0, z: -0, w: 1}
  m_LocalPosition: {x: -0, y: 0.09924485, z: 0}
  m_LocalScale: {x: 1, y: 1, z: 1}
  m_Children: []
  m_Father: {fileID: 2369712856593335307}
  m_RootOrder: 0
  m_LocalEulerAnglesHint: {x: 0, y: 0, z: 0}
--- !u!1 &2369712856593307735
GameObject:
  m_ObjectHideFlags: 0
  m_CorrespondingSourceObject: {fileID: 0}
  m_PrefabInstance: {fileID: 0}
  m_PrefabAsset: {fileID: 0}
  serializedVersion: 6
  m_Component:
  - component: {fileID: 2369712856593335351}
  m_Layer: 0
  m_Name: LowManLeftHandPinky1
  m_TagString: Untagged
  m_Icon: {fileID: 0}
  m_NavMeshLayer: 0
  m_StaticEditorFlags: 0
  m_IsActive: 1
--- !u!4 &2369712856593335351
Transform:
  m_ObjectHideFlags: 0
  m_CorrespondingSourceObject: {fileID: 0}
  m_PrefabInstance: {fileID: 0}
  m_PrefabAsset: {fileID: 0}
  m_GameObject: {fileID: 2369712856593307735}
  m_LocalRotation: {x: 0.9115933, y: 0.1181506, z: -0.2140272, w: -0.33050025}
  m_LocalPosition: {x: -0.020338088, y: -0.088713795, z: 0.0509064}
  m_LocalScale: {x: 0.99999994, y: 0.99999994, z: 1}
  m_Children:
  - {fileID: 2369712856593335345}
  m_Father: {fileID: 2369712856593335297}
  m_RootOrder: 2
  m_LocalEulerAnglesHint: {x: 0, y: 0, z: 0}
--- !u!1 &2369712856593307737
GameObject:
  m_ObjectHideFlags: 0
  m_CorrespondingSourceObject: {fileID: 0}
  m_PrefabInstance: {fileID: 0}
  m_PrefabAsset: {fileID: 0}
  serializedVersion: 6
  m_Component:
  - component: {fileID: 2369712856593335353}
  m_Layer: 0
  m_Name: LowManLeftHandRing2_end
  m_TagString: Untagged
  m_Icon: {fileID: 0}
  m_NavMeshLayer: 0
  m_StaticEditorFlags: 0
  m_IsActive: 1
--- !u!4 &2369712856593335353
Transform:
  m_ObjectHideFlags: 0
  m_CorrespondingSourceObject: {fileID: 0}
  m_PrefabInstance: {fileID: 0}
  m_PrefabAsset: {fileID: 0}
  m_GameObject: {fileID: 2369712856593307737}
  m_LocalRotation: {x: 0, y: -0, z: -0, w: 1}
  m_LocalPosition: {x: -0, y: 0.09924485, z: 0}
  m_LocalScale: {x: 1, y: 1, z: 1}
  m_Children: []
  m_Father: {fileID: 2369712856593335359}
  m_RootOrder: 0
  m_LocalEulerAnglesHint: {x: 0, y: 0, z: 0}
--- !u!1 &2369712856593307739
GameObject:
  m_ObjectHideFlags: 0
  m_CorrespondingSourceObject: {fileID: 0}
  m_PrefabInstance: {fileID: 0}
  m_PrefabAsset: {fileID: 0}
  serializedVersion: 6
  m_Component:
  - component: {fileID: 2369712856593335355}
  m_Layer: 0
  m_Name: LowManLeftHandThumb1
  m_TagString: Untagged
  m_Icon: {fileID: 0}
  m_NavMeshLayer: 0
  m_StaticEditorFlags: 0
  m_IsActive: 1
--- !u!4 &2369712856593335355
Transform:
  m_ObjectHideFlags: 0
  m_CorrespondingSourceObject: {fileID: 0}
  m_PrefabInstance: {fileID: 0}
  m_PrefabAsset: {fileID: 0}
  m_GameObject: {fileID: 2369712856593307739}
  m_LocalRotation: {x: -0.26682177, y: 0.67403007, z: 0.57080466, w: -0.38557956}
  m_LocalPosition: {x: 0.00000053346156, y: -0.00000032879592, z: 0.07503349}
  m_LocalScale: {x: 0.99999994, y: 1, z: 1}
  m_Children:
  - {fileID: 2369712856593335333}
  m_Father: {fileID: 2369712856593335297}
  m_RootOrder: 4
  m_LocalEulerAnglesHint: {x: 0, y: 0, z: 0}
--- !u!1 &2369712856593307741
GameObject:
  m_ObjectHideFlags: 0
  m_CorrespondingSourceObject: {fileID: 0}
  m_PrefabInstance: {fileID: 0}
  m_PrefabAsset: {fileID: 0}
  serializedVersion: 6
  m_Component:
  - component: {fileID: 2369712856593335357}
  m_Layer: 0
  m_Name: LowManLeftHandRing1
  m_TagString: Untagged
  m_Icon: {fileID: 0}
  m_NavMeshLayer: 0
  m_StaticEditorFlags: 0
  m_IsActive: 1
--- !u!4 &2369712856593335357
Transform:
  m_ObjectHideFlags: 0
  m_CorrespondingSourceObject: {fileID: 0}
  m_PrefabInstance: {fileID: 0}
  m_PrefabAsset: {fileID: 0}
  m_GameObject: {fileID: 2369712856593307741}
  m_LocalRotation: {x: 0.9115933, y: 0.1181506, z: -0.2140272, w: -0.33050025}
  m_LocalPosition: {x: -0.02171767, y: -0.07638747, z: 0.063093014}
  m_LocalScale: {x: 0.99999994, y: 0.99999994, z: 1}
  m_Children:
  - {fileID: 2369712856593335359}
  m_Father: {fileID: 2369712856593335297}
  m_RootOrder: 3
  m_LocalEulerAnglesHint: {x: 0, y: 0, z: 0}
--- !u!1 &2369712856593307743
GameObject:
  m_ObjectHideFlags: 0
  m_CorrespondingSourceObject: {fileID: 0}
  m_PrefabInstance: {fileID: 0}
  m_PrefabAsset: {fileID: 0}
  serializedVersion: 6
  m_Component:
  - component: {fileID: 2369712856593335359}
  m_Layer: 0
  m_Name: LowManLeftHandRing2
  m_TagString: Untagged
  m_Icon: {fileID: 0}
  m_NavMeshLayer: 0
  m_StaticEditorFlags: 0
  m_IsActive: 1
--- !u!4 &2369712856593335359
Transform:
  m_ObjectHideFlags: 0
  m_CorrespondingSourceObject: {fileID: 0}
  m_PrefabInstance: {fileID: 0}
  m_PrefabAsset: {fileID: 0}
  m_GameObject: {fileID: 2369712856593307743}
  m_LocalRotation: {x: -0.1491575, y: -0.49946097, z: 0.69119614, w: 0.5005384}
  m_LocalPosition: {x: -0.019423684, y: 0.002351581, z: -0.030042712}
  m_LocalScale: {x: 1.0000001, y: 1.0000002, z: 1.0000002}
  m_Children:
  - {fileID: 2369712856593335353}
  m_Father: {fileID: 2369712856593335357}
  m_RootOrder: 0
  m_LocalEulerAnglesHint: {x: 0, y: 0, z: 0}
--- !u!1 &2369712856593307745
GameObject:
  m_ObjectHideFlags: 0
  m_CorrespondingSourceObject: {fileID: 0}
  m_PrefabInstance: {fileID: 0}
  m_PrefabAsset: {fileID: 0}
  serializedVersion: 6
  m_Component:
  - component: {fileID: 2369712856593335361}
  m_Layer: 0
  m_Name: LowManRightHandPinky2
  m_TagString: Untagged
  m_Icon: {fileID: 0}
  m_NavMeshLayer: 0
  m_StaticEditorFlags: 0
  m_IsActive: 1
--- !u!4 &2369712856593335361
Transform:
  m_ObjectHideFlags: 0
  m_CorrespondingSourceObject: {fileID: 0}
  m_PrefabInstance: {fileID: 0}
  m_PrefabAsset: {fileID: 0}
  m_GameObject: {fileID: 2369712856593307745}
  m_LocalRotation: {x: 0.6911961, y: -0.50053877, z: 0.14915775, w: 0.49946064}
  m_LocalPosition: {x: -0.03008453, y: 0.0023515427, z: 0.019359}
  m_LocalScale: {x: 1, y: 1.0000001, z: 1}
  m_Children:
  - {fileID: 2369712856593335363}
  m_Father: {fileID: 2369712856593335367}
  m_RootOrder: 0
  m_LocalEulerAnglesHint: {x: 0, y: 0, z: 0}
--- !u!1 &2369712856593307747
GameObject:
  m_ObjectHideFlags: 0
  m_CorrespondingSourceObject: {fileID: 0}
  m_PrefabInstance: {fileID: 0}
  m_PrefabAsset: {fileID: 0}
  serializedVersion: 6
  m_Component:
  - component: {fileID: 2369712856593335363}
  m_Layer: 0
  m_Name: LowManRightHandPinky2_end
  m_TagString: Untagged
  m_Icon: {fileID: 0}
  m_NavMeshLayer: 0
  m_StaticEditorFlags: 0
  m_IsActive: 1
--- !u!4 &2369712856593335363
Transform:
  m_ObjectHideFlags: 0
  m_CorrespondingSourceObject: {fileID: 0}
  m_PrefabInstance: {fileID: 0}
  m_PrefabAsset: {fileID: 0}
  m_GameObject: {fileID: 2369712856593307747}
  m_LocalRotation: {x: 0, y: -0, z: -0, w: 1}
  m_LocalPosition: {x: -0, y: 0.09924485, z: 0}
  m_LocalScale: {x: 1, y: 1, z: 1}
  m_Children: []
  m_Father: {fileID: 2369712856593335361}
  m_RootOrder: 0
  m_LocalEulerAnglesHint: {x: 0, y: 0, z: 0}
--- !u!1 &2369712856593307749
GameObject:
  m_ObjectHideFlags: 0
  m_CorrespondingSourceObject: {fileID: 0}
  m_PrefabInstance: {fileID: 0}
  m_PrefabAsset: {fileID: 0}
  serializedVersion: 6
  m_Component:
  - component: {fileID: 2369712856593335365}
  m_Layer: 0
  m_Name: LowManRightHandMiddle2_end
  m_TagString: Untagged
  m_Icon: {fileID: 0}
  m_NavMeshLayer: 0
  m_StaticEditorFlags: 0
  m_IsActive: 1
--- !u!4 &2369712856593335365
Transform:
  m_ObjectHideFlags: 0
  m_CorrespondingSourceObject: {fileID: 0}
  m_PrefabInstance: {fileID: 0}
  m_PrefabAsset: {fileID: 0}
  m_GameObject: {fileID: 2369712856593307749}
  m_LocalRotation: {x: 0, y: -0, z: -0, w: 1}
  m_LocalPosition: {x: -0, y: 0.09924485, z: 0}
  m_LocalScale: {x: 1, y: 1, z: 1}
  m_Children: []
  m_Father: {fileID: 2369712856593335387}
  m_RootOrder: 0
  m_LocalEulerAnglesHint: {x: 0, y: 0, z: 0}
--- !u!1 &2369712856593307751
GameObject:
  m_ObjectHideFlags: 0
  m_CorrespondingSourceObject: {fileID: 0}
  m_PrefabInstance: {fileID: 0}
  m_PrefabAsset: {fileID: 0}
  serializedVersion: 6
  m_Component:
  - component: {fileID: 2369712856593335367}
  m_Layer: 0
  m_Name: LowManRightHandPinky1
  m_TagString: Untagged
  m_Icon: {fileID: 0}
  m_NavMeshLayer: 0
  m_StaticEditorFlags: 0
  m_IsActive: 1
--- !u!4 &2369712856593335367
Transform:
  m_ObjectHideFlags: 0
  m_CorrespondingSourceObject: {fileID: 0}
  m_PrefabInstance: {fileID: 0}
  m_PrefabAsset: {fileID: 0}
  m_GameObject: {fileID: 2369712856593307751}
  m_LocalRotation: {x: -0.48089933, y: 0.37188444, z: 0.7741339, w: -0.17650662}
  m_LocalPosition: {x: -0.020281026, y: 0.08922366, z: 0.050402515}
  m_LocalScale: {x: 1, y: 0.9999998, z: 0.99999994}
  m_Children:
  - {fileID: 2369712856593335361}
  m_Father: {fileID: 2369712856593335377}
  m_RootOrder: 2
  m_LocalEulerAnglesHint: {x: 0, y: 0, z: 0}
--- !u!1 &2369712856593307753
GameObject:
  m_ObjectHideFlags: 0
  m_CorrespondingSourceObject: {fileID: 0}
  m_PrefabInstance: {fileID: 0}
  m_PrefabAsset: {fileID: 0}
  serializedVersion: 6
  m_Component:
  - component: {fileID: 2369712856593335369}
  m_Layer: 0
  m_Name: LowManRightHandRing2_end
  m_TagString: Untagged
  m_Icon: {fileID: 0}
  m_NavMeshLayer: 0
  m_StaticEditorFlags: 0
  m_IsActive: 1
--- !u!4 &2369712856593335369
Transform:
  m_ObjectHideFlags: 0
  m_CorrespondingSourceObject: {fileID: 0}
  m_PrefabInstance: {fileID: 0}
  m_PrefabAsset: {fileID: 0}
  m_GameObject: {fileID: 2369712856593307753}
  m_LocalRotation: {x: 0, y: -0, z: -0, w: 1}
  m_LocalPosition: {x: -0, y: 0.09924485, z: 0}
  m_LocalScale: {x: 1, y: 1, z: 1}
  m_Children: []
  m_Father: {fileID: 2369712856593335375}
  m_RootOrder: 0
  m_LocalEulerAnglesHint: {x: 0, y: 0, z: 0}
--- !u!1 &2369712856593307755
GameObject:
  m_ObjectHideFlags: 0
  m_CorrespondingSourceObject: {fileID: 0}
  m_PrefabInstance: {fileID: 0}
  m_PrefabAsset: {fileID: 0}
  serializedVersion: 6
  m_Component:
  - component: {fileID: 2369712856593335371}
  m_Layer: 0
  m_Name: LowManRightHandThumb1
  m_TagString: Untagged
  m_Icon: {fileID: 0}
  m_NavMeshLayer: 0
  m_StaticEditorFlags: 0
  m_IsActive: 1
--- !u!4 &2369712856593335371
Transform:
  m_ObjectHideFlags: 0
  m_CorrespondingSourceObject: {fileID: 0}
  m_PrefabInstance: {fileID: 0}
  m_PrefabAsset: {fileID: 0}
  m_GameObject: {fileID: 2369712856593307755}
  m_LocalRotation: {x: 0.76998293, y: -0.029940281, z: -0.10057219, w: 0.62937677}
  m_LocalPosition: {x: 0.00000045359133, y: 0.0000005299544, z: 0.075033106}
  m_LocalScale: {x: 1, y: 0.9999999, z: 0.99999976}
  m_Children:
  - {fileID: 2369712856593335413}
  m_Father: {fileID: 2369712856593335377}
  m_RootOrder: 4
  m_LocalEulerAnglesHint: {x: 0, y: 0, z: 0}
--- !u!1 &2369712856593307757
GameObject:
  m_ObjectHideFlags: 0
  m_CorrespondingSourceObject: {fileID: 0}
  m_PrefabInstance: {fileID: 0}
  m_PrefabAsset: {fileID: 0}
  serializedVersion: 6
  m_Component:
  - component: {fileID: 2369712856593335373}
  m_Layer: 0
  m_Name: LowManRightHandRing1
  m_TagString: Untagged
  m_Icon: {fileID: 0}
  m_NavMeshLayer: 0
  m_StaticEditorFlags: 0
  m_IsActive: 1
--- !u!4 &2369712856593335373
Transform:
  m_ObjectHideFlags: 0
  m_CorrespondingSourceObject: {fileID: 0}
  m_PrefabInstance: {fileID: 0}
  m_PrefabAsset: {fileID: 0}
  m_GameObject: {fileID: 2369712856593307757}
  m_LocalRotation: {x: -0.4808993, y: 0.37188473, z: 0.77413374, w: -0.17650653}
  m_LocalPosition: {x: -0.02152786, y: 0.078083366, z: 0.061416533}
  m_LocalScale: {x: 1, y: 0.9999999, z: 1}
  m_Children:
  - {fileID: 2369712856593335375}
  m_Father: {fileID: 2369712856593335377}
  m_RootOrder: 3
  m_LocalEulerAnglesHint: {x: 0, y: 0, z: 0}
--- !u!1 &2369712856593307759
GameObject:
  m_ObjectHideFlags: 0
  m_CorrespondingSourceObject: {fileID: 0}
  m_PrefabInstance: {fileID: 0}
  m_PrefabAsset: {fileID: 0}
  serializedVersion: 6
  m_Component:
  - component: {fileID: 2369712856593335375}
  m_Layer: 0
  m_Name: LowManRightHandRing2
  m_TagString: Untagged
  m_Icon: {fileID: 0}
  m_NavMeshLayer: 0
  m_StaticEditorFlags: 0
  m_IsActive: 1
--- !u!4 &2369712856593335375
Transform:
  m_ObjectHideFlags: 0
  m_CorrespondingSourceObject: {fileID: 0}
  m_PrefabInstance: {fileID: 0}
  m_PrefabAsset: {fileID: 0}
  m_GameObject: {fileID: 2369712856593307759}
  m_LocalRotation: {x: 0.69119614, y: -0.5005386, z: 0.1491577, w: 0.49946073}
  m_LocalPosition: {x: -0.030084554, y: 0.002351553, z: 0.019359076}
  m_LocalScale: {x: 1, y: 1.0000001, z: 0.99999994}
  m_Children:
  - {fileID: 2369712856593335369}
  m_Father: {fileID: 2369712856593335373}
  m_RootOrder: 0
  m_LocalEulerAnglesHint: {x: 0, y: 0, z: 0}
--- !u!1 &2369712856593307761
GameObject:
  m_ObjectHideFlags: 0
  m_CorrespondingSourceObject: {fileID: 0}
  m_PrefabInstance: {fileID: 0}
  m_PrefabAsset: {fileID: 0}
  serializedVersion: 6
  m_Component:
  - component: {fileID: 2369712856593335377}
  m_Layer: 0
  m_Name: LowManRightHand
  m_TagString: Untagged
  m_Icon: {fileID: 0}
  m_NavMeshLayer: 0
  m_StaticEditorFlags: 0
  m_IsActive: 1
--- !u!4 &2369712856593335377
Transform:
  m_ObjectHideFlags: 0
  m_CorrespondingSourceObject: {fileID: 0}
  m_PrefabInstance: {fileID: 0}
  m_PrefabAsset: {fileID: 0}
  m_GameObject: {fileID: 2369712856593307761}
  m_LocalRotation: {x: 0.36638084, y: 0.05575965, z: 0.019344121, w: 0.92859125}
  m_LocalPosition: {x: -0.0000001618528, y: 0.00000015346613, z: 0.26024285}
  m_LocalScale: {x: 1, y: 1, z: 1}
  m_Children:
  - {fileID: 2369712856593335379}
  - {fileID: 2369712856593335385}
  - {fileID: 2369712856593335367}
  - {fileID: 2369712856593335373}
  - {fileID: 2369712856593335371}
  m_Father: {fileID: 2369712856593335383}
  m_RootOrder: 0
  m_LocalEulerAnglesHint: {x: 0, y: 0, z: 0}
--- !u!1 &2369712856593307763
GameObject:
  m_ObjectHideFlags: 0
  m_CorrespondingSourceObject: {fileID: 0}
  m_PrefabInstance: {fileID: 0}
  m_PrefabAsset: {fileID: 0}
  serializedVersion: 6
  m_Component:
  - component: {fileID: 2369712856593335379}
  m_Layer: 0
  m_Name: LowManRightHandIndex1
  m_TagString: Untagged
  m_Icon: {fileID: 0}
  m_NavMeshLayer: 0
  m_StaticEditorFlags: 0
  m_IsActive: 1
--- !u!4 &2369712856593335379
Transform:
  m_ObjectHideFlags: 0
  m_CorrespondingSourceObject: {fileID: 0}
  m_PrefabInstance: {fileID: 0}
  m_PrefabAsset: {fileID: 0}
  m_GameObject: {fileID: 2369712856593307763}
  m_LocalRotation: {x: -0.4808994, y: 0.37188467, z: 0.77413374, w: -0.17650656}
  m_LocalPosition: {x: -0.023979839, y: 0.056175184, z: 0.08307631}
  m_LocalScale: {x: 0.99999994, y: 0.9999998, z: 1}
  m_Children:
  - {fileID: 2369712856593335389}
  m_Father: {fileID: 2369712856593335377}
  m_RootOrder: 0
  m_LocalEulerAnglesHint: {x: 0, y: 0, z: 0}
--- !u!1 &2369712856593307765
GameObject:
  m_ObjectHideFlags: 0
  m_CorrespondingSourceObject: {fileID: 0}
  m_PrefabInstance: {fileID: 0}
  m_PrefabAsset: {fileID: 0}
  serializedVersion: 6
  m_Component:
  - component: {fileID: 2369712856593335381}
  m_Layer: 0
  m_Name: LowManRightFoot
  m_TagString: Untagged
  m_Icon: {fileID: 0}
  m_NavMeshLayer: 0
  m_StaticEditorFlags: 0
  m_IsActive: 1
--- !u!4 &2369712856593335381
Transform:
  m_ObjectHideFlags: 0
  m_CorrespondingSourceObject: {fileID: 0}
  m_PrefabInstance: {fileID: 0}
  m_PrefabAsset: {fileID: 0}
  m_GameObject: {fileID: 2369712856593307765}
  m_LocalRotation: {x: -0.5292821, y: -0.003944583, z: -0.053297605, w: 0.84676105}
  m_LocalPosition: {x: 0.00000034323892, y: -0.000000038763368, z: 0.35561472}
  m_LocalScale: {x: 1, y: 1, z: 1}
  m_Children:
  - {fileID: 2369712856593335411}
  m_Father: {fileID: 2369712856593335415}
  m_RootOrder: 0
  m_LocalEulerAnglesHint: {x: 0, y: 0, z: 0}
--- !u!1 &2369712856593307767
GameObject:
  m_ObjectHideFlags: 0
  m_CorrespondingSourceObject: {fileID: 0}
  m_PrefabInstance: {fileID: 0}
  m_PrefabAsset: {fileID: 0}
  serializedVersion: 6
  m_Component:
  - component: {fileID: 2369712856593335383}
  m_Layer: 0
  m_Name: LowManRightForeArm
  m_TagString: Untagged
  m_Icon: {fileID: 0}
  m_NavMeshLayer: 0
  m_StaticEditorFlags: 0
  m_IsActive: 1
--- !u!4 &2369712856593335383
Transform:
  m_ObjectHideFlags: 0
  m_CorrespondingSourceObject: {fileID: 0}
  m_PrefabInstance: {fileID: 0}
  m_PrefabAsset: {fileID: 0}
  m_GameObject: {fileID: 2369712856593307767}
  m_LocalRotation: {x: 0.015774319, y: -0.01846844, z: 0.00017739118, w: 0.999705}
  m_LocalPosition: {x: 0.0000006496906, y: 0, z: 0.25175828}
  m_LocalScale: {x: 1, y: 1, z: 1}
  m_Children:
  - {fileID: 2369712856593335377}
  m_Father: {fileID: 2369712856593335339}
  m_RootOrder: 0
  m_LocalEulerAnglesHint: {x: 0, y: 0, z: 0}
--- !u!1 &2369712856593307769
GameObject:
  m_ObjectHideFlags: 0
  m_CorrespondingSourceObject: {fileID: 0}
  m_PrefabInstance: {fileID: 0}
  m_PrefabAsset: {fileID: 0}
  serializedVersion: 6
  m_Component:
  - component: {fileID: 2369712856593335385}
  m_Layer: 0
  m_Name: LowManRightHandMiddle1
  m_TagString: Untagged
  m_Icon: {fileID: 0}
  m_NavMeshLayer: 0
  m_StaticEditorFlags: 0
  m_IsActive: 1
--- !u!4 &2369712856593335385
Transform:
  m_ObjectHideFlags: 0
  m_CorrespondingSourceObject: {fileID: 0}
  m_PrefabInstance: {fileID: 0}
  m_PrefabAsset: {fileID: 0}
  m_GameObject: {fileID: 2369712856593307769}
  m_LocalRotation: {x: -0.48089916, y: 0.37188482, z: 0.7741338, w: -0.17650642}
  m_LocalPosition: {x: -0.022615368, y: 0.06836655, z: 0.07102314}
  m_LocalScale: {x: 1, y: 0.9999999, z: 0.9999997}
  m_Children:
  - {fileID: 2369712856593335387}
  m_Father: {fileID: 2369712856593335377}
  m_RootOrder: 1
  m_LocalEulerAnglesHint: {x: 0, y: 0, z: 0}
--- !u!1 &2369712856593307771
GameObject:
  m_ObjectHideFlags: 0
  m_CorrespondingSourceObject: {fileID: 0}
  m_PrefabInstance: {fileID: 0}
  m_PrefabAsset: {fileID: 0}
  serializedVersion: 6
  m_Component:
  - component: {fileID: 2369712856593335387}
  m_Layer: 0
  m_Name: LowManRightHandMiddle2
  m_TagString: Untagged
  m_Icon: {fileID: 0}
  m_NavMeshLayer: 0
  m_StaticEditorFlags: 0
  m_IsActive: 1
--- !u!4 &2369712856593335387
Transform:
  m_ObjectHideFlags: 0
  m_CorrespondingSourceObject: {fileID: 0}
  m_PrefabInstance: {fileID: 0}
  m_PrefabAsset: {fileID: 0}
  m_GameObject: {fileID: 2369712856593307771}
  m_LocalRotation: {x: 0.69119614, y: -0.5005385, z: 0.14915758, w: 0.49946085}
  m_LocalPosition: {x: -0.030084467, y: 0.0023515543, z: 0.019359052}
  m_LocalScale: {x: 1, y: 1.0000001, z: 1}
  m_Children:
  - {fileID: 2369712856593335365}
  m_Father: {fileID: 2369712856593335385}
  m_RootOrder: 0
  m_LocalEulerAnglesHint: {x: 0, y: 0, z: 0}
--- !u!1 &2369712856593307773
GameObject:
  m_ObjectHideFlags: 0
  m_CorrespondingSourceObject: {fileID: 0}
  m_PrefabInstance: {fileID: 0}
  m_PrefabAsset: {fileID: 0}
  serializedVersion: 6
  m_Component:
  - component: {fileID: 2369712856593335389}
  m_Layer: 0
  m_Name: LowManRightHandIndex2
  m_TagString: Untagged
  m_Icon: {fileID: 0}
  m_NavMeshLayer: 0
  m_StaticEditorFlags: 0
  m_IsActive: 1
--- !u!4 &2369712856593335389
Transform:
  m_ObjectHideFlags: 0
  m_CorrespondingSourceObject: {fileID: 0}
  m_PrefabInstance: {fileID: 0}
  m_PrefabAsset: {fileID: 0}
  m_GameObject: {fileID: 2369712856593307773}
  m_LocalRotation: {x: 0.69119614, y: -0.50053865, z: 0.1491579, w: 0.4994606}
  m_LocalPosition: {x: -0.030084465, y: 0.0023515543, z: 0.01935918}
  m_LocalScale: {x: 1.0000001, y: 1.0000001, z: 1}
  m_Children:
  - {fileID: 2369712856593335391}
  m_Father: {fileID: 2369712856593335379}
  m_RootOrder: 0
  m_LocalEulerAnglesHint: {x: 0, y: 0, z: 0}
--- !u!1 &2369712856593307775
GameObject:
  m_ObjectHideFlags: 0
  m_CorrespondingSourceObject: {fileID: 0}
  m_PrefabInstance: {fileID: 0}
  m_PrefabAsset: {fileID: 0}
  serializedVersion: 6
  m_Component:
  - component: {fileID: 2369712856593335391}
  m_Layer: 0
  m_Name: LowManRightHandIndex2_end
  m_TagString: Untagged
  m_Icon: {fileID: 0}
  m_NavMeshLayer: 0
  m_StaticEditorFlags: 0
  m_IsActive: 1
--- !u!4 &2369712856593335391
Transform:
  m_ObjectHideFlags: 0
  m_CorrespondingSourceObject: {fileID: 0}
  m_PrefabInstance: {fileID: 0}
  m_PrefabAsset: {fileID: 0}
  m_GameObject: {fileID: 2369712856593307775}
  m_LocalRotation: {x: 0, y: -0, z: -0, w: 1}
  m_LocalPosition: {x: -0, y: 0.09924485, z: 0}
  m_LocalScale: {x: 1, y: 1, z: 1}
  m_Children: []
  m_Father: {fileID: 2369712856593335389}
  m_RootOrder: 0
  m_LocalEulerAnglesHint: {x: 0, y: 0, z: 0}
--- !u!1 &2369712856593308033
GameObject:
  m_ObjectHideFlags: 0
  m_CorrespondingSourceObject: {fileID: 0}
  m_PrefabInstance: {fileID: 0}
  m_PrefabAsset: {fileID: 0}
  serializedVersion: 6
  m_Component:
  - component: {fileID: 2369712856593335393}
  - component: {fileID: 2369712856585923573}
  m_Layer: 0
  m_Name: Male 2
  m_TagString: Untagged
  m_Icon: {fileID: 0}
  m_NavMeshLayer: 0
  m_StaticEditorFlags: 0
  m_IsActive: 1
--- !u!4 &2369712856593335393
Transform:
  m_ObjectHideFlags: 0
  m_CorrespondingSourceObject: {fileID: 0}
  m_PrefabInstance: {fileID: 0}
  m_PrefabAsset: {fileID: 0}
  m_GameObject: {fileID: 2369712856593308033}
  m_LocalRotation: {x: 0, y: 0, z: 0, w: 1}
  m_LocalPosition: {x: 0, y: 0, z: 0}
  m_LocalScale: {x: 1, y: 1, z: 1}
  m_Children:
  - {fileID: 2369712856593335317}
  - {fileID: 2369712856593335319}
  - {fileID: 2369712856593335313}
  - {fileID: 2369712856593335315}
  - {fileID: 2369712856593335399}
  - {fileID: 2369712856593335395}
  - {fileID: 2369712856593335405}
  - {fileID: 2369712856593335407}
  - {fileID: 2369712856593335401}
  m_Father: {fileID: 0}
  m_RootOrder: 0
  m_LocalEulerAnglesHint: {x: 0, y: 0, z: 0}
--- !u!95 &2369712856585923573
Animator:
  serializedVersion: 3
  m_ObjectHideFlags: 0
  m_CorrespondingSourceObject: {fileID: 0}
  m_PrefabInstance: {fileID: 0}
  m_PrefabAsset: {fileID: 0}
  m_GameObject: {fileID: 2369712856593308033}
  m_Enabled: 1
  m_Avatar: {fileID: 9000000, guid: 6ff98783d10689e4199627949324d20f, type: 3}
  m_Controller: {fileID: 0}
  m_CullingMode: 1
  m_UpdateMode: 0
  m_ApplyRootMotion: 0
  m_LinearVelocityBlending: 0
  m_WarningMessage: 
  m_HasTransformHierarchy: 1
  m_AllowConstantClipSamplingOptimization: 1
  m_KeepAnimatorControllerStateOnDisable: 0
--- !u!1 &2369712856593308035
GameObject:
  m_ObjectHideFlags: 0
  m_CorrespondingSourceObject: {fileID: 0}
  m_PrefabInstance: {fileID: 0}
  m_PrefabAsset: {fileID: 0}
  serializedVersion: 6
  m_Component:
  - component: {fileID: 2369712856593335395}
  - component: {fileID: 2369712856581739837}
  m_Layer: 0
  m_Name: Pants Male
  m_TagString: Untagged
  m_Icon: {fileID: 0}
  m_NavMeshLayer: 0
  m_StaticEditorFlags: 0
  m_IsActive: 1
--- !u!4 &2369712856593335395
Transform:
  m_ObjectHideFlags: 0
  m_CorrespondingSourceObject: {fileID: 0}
  m_PrefabInstance: {fileID: 0}
  m_PrefabAsset: {fileID: 0}
  m_GameObject: {fileID: 2369712856593308035}
  m_LocalRotation: {x: 0.00000008146035, y: 1.1763632e-17, z: 6.887626e-18, w: 1}
  m_LocalPosition: {x: -0, y: 0, z: 0}
  m_LocalScale: {x: 1.0000005, y: 1.0000005, z: 1.0000005}
  m_Children: []
  m_Father: {fileID: 2369712856593335393}
  m_RootOrder: 5
  m_LocalEulerAnglesHint: {x: 0, y: 0, z: 0}
--- !u!137 &2369712856581739837
SkinnedMeshRenderer:
  m_ObjectHideFlags: 0
  m_CorrespondingSourceObject: {fileID: 0}
  m_PrefabInstance: {fileID: 0}
  m_PrefabAsset: {fileID: 0}
  m_GameObject: {fileID: 2369712856593308035}
  m_Enabled: 1
  m_CastShadows: 1
  m_ReceiveShadows: 1
  m_DynamicOccludee: 1
  m_MotionVectors: 1
  m_LightProbeUsage: 1
  m_ReflectionProbeUsage: 1
  m_RayTracingMode: 3
  m_RayTraceProcedural: 0
  m_RenderingLayerMask: 1
  m_RendererPriority: 0
  m_Materials:
  - {fileID: 2100000, guid: 95b4fabaf92645b47b01d508061fd389, type: 2}
  - {fileID: 2100000, guid: 6b75266228de9b54cb2410e1e91ed2a4, type: 2}
  m_StaticBatchInfo:
    firstSubMesh: 0
    subMeshCount: 0
  m_StaticBatchRoot: {fileID: 0}
  m_ProbeAnchor: {fileID: 0}
  m_LightProbeVolumeOverride: {fileID: 0}
  m_ScaleInLightmap: 1
  m_ReceiveGI: 1
  m_PreserveUVs: 0
  m_IgnoreNormalsForChartDetection: 0
  m_ImportantGI: 0
  m_StitchLightmapSeams: 0
  m_SelectedEditorRenderState: 3
  m_MinimumChartSize: 4
  m_AutoUVMaxDistance: 0.5
  m_AutoUVMaxAngle: 89
  m_LightmapParameters: {fileID: 0}
  m_SortingLayerID: 0
  m_SortingLayer: 0
  m_SortingOrder: 0
  serializedVersion: 2
  m_Quality: 0
  m_UpdateWhenOffscreen: 0
  m_SkinnedMotionVectors: 1
  m_Mesh: {fileID: 4300002, guid: 6ff98783d10689e4199627949324d20f, type: 3}
  m_Bones:
  - {fileID: 2369712856593335321}
  - {fileID: 2369712856593335343}
  - {fileID: 2369712856593335335}
  - {fileID: 2369712856593335301}
  - {fileID: 2369712856593335331}
  - {fileID: 2369712856593335423}
  - {fileID: 2369712856593335415}
  - {fileID: 2369712856593335381}
  - {fileID: 2369712856593335411}
  - {fileID: 2369712856593335417}
  - {fileID: 2369712856593335419}
  - {fileID: 2369712856593335397}
  - {fileID: 2369712856593335329}
  - {fileID: 2369712856593335323}
  - {fileID: 2369712856593335303}
  - {fileID: 2369712856593335297}
  - {fileID: 2369712856593335355}
  - {fileID: 2369712856593335299}
  - {fileID: 2369712856593335309}
  - {fileID: 2369712856593335305}
  - {fileID: 2369712856593335307}
  - {fileID: 2369712856593335357}
  - {fileID: 2369712856593335359}
  - {fileID: 2369712856593335351}
  - {fileID: 2369712856593335345}
  - {fileID: 2369712856593335409}
  - {fileID: 2369712856593335339}
  - {fileID: 2369712856593335383}
  - {fileID: 2369712856593335377}
  - {fileID: 2369712856593335371}
  - {fileID: 2369712856593335379}
  - {fileID: 2369712856593335389}
  - {fileID: 2369712856593335385}
  - {fileID: 2369712856593335387}
  - {fileID: 2369712856593335373}
  - {fileID: 2369712856593335375}
  - {fileID: 2369712856593335367}
  - {fileID: 2369712856593335361}
  - {fileID: 2369712856593335337}
  - {fileID: 2369712856593335325}
  m_BlendShapeWeights: []
  m_RootBone: {fileID: 2369712856593335321}
  m_AABB:
    m_Center: {x: 0, y: -0.48516452, z: 0.07532676}
    m_Extent: {x: 0.28886437, y: 0.58243346, z: 0.19402042}
  m_DirtyAABB: 0
--- !u!1 &2369712856593308037
GameObject:
  m_ObjectHideFlags: 0
  m_CorrespondingSourceObject: {fileID: 0}
  m_PrefabInstance: {fileID: 0}
  m_PrefabAsset: {fileID: 0}
  serializedVersion: 6
  m_Component:
  - component: {fileID: 2369712856593335397}
  m_Layer: 0
  m_Name: LowManSpine2
  m_TagString: Untagged
  m_Icon: {fileID: 0}
  m_NavMeshLayer: 0
  m_StaticEditorFlags: 0
  m_IsActive: 1
--- !u!4 &2369712856593335397
Transform:
  m_ObjectHideFlags: 0
  m_CorrespondingSourceObject: {fileID: 0}
  m_PrefabInstance: {fileID: 0}
  m_PrefabAsset: {fileID: 0}
  m_GameObject: {fileID: 2369712856593308037}
  m_LocalRotation: {x: 0, y: -0.35293907, z: -0, w: 0.93564636}
  m_LocalPosition: {x: 0.000000053240736, y: 0, z: 0.14704956}
  m_LocalScale: {x: 1, y: 1, z: 1}
  m_Children:
  - {fileID: 2369712856593335329}
  - {fileID: 2369712856593335337}
  - {fileID: 2369712856593335409}
  m_Father: {fileID: 2369712856593335419}
  m_RootOrder: 0
  m_LocalEulerAnglesHint: {x: 0, y: 0, z: 0}
--- !u!1 &2369712856593308039
GameObject:
  m_ObjectHideFlags: 0
  m_CorrespondingSourceObject: {fileID: 0}
  m_PrefabInstance: {fileID: 0}
  m_PrefabAsset: {fileID: 0}
  serializedVersion: 6
  m_Component:
  - component: {fileID: 2369712856593335399}
  m_Layer: 0
  m_Name: Male
  m_TagString: Untagged
  m_Icon: {fileID: 0}
  m_NavMeshLayer: 0
  m_StaticEditorFlags: 0
  m_IsActive: 1
--- !u!4 &2369712856593335399
Transform:
  m_ObjectHideFlags: 0
  m_CorrespondingSourceObject: {fileID: 0}
  m_PrefabInstance: {fileID: 0}
  m_PrefabAsset: {fileID: 0}
  m_GameObject: {fileID: 2369712856593308039}
  m_LocalRotation: {x: 0.00000008146034, y: 0, z: -0, w: 1}
  m_LocalPosition: {x: -0, y: 0, z: 0}
  m_LocalScale: {x: 1.0000005, y: 1.0000005, z: 1.0000005}
  m_Children:
  - {fileID: 2369712856593335321}
  m_Father: {fileID: 2369712856593335393}
  m_RootOrder: 4
  m_LocalEulerAnglesHint: {x: 0, y: 0, z: 0}
--- !u!1 &2369712856593308041
GameObject:
  m_ObjectHideFlags: 0
  m_CorrespondingSourceObject: {fileID: 0}
  m_PrefabInstance: {fileID: 0}
  m_PrefabAsset: {fileID: 0}
  serializedVersion: 6
  m_Component:
  - component: {fileID: 2369712856593335401}
  - component: {fileID: 2369712856581739835}
  m_Layer: 0
  m_Name: Torso Male Short Sleeves
  m_TagString: Untagged
  m_Icon: {fileID: 0}
  m_NavMeshLayer: 0
  m_StaticEditorFlags: 0
  m_IsActive: 1
--- !u!4 &2369712856593335401
Transform:
  m_ObjectHideFlags: 0
  m_CorrespondingSourceObject: {fileID: 0}
  m_PrefabInstance: {fileID: 0}
  m_PrefabAsset: {fileID: 0}
  m_GameObject: {fileID: 2369712856593308041}
  m_LocalRotation: {x: 0.00000008146035, y: 1.1763631e-17, z: 6.887626e-18, w: 1}
  m_LocalPosition: {x: -0, y: -1.6018475e-10, z: -3.3087225e-24}
  m_LocalScale: {x: 1.0000005, y: 1.0000005, z: 1.0000005}
  m_Children: []
  m_Father: {fileID: 2369712856593335393}
  m_RootOrder: 8
  m_LocalEulerAnglesHint: {x: 0, y: 0, z: 0}
--- !u!137 &2369712856581739835
SkinnedMeshRenderer:
  m_ObjectHideFlags: 0
  m_CorrespondingSourceObject: {fileID: 0}
  m_PrefabInstance: {fileID: 0}
  m_PrefabAsset: {fileID: 0}
  m_GameObject: {fileID: 2369712856593308041}
  m_Enabled: 1
  m_CastShadows: 1
  m_ReceiveShadows: 1
  m_DynamicOccludee: 1
  m_MotionVectors: 1
  m_LightProbeUsage: 1
  m_ReflectionProbeUsage: 1
  m_RayTracingMode: 3
  m_RayTraceProcedural: 0
  m_RenderingLayerMask: 1
  m_RendererPriority: 0
  m_Materials:
  - {fileID: 2100000, guid: 0cb07277ecdcb6547ad06f13b33b4736, type: 2}
  - {fileID: 2100000, guid: 03f63bc20fb459248a4a28ac7768c324, type: 2}
  m_StaticBatchInfo:
    firstSubMesh: 0
    subMeshCount: 0
  m_StaticBatchRoot: {fileID: 0}
  m_ProbeAnchor: {fileID: 0}
  m_LightProbeVolumeOverride: {fileID: 0}
  m_ScaleInLightmap: 1
  m_ReceiveGI: 1
  m_PreserveUVs: 0
  m_IgnoreNormalsForChartDetection: 0
  m_ImportantGI: 0
  m_StitchLightmapSeams: 0
  m_SelectedEditorRenderState: 3
  m_MinimumChartSize: 4
  m_AutoUVMaxDistance: 0.5
  m_AutoUVMaxAngle: 89
  m_LightmapParameters: {fileID: 0}
  m_SortingLayerID: 0
  m_SortingLayer: 0
  m_SortingOrder: 0
  serializedVersion: 2
  m_Quality: 0
  m_UpdateWhenOffscreen: 0
  m_SkinnedMotionVectors: 1
  m_Mesh: {fileID: 4300014, guid: 6ff98783d10689e4199627949324d20f, type: 3}
  m_Bones:
  - {fileID: 2369712856593335321}
  - {fileID: 2369712856593335343}
  - {fileID: 2369712856593335335}
  - {fileID: 2369712856593335301}
  - {fileID: 2369712856593335331}
  - {fileID: 2369712856593335423}
  - {fileID: 2369712856593335415}
  - {fileID: 2369712856593335381}
  - {fileID: 2369712856593335411}
  - {fileID: 2369712856593335417}
  - {fileID: 2369712856593335419}
  - {fileID: 2369712856593335397}
  - {fileID: 2369712856593335329}
  - {fileID: 2369712856593335323}
  - {fileID: 2369712856593335303}
  - {fileID: 2369712856593335297}
  - {fileID: 2369712856593335355}
  - {fileID: 2369712856593335299}
  - {fileID: 2369712856593335309}
  - {fileID: 2369712856593335305}
  - {fileID: 2369712856593335307}
  - {fileID: 2369712856593335357}
  - {fileID: 2369712856593335359}
  - {fileID: 2369712856593335351}
  - {fileID: 2369712856593335345}
  - {fileID: 2369712856593335409}
  - {fileID: 2369712856593335339}
  - {fileID: 2369712856593335383}
  - {fileID: 2369712856593335377}
  - {fileID: 2369712856593335371}
  - {fileID: 2369712856593335379}
  - {fileID: 2369712856593335389}
  - {fileID: 2369712856593335385}
  - {fileID: 2369712856593335387}
  - {fileID: 2369712856593335373}
  - {fileID: 2369712856593335375}
  - {fileID: 2369712856593335367}
  - {fileID: 2369712856593335361}
  - {fileID: 2369712856593335337}
  - {fileID: 2369712856593335325}
  m_BlendShapeWeights: []
  m_RootBone: {fileID: 2369712856593335321}
  m_AABB:
    m_Center: {x: -0.00009587407, y: 0.4054935, z: 0.027268}
    m_Extent: {x: 0.8729589, y: 0.34485555, z: 0.118449904}
  m_DirtyAABB: 0
--- !u!1 &2369712856593308045
GameObject:
  m_ObjectHideFlags: 0
  m_CorrespondingSourceObject: {fileID: 0}
  m_PrefabInstance: {fileID: 0}
  m_PrefabAsset: {fileID: 0}
  serializedVersion: 6
  m_Component:
  - component: {fileID: 2369712856593335405}
  - component: {fileID: 2369712856581739839}
  m_Layer: 0
  m_Name: Shorts Male
  m_TagString: Untagged
  m_Icon: {fileID: 0}
  m_NavMeshLayer: 0
  m_StaticEditorFlags: 0
  m_IsActive: 0
--- !u!4 &2369712856593335405
Transform:
  m_ObjectHideFlags: 0
  m_CorrespondingSourceObject: {fileID: 0}
  m_PrefabInstance: {fileID: 0}
  m_PrefabAsset: {fileID: 0}
  m_GameObject: {fileID: 2369712856593308045}
  m_LocalRotation: {x: 0.00000008146035, y: 1.1763632e-17, z: 6.887626e-18, w: 1}
  m_LocalPosition: {x: -0, y: 0, z: 0}
  m_LocalScale: {x: 1.0000005, y: 1.0000005, z: 1.0000005}
  m_Children: []
  m_Father: {fileID: 2369712856593335393}
  m_RootOrder: 6
  m_LocalEulerAnglesHint: {x: 0, y: 0, z: 0}
--- !u!137 &2369712856581739839
SkinnedMeshRenderer:
  m_ObjectHideFlags: 0
  m_CorrespondingSourceObject: {fileID: 0}
  m_PrefabInstance: {fileID: 0}
  m_PrefabAsset: {fileID: 0}
  m_GameObject: {fileID: 2369712856593308045}
  m_Enabled: 1
  m_CastShadows: 1
  m_ReceiveShadows: 1
  m_DynamicOccludee: 1
  m_MotionVectors: 1
  m_LightProbeUsage: 1
  m_ReflectionProbeUsage: 1
  m_RayTracingMode: 3
  m_RayTraceProcedural: 0
  m_RenderingLayerMask: 1
  m_RendererPriority: 0
  m_Materials:
  - {fileID: 2100000, guid: f64b913b9c029c64686fe685362dc010, type: 2}
  - {fileID: 2100000, guid: 0cb07277ecdcb6547ad06f13b33b4736, type: 2}
  m_StaticBatchInfo:
    firstSubMesh: 0
    subMeshCount: 0
  m_StaticBatchRoot: {fileID: 0}
  m_ProbeAnchor: {fileID: 0}
  m_LightProbeVolumeOverride: {fileID: 0}
  m_ScaleInLightmap: 1
  m_ReceiveGI: 1
  m_PreserveUVs: 0
  m_IgnoreNormalsForChartDetection: 0
  m_ImportantGI: 0
  m_StitchLightmapSeams: 0
  m_SelectedEditorRenderState: 3
  m_MinimumChartSize: 4
  m_AutoUVMaxDistance: 0.5
  m_AutoUVMaxAngle: 89
  m_LightmapParameters: {fileID: 0}
  m_SortingLayerID: 0
  m_SortingLayer: 0
  m_SortingOrder: 0
  serializedVersion: 2
  m_Quality: 0
  m_UpdateWhenOffscreen: 0
  m_SkinnedMotionVectors: 1
  m_Mesh: {fileID: 4300006, guid: 6ff98783d10689e4199627949324d20f, type: 3}
  m_Bones:
  - {fileID: 2369712856593335321}
  - {fileID: 2369712856593335343}
  - {fileID: 2369712856593335335}
  - {fileID: 2369712856593335301}
  - {fileID: 2369712856593335331}
  - {fileID: 2369712856593335423}
  - {fileID: 2369712856593335415}
  - {fileID: 2369712856593335381}
  - {fileID: 2369712856593335411}
  - {fileID: 2369712856593335417}
  - {fileID: 2369712856593335419}
  - {fileID: 2369712856593335397}
  - {fileID: 2369712856593335329}
  - {fileID: 2369712856593335323}
  - {fileID: 2369712856593335303}
  - {fileID: 2369712856593335297}
  - {fileID: 2369712856593335355}
  - {fileID: 2369712856593335299}
  - {fileID: 2369712856593335309}
  - {fileID: 2369712856593335305}
  - {fileID: 2369712856593335307}
  - {fileID: 2369712856593335357}
  - {fileID: 2369712856593335359}
  - {fileID: 2369712856593335351}
  - {fileID: 2369712856593335345}
  - {fileID: 2369712856593335409}
  - {fileID: 2369712856593335339}
  - {fileID: 2369712856593335383}
  - {fileID: 2369712856593335377}
  - {fileID: 2369712856593335371}
  - {fileID: 2369712856593335379}
  - {fileID: 2369712856593335389}
  - {fileID: 2369712856593335385}
  - {fileID: 2369712856593335387}
  - {fileID: 2369712856593335373}
  - {fileID: 2369712856593335375}
  - {fileID: 2369712856593335367}
  - {fileID: 2369712856593335361}
  - {fileID: 2369712856593335337}
  - {fileID: 2369712856593335325}
  m_BlendShapeWeights: []
  m_RootBone: {fileID: 2369712856593335321}
  m_AABB:
    m_Center: {x: -0.00000044703484, y: -0.47432283, z: 0.07486755}
    m_Extent: {x: 0.2805085, y: 0.5715918, z: 0.17461841}
  m_DirtyAABB: 0
--- !u!1 &2369712856593308047
GameObject:
  m_ObjectHideFlags: 0
  m_CorrespondingSourceObject: {fileID: 0}
  m_PrefabInstance: {fileID: 0}
  m_PrefabAsset: {fileID: 0}
  serializedVersion: 6
  m_Component:
  - component: {fileID: 2369712856593335407}
  - component: {fileID: 2369712856581739833}
  m_Layer: 0
  m_Name: Torso Male Long Sleeves
  m_TagString: Untagged
  m_Icon: {fileID: 0}
  m_NavMeshLayer: 0
  m_StaticEditorFlags: 0
  m_IsActive: 0
--- !u!4 &2369712856593335407
Transform:
  m_ObjectHideFlags: 0
  m_CorrespondingSourceObject: {fileID: 0}
  m_PrefabInstance: {fileID: 0}
  m_PrefabAsset: {fileID: 0}
  m_GameObject: {fileID: 2369712856593308047}
  m_LocalRotation: {x: 0.00000008146035, y: 1.1763631e-17, z: 6.887626e-18, w: 1}
  m_LocalPosition: {x: 7.05818e-17, y: -1.6018475e-10, z: -3.3087225e-24}
  m_LocalScale: {x: 1.0000005, y: 1.0000005, z: 1.0000005}
  m_Children: []
  m_Father: {fileID: 2369712856593335393}
  m_RootOrder: 7
  m_LocalEulerAnglesHint: {x: 0, y: 0, z: 0}
--- !u!137 &2369712856581739833
SkinnedMeshRenderer:
  m_ObjectHideFlags: 0
  m_CorrespondingSourceObject: {fileID: 0}
  m_PrefabInstance: {fileID: 0}
  m_PrefabAsset: {fileID: 0}
  m_GameObject: {fileID: 2369712856593308047}
  m_Enabled: 1
  m_CastShadows: 1
  m_ReceiveShadows: 1
  m_DynamicOccludee: 1
  m_MotionVectors: 1
  m_LightProbeUsage: 1
  m_ReflectionProbeUsage: 1
  m_RayTracingMode: 3
  m_RayTraceProcedural: 0
  m_RenderingLayerMask: 1
  m_RendererPriority: 0
  m_Materials:
  - {fileID: 2100000, guid: f8709670b974bb34b9bb5bde311063da, type: 2}
  - {fileID: 2100000, guid: 17f1bd9c4bd45454ebf9855e7dfda148, type: 2}
  m_StaticBatchInfo:
    firstSubMesh: 0
    subMeshCount: 0
  m_StaticBatchRoot: {fileID: 0}
  m_ProbeAnchor: {fileID: 0}
  m_LightProbeVolumeOverride: {fileID: 0}
  m_ScaleInLightmap: 1
  m_ReceiveGI: 1
  m_PreserveUVs: 0
  m_IgnoreNormalsForChartDetection: 0
  m_ImportantGI: 0
  m_StitchLightmapSeams: 0
  m_SelectedEditorRenderState: 3
  m_MinimumChartSize: 4
  m_AutoUVMaxDistance: 0.5
  m_AutoUVMaxAngle: 89
  m_LightmapParameters: {fileID: 0}
  m_SortingLayerID: 0
  m_SortingLayer: 0
  m_SortingOrder: 0
  serializedVersion: 2
  m_Quality: 0
  m_UpdateWhenOffscreen: 0
  m_SkinnedMotionVectors: 1
  m_Mesh: {fileID: 4300012, guid: 6ff98783d10689e4199627949324d20f, type: 3}
  m_Bones:
  - {fileID: 2369712856593335321}
  - {fileID: 2369712856593335343}
  - {fileID: 2369712856593335335}
  - {fileID: 2369712856593335301}
  - {fileID: 2369712856593335331}
  - {fileID: 2369712856593335423}
  - {fileID: 2369712856593335415}
  - {fileID: 2369712856593335381}
  - {fileID: 2369712856593335411}
  - {fileID: 2369712856593335417}
  - {fileID: 2369712856593335419}
  - {fileID: 2369712856593335397}
  - {fileID: 2369712856593335329}
  - {fileID: 2369712856593335323}
  - {fileID: 2369712856593335303}
  - {fileID: 2369712856593335297}
  - {fileID: 2369712856593335355}
  - {fileID: 2369712856593335299}
  - {fileID: 2369712856593335309}
  - {fileID: 2369712856593335305}
  - {fileID: 2369712856593335307}
  - {fileID: 2369712856593335357}
  - {fileID: 2369712856593335359}
  - {fileID: 2369712856593335351}
  - {fileID: 2369712856593335345}
  - {fileID: 2369712856593335409}
  - {fileID: 2369712856593335339}
  - {fileID: 2369712856593335383}
  - {fileID: 2369712856593335377}
  - {fileID: 2369712856593335371}
  - {fileID: 2369712856593335379}
  - {fileID: 2369712856593335389}
  - {fileID: 2369712856593335385}
  - {fileID: 2369712856593335387}
  - {fileID: 2369712856593335373}
  - {fileID: 2369712856593335375}
  - {fileID: 2369712856593335367}
  - {fileID: 2369712856593335361}
  - {fileID: 2369712856593335337}
  - {fileID: 2369712856593335325}
  m_BlendShapeWeights: []
  m_RootBone: {fileID: 2369712856593335321}
  m_AABB:
    m_Center: {x: -0.00009587407, y: 0.4054935, z: 0.027268}
    m_Extent: {x: 0.8729589, y: 0.34485555, z: 0.118449904}
  m_DirtyAABB: 0
--- !u!1 &2369712856593308049
GameObject:
  m_ObjectHideFlags: 0
  m_CorrespondingSourceObject: {fileID: 0}
  m_PrefabInstance: {fileID: 0}
  m_PrefabAsset: {fileID: 0}
  serializedVersion: 6
  m_Component:
  - component: {fileID: 2369712856593335409}
  m_Layer: 0
  m_Name: LowManRightShoulder
  m_TagString: Untagged
  m_Icon: {fileID: 0}
  m_NavMeshLayer: 0
  m_StaticEditorFlags: 0
  m_IsActive: 1
--- !u!4 &2369712856593335409
Transform:
  m_ObjectHideFlags: 0
  m_CorrespondingSourceObject: {fileID: 0}
  m_PrefabInstance: {fileID: 0}
  m_PrefabAsset: {fileID: 0}
  m_GameObject: {fileID: 2369712856593308049}
  m_LocalRotation: {x: -8.102306e-17, y: 0.91116476, z: 8.102306e-17, w: 0.41204223}
  m_LocalPosition: {x: 0.096879706, y: 0, z: 0.012464094}
  m_LocalScale: {x: 0.99999994, y: 0.99999994, z: 0.99999994}
  m_Children:
  - {fileID: 2369712856593335339}
  m_Father: {fileID: 2369712856593335397}
  m_RootOrder: 2
  m_LocalEulerAnglesHint: {x: 0, y: 0, z: 0}
--- !u!1 &2369712856593308051
GameObject:
  m_ObjectHideFlags: 0
  m_CorrespondingSourceObject: {fileID: 0}
  m_PrefabInstance: {fileID: 0}
  m_PrefabAsset: {fileID: 0}
  serializedVersion: 6
  m_Component:
  - component: {fileID: 2369712856593335411}
  m_Layer: 0
  m_Name: LowManRightToeBase
  m_TagString: Untagged
  m_Icon: {fileID: 0}
  m_NavMeshLayer: 0
  m_StaticEditorFlags: 0
  m_IsActive: 1
--- !u!4 &2369712856593335411
Transform:
  m_ObjectHideFlags: 0
  m_CorrespondingSourceObject: {fileID: 0}
  m_PrefabInstance: {fileID: 0}
  m_PrefabAsset: {fileID: 0}
  m_GameObject: {fileID: 2369712856593308051}
  m_LocalRotation: {x: -0.26146147, y: -0.046164524, z: -0.012520742, w: 0.964028}
  m_LocalPosition: {x: -0.000000054091213, y: 0.000000001610325, z: 0.18345623}
  m_LocalScale: {x: 1, y: 1, z: 0.99999994}
  m_Children:
  - {fileID: 2369712856593335421}
  m_Father: {fileID: 2369712856593335381}
  m_RootOrder: 0
  m_LocalEulerAnglesHint: {x: 0, y: 0, z: 0}
--- !u!1 &2369712856593308053
GameObject:
  m_ObjectHideFlags: 0
  m_CorrespondingSourceObject: {fileID: 0}
  m_PrefabInstance: {fileID: 0}
  m_PrefabAsset: {fileID: 0}
  serializedVersion: 6
  m_Component:
  - component: {fileID: 2369712856593335413}
  m_Layer: 0
  m_Name: LowManRightHandThumb1_end
  m_TagString: Untagged
  m_Icon: {fileID: 0}
  m_NavMeshLayer: 0
  m_StaticEditorFlags: 0
  m_IsActive: 1
--- !u!4 &2369712856593335413
Transform:
  m_ObjectHideFlags: 0
  m_CorrespondingSourceObject: {fileID: 0}
  m_PrefabInstance: {fileID: 0}
  m_PrefabAsset: {fileID: 0}
  m_GameObject: {fileID: 2369712856593308053}
  m_LocalRotation: {x: 0, y: -0, z: -0, w: 1}
  m_LocalPosition: {x: -0, y: 0.086239174, z: 0}
  m_LocalScale: {x: 1, y: 1, z: 1}
  m_Children: []
  m_Father: {fileID: 2369712856593335371}
  m_RootOrder: 0
  m_LocalEulerAnglesHint: {x: 0, y: 0, z: 0}
--- !u!1 &2369712856593308055
GameObject:
  m_ObjectHideFlags: 0
  m_CorrespondingSourceObject: {fileID: 0}
  m_PrefabInstance: {fileID: 0}
  m_PrefabAsset: {fileID: 0}
  serializedVersion: 6
  m_Component:
  - component: {fileID: 2369712856593335415}
  m_Layer: 0
  m_Name: LowManRightLeg
  m_TagString: Untagged
  m_Icon: {fileID: 0}
  m_NavMeshLayer: 0
  m_StaticEditorFlags: 0
  m_IsActive: 1
--- !u!4 &2369712856593335415
Transform:
  m_ObjectHideFlags: 0
  m_CorrespondingSourceObject: {fileID: 0}
  m_PrefabInstance: {fileID: 0}
  m_PrefabAsset: {fileID: 0}
  m_GameObject: {fileID: 2369712856593308055}
  m_LocalRotation: {x: 0.06093687, y: -0.025125531, z: 0.007978735, w: 0.99779344}
  m_LocalPosition: {x: 0.00000014260411, y: 0.000000077626396, z: 0.41396242}
  m_LocalScale: {x: 0.99999994, y: 1.0000001, z: 1}
  m_Children:
  - {fileID: 2369712856593335381}
  m_Father: {fileID: 2369712856593335423}
  m_RootOrder: 0
  m_LocalEulerAnglesHint: {x: 0, y: 0, z: 0}
--- !u!1 &2369712856593308057
GameObject:
  m_ObjectHideFlags: 0
  m_CorrespondingSourceObject: {fileID: 0}
  m_PrefabInstance: {fileID: 0}
  m_PrefabAsset: {fileID: 0}
  serializedVersion: 6
  m_Component:
  - component: {fileID: 2369712856593335417}
  m_Layer: 0
  m_Name: LowManSpine
  m_TagString: Untagged
  m_Icon: {fileID: 0}
  m_NavMeshLayer: 0
  m_StaticEditorFlags: 0
  m_IsActive: 1
--- !u!4 &2369712856593335417
Transform:
  m_ObjectHideFlags: 0
  m_CorrespondingSourceObject: {fileID: 0}
  m_PrefabInstance: {fileID: 0}
  m_PrefabAsset: {fileID: 0}
  m_GameObject: {fileID: 2369712856593308057}
  m_LocalRotation: {x: -0.7071068, y: 0, z: -0, w: 0.7071067}
  m_LocalPosition: {x: -0, y: 0.06451187, z: 0}
  m_LocalScale: {x: 1, y: 1, z: 1}
  m_Children:
  - {fileID: 2369712856593335419}
  m_Father: {fileID: 2369712856593335321}
  m_RootOrder: 2
  m_LocalEulerAnglesHint: {x: 0, y: 0, z: 0}
--- !u!1 &2369712856593308059
GameObject:
  m_ObjectHideFlags: 0
  m_CorrespondingSourceObject: {fileID: 0}
  m_PrefabInstance: {fileID: 0}
  m_PrefabAsset: {fileID: 0}
  serializedVersion: 6
  m_Component:
  - component: {fileID: 2369712856593335419}
  m_Layer: 0
  m_Name: LowManSpine1
  m_TagString: Untagged
  m_Icon: {fileID: 0}
  m_NavMeshLayer: 0
  m_StaticEditorFlags: 0
  m_IsActive: 1
--- !u!4 &2369712856593335419
Transform:
  m_ObjectHideFlags: 0
  m_CorrespondingSourceObject: {fileID: 0}
  m_PrefabInstance: {fileID: 0}
  m_PrefabAsset: {fileID: 0}
  m_GameObject: {fileID: 2369712856593308059}
  m_LocalRotation: {x: 0, y: -0, z: -0, w: 1}
  m_LocalPosition: {x: -0, y: 0, z: 0.14704925}
  m_LocalScale: {x: 1, y: 1, z: 1}
  m_Children:
  - {fileID: 2369712856593335397}
  m_Father: {fileID: 2369712856593335417}
  m_RootOrder: 0
  m_LocalEulerAnglesHint: {x: 0, y: 0, z: 0}
--- !u!1 &2369712856593308061
GameObject:
  m_ObjectHideFlags: 0
  m_CorrespondingSourceObject: {fileID: 0}
  m_PrefabInstance: {fileID: 0}
  m_PrefabAsset: {fileID: 0}
  serializedVersion: 6
  m_Component:
  - component: {fileID: 2369712856593335421}
  m_Layer: 0
  m_Name: LowManRightToeBase_end
  m_TagString: Untagged
  m_Icon: {fileID: 0}
  m_NavMeshLayer: 0
  m_StaticEditorFlags: 0
  m_IsActive: 1
--- !u!4 &2369712856593335421
Transform:
  m_ObjectHideFlags: 0
  m_CorrespondingSourceObject: {fileID: 0}
  m_PrefabInstance: {fileID: 0}
  m_PrefabAsset: {fileID: 0}
  m_GameObject: {fileID: 2369712856593308061}
  m_LocalRotation: {x: 0, y: -0, z: -0, w: 1}
  m_LocalPosition: {x: -0, y: 0.18345617, z: 0}
  m_LocalScale: {x: 1, y: 1, z: 1}
  m_Children: []
  m_Father: {fileID: 2369712856593335411}
  m_RootOrder: 0
  m_LocalEulerAnglesHint: {x: 0, y: 0, z: 0}
--- !u!1 &2369712856593308063
GameObject:
  m_ObjectHideFlags: 0
  m_CorrespondingSourceObject: {fileID: 0}
  m_PrefabInstance: {fileID: 0}
  m_PrefabAsset: {fileID: 0}
  serializedVersion: 6
  m_Component:
  - component: {fileID: 2369712856593335423}
  m_Layer: 0
  m_Name: LowManRightUpLeg
  m_TagString: Untagged
  m_Icon: {fileID: 0}
  m_NavMeshLayer: 0
  m_StaticEditorFlags: 0
  m_IsActive: 1
--- !u!4 &2369712856593335423
Transform:
  m_ObjectHideFlags: 0
  m_CorrespondingSourceObject: {fileID: 0}
  m_PrefabInstance: {fileID: 0}
  m_PrefabAsset: {fileID: 0}
  m_GameObject: {fileID: 2369712856593308063}
  m_LocalRotation: {x: 0.689918, y: 0.056023676, z: 0.053704184, w: 0.7197155}
  m_LocalPosition: {x: 0.09726756, y: -0.057784498, z: 0.0000000034498122}
  m_LocalScale: {x: 1, y: 0.99999994, z: 0.99999994}
  m_Children:
  - {fileID: 2369712856593335415}
  m_Father: {fileID: 2369712856593335321}
  m_RootOrder: 1
  m_LocalEulerAnglesHint: {x: 0, y: 0, z: 0}
