%YAML 1.1
%TAG !u! tag:unity3d.com,2011:
--- !u!65 &5196094544645162457
BoxCollider:
  m_ObjectHideFlags: 0
  m_CorrespondingSourceObject: {fileID: 0}
  m_PrefabInstance: {fileID: 0}
  m_PrefabAsset: {fileID: 0}
  m_GameObject: {fileID: 2758839244360458000}
  m_Material: {fileID: 0}
  m_IsTrigger: 0
  m_Enabled: 1
  serializedVersion: 2
  m_Size: {x: 0.09899999, y: 0.00017, z: 0.064}
  m_Center: {x: 0, y: -0.000085, z: 0}
--- !u!1 &6561294968621758792
GameObject:
  m_ObjectHideFlags: 0
  m_CorrespondingSourceObject: {fileID: 0}
  m_PrefabInstance: {fileID: 0}
  m_PrefabAsset: {fileID: 0}
  serializedVersion: 6
  m_Component:
  - component: {fileID: 6053138101311159779}
  m_Layer: 0
  m_Name: P_SM_Card_Spades_4
  m_TagString: Untagged
  m_Icon: {fileID: 0}
  m_NavMeshLayer: 0
  m_StaticEditorFlags: 0
  m_IsActive: 1
--- !u!4 &6053138101311159779
Transform:
  m_ObjectHideFlags: 0
  m_CorrespondingSourceObject: {fileID: 0}
  m_PrefabInstance: {fileID: 0}
  m_PrefabAsset: {fileID: 0}
  m_GameObject: {fileID: 6561294968621758792}
  m_LocalRotation: {x: 0, y: 0, z: 0, w: 1}
  m_LocalPosition: {x: 0, y: 0, z: 0}
  m_LocalScale: {x: 1, y: 1, z: 1}
  m_Children:
  - {fileID: 3243309719681713578}
  m_Father: {fileID: 0}
  m_RootOrder: 0
  m_LocalEulerAnglesHint: {x: 0, y: 0, z: 0}
--- !u!1001 &3064757257440731713
PrefabInstance:
  m_ObjectHideFlags: 0
  serializedVersion: 2
  m_Modification:
    m_TransformParent: {fileID: 6053138101311159779}
    m_Modifications:
    - target: {fileID: -8679921383154817045, guid: 1135761b652de4c4f87ee27cc07aac12,
        type: 3}
      propertyPath: m_LocalPosition.x
      value: -0
      objectReference: {fileID: 0}
    - target: {fileID: -8679921383154817045, guid: 1135761b652de4c4f87ee27cc07aac12,
        type: 3}
      propertyPath: m_LocalPosition.y
      value: 0
      objectReference: {fileID: 0}
    - target: {fileID: -8679921383154817045, guid: 1135761b652de4c4f87ee27cc07aac12,
        type: 3}
      propertyPath: m_LocalPosition.z
      value: 0
      objectReference: {fileID: 0}
    - target: {fileID: -8679921383154817045, guid: 1135761b652de4c4f87ee27cc07aac12,
        type: 3}
      propertyPath: m_LocalRotation.x
      value: 0
      objectReference: {fileID: 0}
    - target: {fileID: -8679921383154817045, guid: 1135761b652de4c4f87ee27cc07aac12,
        type: 3}
      propertyPath: m_LocalRotation.y
      value: -0
      objectReference: {fileID: 0}
    - target: {fileID: -8679921383154817045, guid: 1135761b652de4c4f87ee27cc07aac12,
        type: 3}
      propertyPath: m_LocalRotation.z
      value: -0
      objectReference: {fileID: 0}
    - target: {fileID: -8679921383154817045, guid: 1135761b652de4c4f87ee27cc07aac12,
        type: 3}
      propertyPath: m_LocalRotation.w
      value: 1
      objectReference: {fileID: 0}
    - target: {fileID: -8679921383154817045, guid: 1135761b652de4c4f87ee27cc07aac12,
        type: 3}
      propertyPath: m_RootOrder
      value: 0
      objectReference: {fileID: 0}
    - target: {fileID: -8679921383154817045, guid: 1135761b652de4c4f87ee27cc07aac12,
        type: 3}
      propertyPath: m_LocalEulerAnglesHint.x
      value: 0
      objectReference: {fileID: 0}
    - target: {fileID: -8679921383154817045, guid: 1135761b652de4c4f87ee27cc07aac12,
        type: 3}
      propertyPath: m_LocalEulerAnglesHint.y
      value: 0
      objectReference: {fileID: 0}
    - target: {fileID: -8679921383154817045, guid: 1135761b652de4c4f87ee27cc07aac12,
        type: 3}
      propertyPath: m_LocalEulerAnglesHint.z
      value: 0
      objectReference: {fileID: 0}
    - target: {fileID: -7511558181221131132, guid: 1135761b652de4c4f87ee27cc07aac12,
        type: 3}
      propertyPath: m_Materials.Array.data[0]
      value: 
      objectReference: {fileID: 2100000, guid: b63ae1136e8f7544abd40bf5da8970e0, type: 2}
    - target: {fileID: -7511558181221131132, guid: 1135761b652de4c4f87ee27cc07aac12,
        type: 3}
      propertyPath: m_Materials.Array.data[1]
      value: 
      objectReference: {fileID: 2100000, guid: fd22775c65109f24592bc01a50e15a32, type: 2}
    - target: {fileID: 919132149155446097, guid: 1135761b652de4c4f87ee27cc07aac12,
        type: 3}
      propertyPath: m_Name
      value: SM_Card_Spades_4
      objectReference: {fileID: 0}
    m_RemovedComponents: []
  m_SourcePrefab: {fileID: 100100000, guid: 1135761b652de4c4f87ee27cc07aac12, type: 3}
--- !u!1 &2758839244360458000 stripped
GameObject:
  m_CorrespondingSourceObject: {fileID: 919132149155446097, guid: 1135761b652de4c4f87ee27cc07aac12,
    type: 3}
  m_PrefabInstance: {fileID: 3064757257440731713}
  m_PrefabAsset: {fileID: 0}
--- !u!4 &3243309719681713578 stripped
Transform:
  m_CorrespondingSourceObject: {fileID: -8679921383154817045, guid: 1135761b652de4c4f87ee27cc07aac12,
    type: 3}
  m_PrefabInstance: {fileID: 3064757257440731713}
  m_PrefabAsset: {fileID: 0}
