%YAML 1.1
%TAG !u! tag:unity3d.com,2011:
--- !u!1 &2777792925787560076
GameObject:
  m_ObjectHideFlags: 0
  m_CorrespondingSourceObject: {fileID: 0}
  m_PrefabInstance: {fileID: 0}
  m_PrefabAsset: {fileID: 0}
  serializedVersion: 6
  m_Component:
  - component: {fileID: 1515682405297840591}
  m_Layer: 0
  m_Name: P_SM_Chess_Queen_High
  m_TagString: Untagged
  m_Icon: {fileID: 0}
  m_NavMeshLayer: 0
  m_StaticEditorFlags: 0
  m_IsActive: 1
--- !u!4 &1515682405297840591
Transform:
  m_ObjectHideFlags: 0
  m_CorrespondingSourceObject: {fileID: 0}
  m_PrefabInstance: {fileID: 0}
  m_PrefabAsset: {fileID: 0}
  m_GameObject: {fileID: 2777792925787560076}
  m_LocalRotation: {x: 0, y: 0, z: 0, w: 1}
  m_LocalPosition: {x: 0, y: 0, z: 0}
  m_LocalScale: {x: 1, y: 1, z: 1}
  m_Children:
  - {fileID: 5069679809915276858}
  m_Father: {fileID: 0}
  m_RootOrder: 0
  m_LocalEulerAnglesHint: {x: 0, y: 0, z: 0}
--- !u!65 &5324834150416433818
BoxCollider:
  m_ObjectHideFlags: 0
  m_CorrespondingSourceObject: {fileID: 0}
  m_PrefabInstance: {fileID: 0}
  m_PrefabAsset: {fileID: 0}
  m_GameObject: {fileID: 5553165122744620160}
  m_Material: {fileID: 0}
  m_IsTrigger: 0
  m_Enabled: 1
  serializedVersion: 2
  m_Size: {x: 0.04120079, y: 0.08759257, z: 0.041152008}
  m_Center: {x: 0, y: 0.0438196, z: 0}
--- !u!1001 &4742756120526137809
PrefabInstance:
  m_ObjectHideFlags: 0
  serializedVersion: 2
  m_Modification:
    m_TransformParent: {fileID: 1515682405297840591}
    m_Modifications:
    - target: {fileID: -8679921383154817045, guid: f96a9abf9975d0349b8a8a5d85bf38a2,
        type: 3}
      propertyPath: m_LocalPosition.x
      value: -0
      objectReference: {fileID: 0}
    - target: {fileID: -8679921383154817045, guid: f96a9abf9975d0349b8a8a5d85bf38a2,
        type: 3}
      propertyPath: m_LocalPosition.y
      value: 0
      objectReference: {fileID: 0}
    - target: {fileID: -8679921383154817045, guid: f96a9abf9975d0349b8a8a5d85bf38a2,
        type: 3}
      propertyPath: m_LocalPosition.z
      value: 0
      objectReference: {fileID: 0}
    - target: {fileID: -8679921383154817045, guid: f96a9abf9975d0349b8a8a5d85bf38a2,
        type: 3}
      propertyPath: m_LocalRotation.x
      value: 0
      objectReference: {fileID: 0}
    - target: {fileID: -8679921383154817045, guid: f96a9abf9975d0349b8a8a5d85bf38a2,
        type: 3}
      propertyPath: m_LocalRotation.y
      value: -0
      objectReference: {fileID: 0}
    - target: {fileID: -8679921383154817045, guid: f96a9abf9975d0349b8a8a5d85bf38a2,
        type: 3}
      propertyPath: m_LocalRotation.z
      value: -0
      objectReference: {fileID: 0}
    - target: {fileID: -8679921383154817045, guid: f96a9abf9975d0349b8a8a5d85bf38a2,
        type: 3}
      propertyPath: m_LocalRotation.w
      value: 1
      objectReference: {fileID: 0}
    - target: {fileID: -8679921383154817045, guid: f96a9abf9975d0349b8a8a5d85bf38a2,
        type: 3}
      propertyPath: m_RootOrder
      value: 0
      objectReference: {fileID: 0}
    - target: {fileID: -8679921383154817045, guid: f96a9abf9975d0349b8a8a5d85bf38a2,
        type: 3}
      propertyPath: m_LocalEulerAnglesHint.x
      value: 0
      objectReference: {fileID: 0}
    - target: {fileID: -8679921383154817045, guid: f96a9abf9975d0349b8a8a5d85bf38a2,
        type: 3}
      propertyPath: m_LocalEulerAnglesHint.y
      value: 0
      objectReference: {fileID: 0}
    - target: {fileID: -8679921383154817045, guid: f96a9abf9975d0349b8a8a5d85bf38a2,
        type: 3}
      propertyPath: m_LocalEulerAnglesHint.z
      value: 0
      objectReference: {fileID: 0}
    - target: {fileID: -7511558181221131132, guid: f96a9abf9975d0349b8a8a5d85bf38a2,
        type: 3}
      propertyPath: m_Materials.Array.data[0]
      value: 
      objectReference: {fileID: 2100000, guid: f07a2efd13200094bb1529d7ff11a997, type: 2}
    - target: {fileID: 919132149155446097, guid: f96a9abf9975d0349b8a8a5d85bf38a2,
        type: 3}
      propertyPath: m_Name
      value: SM_Chess_Queen_High
      objectReference: {fileID: 0}
    m_RemovedComponents: []
  m_SourcePrefab: {fileID: 100100000, guid: f96a9abf9975d0349b8a8a5d85bf38a2, type: 3}
--- !u!1 &5553165122744620160 stripped
GameObject:
  m_CorrespondingSourceObject: {fileID: 919132149155446097, guid: f96a9abf9975d0349b8a8a5d85bf38a2,
    type: 3}
  m_PrefabInstance: {fileID: 4742756120526137809}
  m_PrefabAsset: {fileID: 0}
--- !u!4 &5069679809915276858 stripped
Transform:
  m_CorrespondingSourceObject: {fileID: -8679921383154817045, guid: f96a9abf9975d0349b8a8a5d85bf38a2,
    type: 3}
  m_PrefabInstance: {fileID: 4742756120526137809}
  m_PrefabAsset: {fileID: 0}
