%YAML 1.1
%TAG !u! tag:unity3d.com,2011:
--- !u!1 &4338072916298945600
GameObject:
  m_ObjectHideFlags: 0
  m_CorrespondingSourceObject: {fileID: 0}
  m_PrefabInstance: {fileID: 0}
  m_PrefabAsset: {fileID: 0}
  serializedVersion: 6
  m_Component:
  - component: {fileID: 868237669359295408}
  m_Layer: 0
  m_Name: P_SM_Chess_Tower_Medium
  m_TagString: Untagged
  m_Icon: {fileID: 0}
  m_NavMeshLayer: 0
  m_StaticEditorFlags: 0
  m_IsActive: 1
--- !u!4 &868237669359295408
Transform:
  m_ObjectHideFlags: 0
  m_CorrespondingSourceObject: {fileID: 0}
  m_PrefabInstance: {fileID: 0}
  m_PrefabAsset: {fileID: 0}
  m_GameObject: {fileID: 4338072916298945600}
  m_LocalRotation: {x: 0, y: 0, z: 0, w: 1}
  m_LocalPosition: {x: 0, y: 0, z: 0}
  m_LocalScale: {x: 1, y: 1, z: 1}
  m_Children:
  - {fileID: 5726338670022474982}
  m_Father: {fileID: 0}
  m_RootOrder: 0
  m_LocalEulerAnglesHint: {x: 0, y: 0, z: 0}
--- !u!65 &61798559128408146
BoxCollider:
  m_ObjectHideFlags: 0
  m_CorrespondingSourceObject: {fileID: 0}
  m_PrefabInstance: {fileID: 0}
  m_PrefabAsset: {fileID: 0}
  m_GameObject: {fileID: 4914511323887691356}
  m_Material: {fileID: 0}
  m_IsTrigger: 0
  m_Enabled: 1
  serializedVersion: 2
  m_Size: {x: 0.03728818, y: 0.063233, z: 0.037244026}
  m_Center: {x: 0, y: 0.031637758, z: 0}
--- !u!1001 &5256461434668768013
PrefabInstance:
  m_ObjectHideFlags: 0
  serializedVersion: 2
  m_Modification:
    m_TransformParent: {fileID: 868237669359295408}
    m_Modifications:
    - target: {fileID: -8679921383154817045, guid: b07023e8845a5ac41961a1b440c0cbc1,
        type: 3}
      propertyPath: m_LocalPosition.x
      value: -0
      objectReference: {fileID: 0}
    - target: {fileID: -8679921383154817045, guid: b07023e8845a5ac41961a1b440c0cbc1,
        type: 3}
      propertyPath: m_LocalPosition.y
      value: 0
      objectReference: {fileID: 0}
    - target: {fileID: -8679921383154817045, guid: b07023e8845a5ac41961a1b440c0cbc1,
        type: 3}
      propertyPath: m_LocalPosition.z
      value: 0
      objectReference: {fileID: 0}
    - target: {fileID: -8679921383154817045, guid: b07023e8845a5ac41961a1b440c0cbc1,
        type: 3}
      propertyPath: m_LocalRotation.x
      value: 0
      objectReference: {fileID: 0}
    - target: {fileID: -8679921383154817045, guid: b07023e8845a5ac41961a1b440c0cbc1,
        type: 3}
      propertyPath: m_LocalRotation.y
      value: -0
      objectReference: {fileID: 0}
    - target: {fileID: -8679921383154817045, guid: b07023e8845a5ac41961a1b440c0cbc1,
        type: 3}
      propertyPath: m_LocalRotation.z
      value: -0
      objectReference: {fileID: 0}
    - target: {fileID: -8679921383154817045, guid: b07023e8845a5ac41961a1b440c0cbc1,
        type: 3}
      propertyPath: m_LocalRotation.w
      value: 1
      objectReference: {fileID: 0}
    - target: {fileID: -8679921383154817045, guid: b07023e8845a5ac41961a1b440c0cbc1,
        type: 3}
      propertyPath: m_RootOrder
      value: 0
      objectReference: {fileID: 0}
    - target: {fileID: -8679921383154817045, guid: b07023e8845a5ac41961a1b440c0cbc1,
        type: 3}
      propertyPath: m_LocalEulerAnglesHint.x
      value: 0
      objectReference: {fileID: 0}
    - target: {fileID: -8679921383154817045, guid: b07023e8845a5ac41961a1b440c0cbc1,
        type: 3}
      propertyPath: m_LocalEulerAnglesHint.y
      value: 0
      objectReference: {fileID: 0}
    - target: {fileID: -8679921383154817045, guid: b07023e8845a5ac41961a1b440c0cbc1,
        type: 3}
      propertyPath: m_LocalEulerAnglesHint.z
      value: 0
      objectReference: {fileID: 0}
    - target: {fileID: -7511558181221131132, guid: b07023e8845a5ac41961a1b440c0cbc1,
        type: 3}
      propertyPath: m_Materials.Array.data[0]
      value: 
      objectReference: {fileID: 2100000, guid: f07a2efd13200094bb1529d7ff11a997, type: 2}
    - target: {fileID: 919132149155446097, guid: b07023e8845a5ac41961a1b440c0cbc1,
        type: 3}
      propertyPath: m_Name
      value: SM_Chess_Tower_Medium
      objectReference: {fileID: 0}
    m_RemovedComponents: []
  m_SourcePrefab: {fileID: 100100000, guid: b07023e8845a5ac41961a1b440c0cbc1, type: 3}
--- !u!1 &4914511323887691356 stripped
GameObject:
  m_CorrespondingSourceObject: {fileID: 919132149155446097, guid: b07023e8845a5ac41961a1b440c0cbc1,
    type: 3}
  m_PrefabInstance: {fileID: 5256461434668768013}
  m_PrefabAsset: {fileID: 0}
--- !u!4 &5726338670022474982 stripped
Transform:
  m_CorrespondingSourceObject: {fileID: -8679921383154817045, guid: b07023e8845a5ac41961a1b440c0cbc1,
    type: 3}
  m_PrefabInstance: {fileID: 5256461434668768013}
  m_PrefabAsset: {fileID: 0}
