%YAML 1.1
%TAG !u! tag:unity3d.com,2011:
--- !u!1 &668604275147906141
GameObject:
  m_ObjectHideFlags: 0
  m_CorrespondingSourceObject: {fileID: 0}
  m_PrefabInstance: {fileID: 0}
  m_PrefabAsset: {fileID: 0}
  serializedVersion: 6
  m_Component:
  - component: {fileID: 3841393445744707941}
  m_Layer: 0
  m_Name: P_SM_Chess_Knight_Low
  m_TagString: Untagged
  m_Icon: {fileID: 0}
  m_NavMeshLayer: 0
  m_StaticEditorFlags: 0
  m_IsActive: 1
--- !u!4 &3841393445744707941
Transform:
  m_ObjectHideFlags: 0
  m_CorrespondingSourceObject: {fileID: 0}
  m_PrefabInstance: {fileID: 0}
  m_PrefabAsset: {fileID: 0}
  m_GameObject: {fileID: 668604275147906141}
  m_LocalRotation: {x: 0, y: 0, z: 0, w: 1}
  m_LocalPosition: {x: 0, y: 0, z: 0}
  m_LocalScale: {x: 1, y: 1, z: 1}
  m_Children:
  - {fileID: 4011997363412051008}
  m_Father: {fileID: 0}
  m_RootOrder: 0
  m_LocalEulerAnglesHint: {x: 0, y: 0, z: 0}
--- !u!65 &6521814738152794355
BoxCollider:
  m_ObjectHideFlags: 0
  m_CorrespondingSourceObject: {fileID: 0}
  m_PrefabInstance: {fileID: 0}
  m_PrefabAsset: {fileID: 0}
  m_GameObject: {fileID: 4388382855882538746}
  m_Material: {fileID: 0}
  m_IsTrigger: 0
  m_Enabled: 1
  serializedVersion: 2
  m_Size: {x: 0.03728818, y: 0.07642757, z: 0.043056678}
  m_Center: {x: 0, y: 0.038235042, z: 0}
--- !u!1001 &3469956601782715307
PrefabInstance:
  m_ObjectHideFlags: 0
  serializedVersion: 2
  m_Modification:
    m_TransformParent: {fileID: 3841393445744707941}
    m_Modifications:
    - target: {fileID: -8679921383154817045, guid: 15f0cc7c8a4f5a44d8e53b64c839e201,
        type: 3}
      propertyPath: m_LocalPosition.x
      value: -0
      objectReference: {fileID: 0}
    - target: {fileID: -8679921383154817045, guid: 15f0cc7c8a4f5a44d8e53b64c839e201,
        type: 3}
      propertyPath: m_LocalPosition.y
      value: 0
      objectReference: {fileID: 0}
    - target: {fileID: -8679921383154817045, guid: 15f0cc7c8a4f5a44d8e53b64c839e201,
        type: 3}
      propertyPath: m_LocalPosition.z
      value: 0
      objectReference: {fileID: 0}
    - target: {fileID: -8679921383154817045, guid: 15f0cc7c8a4f5a44d8e53b64c839e201,
        type: 3}
      propertyPath: m_LocalRotation.x
      value: 0
      objectReference: {fileID: 0}
    - target: {fileID: -8679921383154817045, guid: 15f0cc7c8a4f5a44d8e53b64c839e201,
        type: 3}
      propertyPath: m_LocalRotation.y
      value: -0
      objectReference: {fileID: 0}
    - target: {fileID: -8679921383154817045, guid: 15f0cc7c8a4f5a44d8e53b64c839e201,
        type: 3}
      propertyPath: m_LocalRotation.z
      value: -0
      objectReference: {fileID: 0}
    - target: {fileID: -8679921383154817045, guid: 15f0cc7c8a4f5a44d8e53b64c839e201,
        type: 3}
      propertyPath: m_LocalRotation.w
      value: 1
      objectReference: {fileID: 0}
    - target: {fileID: -8679921383154817045, guid: 15f0cc7c8a4f5a44d8e53b64c839e201,
        type: 3}
      propertyPath: m_RootOrder
      value: 0
      objectReference: {fileID: 0}
    - target: {fileID: -8679921383154817045, guid: 15f0cc7c8a4f5a44d8e53b64c839e201,
        type: 3}
      propertyPath: m_LocalEulerAnglesHint.x
      value: 0
      objectReference: {fileID: 0}
    - target: {fileID: -8679921383154817045, guid: 15f0cc7c8a4f5a44d8e53b64c839e201,
        type: 3}
      propertyPath: m_LocalEulerAnglesHint.y
      value: 0
      objectReference: {fileID: 0}
    - target: {fileID: -8679921383154817045, guid: 15f0cc7c8a4f5a44d8e53b64c839e201,
        type: 3}
      propertyPath: m_LocalEulerAnglesHint.z
      value: 0
      objectReference: {fileID: 0}
    - target: {fileID: -7511558181221131132, guid: 15f0cc7c8a4f5a44d8e53b64c839e201,
        type: 3}
      propertyPath: m_Materials.Array.data[0]
      value: 
      objectReference: {fileID: 2100000, guid: f07a2efd13200094bb1529d7ff11a997, type: 2}
    - target: {fileID: 919132149155446097, guid: 15f0cc7c8a4f5a44d8e53b64c839e201,
        type: 3}
      propertyPath: m_Name
      value: SM_Chess_Knight_Low
      objectReference: {fileID: 0}
    m_RemovedComponents: []
  m_SourcePrefab: {fileID: 100100000, guid: 15f0cc7c8a4f5a44d8e53b64c839e201, type: 3}
--- !u!1 &4388382855882538746 stripped
GameObject:
  m_CorrespondingSourceObject: {fileID: 919132149155446097, guid: 15f0cc7c8a4f5a44d8e53b64c839e201,
    type: 3}
  m_PrefabInstance: {fileID: 3469956601782715307}
  m_PrefabAsset: {fileID: 0}
--- !u!4 &4011997363412051008 stripped
Transform:
  m_CorrespondingSourceObject: {fileID: -8679921383154817045, guid: 15f0cc7c8a4f5a44d8e53b64c839e201,
    type: 3}
  m_PrefabInstance: {fileID: 3469956601782715307}
  m_PrefabAsset: {fileID: 0}
