%YAML 1.1
%TAG !u! tag:unity3d.com,2011:
--- !u!65 &8523465972014125095
BoxCollider:
  m_ObjectHideFlags: 0
  m_CorrespondingSourceObject: {fileID: 0}
  m_PrefabInstance: {fileID: 0}
  m_PrefabAsset: {fileID: 0}
  m_GameObject: {fileID: 1943485198998403930}
  m_Material: {fileID: 0}
  m_IsTrigger: 0
  m_Enabled: 1
  serializedVersion: 2
  m_Size: {x: 0.027943842, y: 0.055307284, z: 0.027749421}
  m_Center: {x: 0, y: 0.027669571, z: 0}
--- !u!1 &3593597285607827476
GameObject:
  m_ObjectHideFlags: 0
  m_CorrespondingSourceObject: {fileID: 0}
  m_PrefabInstance: {fileID: 0}
  m_PrefabAsset: {fileID: 0}
  serializedVersion: 6
  m_Component:
  - component: {fileID: 5977008270323099409}
  m_Layer: 0
  m_Name: P_SM_Chess_Pawn_Medium
  m_TagString: Untagged
  m_Icon: {fileID: 0}
  m_NavMeshLayer: 0
  m_StaticEditorFlags: 0
  m_IsActive: 1
--- !u!4 &5977008270323099409
Transform:
  m_ObjectHideFlags: 0
  m_CorrespondingSourceObject: {fileID: 0}
  m_PrefabInstance: {fileID: 0}
  m_PrefabAsset: {fileID: 0}
  m_GameObject: {fileID: 3593597285607827476}
  m_LocalRotation: {x: 0, y: 0, z: 0, w: 1}
  m_LocalPosition: {x: 0, y: 0, z: 0}
  m_LocalScale: {x: 1, y: 1, z: 1}
  m_Children:
  - {fileID: 1275492661229724128}
  m_Father: {fileID: 0}
  m_RootOrder: 0
  m_LocalEulerAnglesHint: {x: 0, y: 0, z: 0}
--- !u!1001 &1601536182494840331
PrefabInstance:
  m_ObjectHideFlags: 0
  serializedVersion: 2
  m_Modification:
    m_TransformParent: {fileID: 5977008270323099409}
    m_Modifications:
    - target: {fileID: -8679921383154817045, guid: 77d804f85e062e841a8b076c4fe51ac8,
        type: 3}
      propertyPath: m_LocalPosition.x
      value: -0
      objectReference: {fileID: 0}
    - target: {fileID: -8679921383154817045, guid: 77d804f85e062e841a8b076c4fe51ac8,
        type: 3}
      propertyPath: m_LocalPosition.y
      value: 0
      objectReference: {fileID: 0}
    - target: {fileID: -8679921383154817045, guid: 77d804f85e062e841a8b076c4fe51ac8,
        type: 3}
      propertyPath: m_LocalPosition.z
      value: 0
      objectReference: {fileID: 0}
    - target: {fileID: -8679921383154817045, guid: 77d804f85e062e841a8b076c4fe51ac8,
        type: 3}
      propertyPath: m_LocalRotation.x
      value: 0
      objectReference: {fileID: 0}
    - target: {fileID: -8679921383154817045, guid: 77d804f85e062e841a8b076c4fe51ac8,
        type: 3}
      propertyPath: m_LocalRotation.y
      value: -0
      objectReference: {fileID: 0}
    - target: {fileID: -8679921383154817045, guid: 77d804f85e062e841a8b076c4fe51ac8,
        type: 3}
      propertyPath: m_LocalRotation.z
      value: -0
      objectReference: {fileID: 0}
    - target: {fileID: -8679921383154817045, guid: 77d804f85e062e841a8b076c4fe51ac8,
        type: 3}
      propertyPath: m_LocalRotation.w
      value: 1
      objectReference: {fileID: 0}
    - target: {fileID: -8679921383154817045, guid: 77d804f85e062e841a8b076c4fe51ac8,
        type: 3}
      propertyPath: m_RootOrder
      value: 0
      objectReference: {fileID: 0}
    - target: {fileID: -8679921383154817045, guid: 77d804f85e062e841a8b076c4fe51ac8,
        type: 3}
      propertyPath: m_LocalEulerAnglesHint.x
      value: 0
      objectReference: {fileID: 0}
    - target: {fileID: -8679921383154817045, guid: 77d804f85e062e841a8b076c4fe51ac8,
        type: 3}
      propertyPath: m_LocalEulerAnglesHint.y
      value: 0
      objectReference: {fileID: 0}
    - target: {fileID: -8679921383154817045, guid: 77d804f85e062e841a8b076c4fe51ac8,
        type: 3}
      propertyPath: m_LocalEulerAnglesHint.z
      value: 0
      objectReference: {fileID: 0}
    - target: {fileID: -7511558181221131132, guid: 77d804f85e062e841a8b076c4fe51ac8,
        type: 3}
      propertyPath: m_Materials.Array.data[0]
      value: 
      objectReference: {fileID: 2100000, guid: f07a2efd13200094bb1529d7ff11a997, type: 2}
    - target: {fileID: 919132149155446097, guid: 77d804f85e062e841a8b076c4fe51ac8,
        type: 3}
      propertyPath: m_Name
      value: SM_Chess_Pawn_Medium
      objectReference: {fileID: 0}
    m_RemovedComponents: []
  m_SourcePrefab: {fileID: 100100000, guid: 77d804f85e062e841a8b076c4fe51ac8, type: 3}
--- !u!1 &1943485198998403930 stripped
GameObject:
  m_CorrespondingSourceObject: {fileID: 919132149155446097, guid: 77d804f85e062e841a8b076c4fe51ac8,
    type: 3}
  m_PrefabInstance: {fileID: 1601536182494840331}
  m_PrefabAsset: {fileID: 0}
--- !u!4 &1275492661229724128 stripped
Transform:
  m_CorrespondingSourceObject: {fileID: -8679921383154817045, guid: 77d804f85e062e841a8b076c4fe51ac8,
    type: 3}
  m_PrefabInstance: {fileID: 1601536182494840331}
  m_PrefabAsset: {fileID: 0}
