%YAML 1.1
%TAG !u! tag:unity3d.com,2011:
--- !u!65 &8442528487523520682
BoxCollider:
  m_ObjectHideFlags: 0
  m_CorrespondingSourceObject: {fileID: 0}
  m_PrefabInstance: {fileID: 0}
  m_PrefabAsset: {fileID: 0}
  m_GameObject: {fileID: 4190999860110031131}
  m_Material: {fileID: 0}
  m_IsTrigger: 0
  m_Enabled: 1
  serializedVersion: 2
  m_Size: {x: 0.0555499, y: 0.0068027405, z: 0.026932498}
  m_Center: {x: 0, y: 0.003543287, z: 0}
--- !u!1 &6448092395573272354
GameObject:
  m_ObjectHideFlags: 0
  m_CorrespondingSourceObject: {fileID: 0}
  m_PrefabInstance: {fileID: 0}
  m_PrefabAsset: {fileID: 0}
  serializedVersion: 6
  m_Component:
  - component: {fileID: 4268247676354359580}
  m_Layer: 0
  m_Name: P_SM_Domino_Medium_2_4
  m_TagString: Untagged
  m_Icon: {fileID: 0}
  m_NavMeshLayer: 0
  m_StaticEditorFlags: 0
  m_IsActive: 1
--- !u!4 &4268247676354359580
Transform:
  m_ObjectHideFlags: 0
  m_CorrespondingSourceObject: {fileID: 0}
  m_PrefabInstance: {fileID: 0}
  m_PrefabAsset: {fileID: 0}
  m_GameObject: {fileID: 6448092395573272354}
  m_LocalRotation: {x: 0, y: 0, z: 0, w: 1}
  m_LocalPosition: {x: 0, y: 0, z: 0}
  m_LocalScale: {x: 1, y: 1, z: 1}
  m_Children:
  - {fileID: 3558613940917347233}
  m_Father: {fileID: 0}
  m_RootOrder: 0
  m_LocalEulerAnglesHint: {x: 0, y: 0, z: 0}
--- !u!1001 &3956418848770278474
PrefabInstance:
  m_ObjectHideFlags: 0
  serializedVersion: 2
  m_Modification:
    m_TransformParent: {fileID: 4268247676354359580}
    m_Modifications:
    - target: {fileID: -8679921383154817045, guid: 26231b5b22a4a574b8467248769cb1c2,
        type: 3}
      propertyPath: m_LocalPosition.x
      value: -0
      objectReference: {fileID: 0}
    - target: {fileID: -8679921383154817045, guid: 26231b5b22a4a574b8467248769cb1c2,
        type: 3}
      propertyPath: m_LocalPosition.y
      value: 0
      objectReference: {fileID: 0}
    - target: {fileID: -8679921383154817045, guid: 26231b5b22a4a574b8467248769cb1c2,
        type: 3}
      propertyPath: m_LocalPosition.z
      value: 0
      objectReference: {fileID: 0}
    - target: {fileID: -8679921383154817045, guid: 26231b5b22a4a574b8467248769cb1c2,
        type: 3}
      propertyPath: m_LocalRotation.x
      value: 0
      objectReference: {fileID: 0}
    - target: {fileID: -8679921383154817045, guid: 26231b5b22a4a574b8467248769cb1c2,
        type: 3}
      propertyPath: m_LocalRotation.y
      value: -0
      objectReference: {fileID: 0}
    - target: {fileID: -8679921383154817045, guid: 26231b5b22a4a574b8467248769cb1c2,
        type: 3}
      propertyPath: m_LocalRotation.z
      value: -0
      objectReference: {fileID: 0}
    - target: {fileID: -8679921383154817045, guid: 26231b5b22a4a574b8467248769cb1c2,
        type: 3}
      propertyPath: m_LocalRotation.w
      value: 1
      objectReference: {fileID: 0}
    - target: {fileID: -8679921383154817045, guid: 26231b5b22a4a574b8467248769cb1c2,
        type: 3}
      propertyPath: m_RootOrder
      value: 0
      objectReference: {fileID: 0}
    - target: {fileID: -8679921383154817045, guid: 26231b5b22a4a574b8467248769cb1c2,
        type: 3}
      propertyPath: m_LocalEulerAnglesHint.x
      value: 0
      objectReference: {fileID: 0}
    - target: {fileID: -8679921383154817045, guid: 26231b5b22a4a574b8467248769cb1c2,
        type: 3}
      propertyPath: m_LocalEulerAnglesHint.y
      value: 0
      objectReference: {fileID: 0}
    - target: {fileID: -8679921383154817045, guid: 26231b5b22a4a574b8467248769cb1c2,
        type: 3}
      propertyPath: m_LocalEulerAnglesHint.z
      value: 0
      objectReference: {fileID: 0}
    - target: {fileID: -7511558181221131132, guid: 26231b5b22a4a574b8467248769cb1c2,
        type: 3}
      propertyPath: m_Materials.Array.data[0]
      value: 
      objectReference: {fileID: 2100000, guid: 86f6b735c48db69459ecc18bcbd5eb08, type: 2}
    - target: {fileID: 919132149155446097, guid: 26231b5b22a4a574b8467248769cb1c2,
        type: 3}
      propertyPath: m_Name
      value: SM_Domino_Medium_2_4
      objectReference: {fileID: 0}
    m_RemovedComponents: []
  m_SourcePrefab: {fileID: 100100000, guid: 26231b5b22a4a574b8467248769cb1c2, type: 3}
--- !u!1 &4190999860110031131 stripped
GameObject:
  m_CorrespondingSourceObject: {fileID: 919132149155446097, guid: 26231b5b22a4a574b8467248769cb1c2,
    type: 3}
  m_PrefabInstance: {fileID: 3956418848770278474}
  m_PrefabAsset: {fileID: 0}
--- !u!4 &3558613940917347233 stripped
Transform:
  m_CorrespondingSourceObject: {fileID: -8679921383154817045, guid: 26231b5b22a4a574b8467248769cb1c2,
    type: 3}
  m_PrefabInstance: {fileID: 3956418848770278474}
  m_PrefabAsset: {fileID: 0}
