%YAML 1.1
%TAG !u! tag:unity3d.com,2011:
--- !u!1 &4095849286561298948
GameObject:
  m_ObjectHideFlags: 0
  m_CorrespondingSourceObject: {fileID: 0}
  m_PrefabInstance: {fileID: 0}
  m_PrefabAsset: {fileID: 0}
  serializedVersion: 6
  m_Component:
  - component: {fileID: 1956774909805544107}
  m_Layer: 0
  m_Name: P_SM_Checkerboard_Low
  m_TagString: Untagged
  m_Icon: {fileID: 0}
  m_NavMeshLayer: 0
  m_StaticEditorFlags: 0
  m_IsActive: 1
--- !u!4 &1956774909805544107
Transform:
  m_ObjectHideFlags: 0
  m_CorrespondingSourceObject: {fileID: 0}
  m_PrefabInstance: {fileID: 0}
  m_PrefabAsset: {fileID: 0}
  m_GameObject: {fileID: 4095849286561298948}
  m_LocalRotation: {x: 0, y: 0, z: 0, w: 1}
  m_LocalPosition: {x: 0, y: 0, z: 0}
  m_LocalScale: {x: 1, y: 1, z: 1}
  m_Children:
  - {fileID: 6275128135211098379}
  m_Father: {fileID: 0}
  m_RootOrder: 0
  m_LocalEulerAnglesHint: {x: 0, y: 0, z: 0}
--- !u!65 &5302242901219094224
BoxCollider:
  m_ObjectHideFlags: 0
  m_CorrespondingSourceObject: {fileID: 0}
  m_PrefabInstance: {fileID: 0}
  m_PrefabAsset: {fileID: 0}
  m_GameObject: {fileID: 6655875385699433393}
  m_Material: {fileID: 0}
  m_IsTrigger: 0
  m_Enabled: 1
  serializedVersion: 2
  m_Size: {x: 0.44410056, y: 0.0181, z: 0.44410056}
  m_Center: {x: 0, y: -0.00905, z: -0.000000014901161}
--- !u!1001 &5809365032654096096
PrefabInstance:
  m_ObjectHideFlags: 0
  serializedVersion: 2
  m_Modification:
    m_TransformParent: {fileID: 1956774909805544107}
    m_Modifications:
    - target: {fileID: -8679921383154817045, guid: 7440f3e01c72ebe42a9e68db30fab99b,
        type: 3}
      propertyPath: m_LocalPosition.x
      value: -0
      objectReference: {fileID: 0}
    - target: {fileID: -8679921383154817045, guid: 7440f3e01c72ebe42a9e68db30fab99b,
        type: 3}
      propertyPath: m_LocalPosition.y
      value: 0
      objectReference: {fileID: 0}
    - target: {fileID: -8679921383154817045, guid: 7440f3e01c72ebe42a9e68db30fab99b,
        type: 3}
      propertyPath: m_LocalPosition.z
      value: 0
      objectReference: {fileID: 0}
    - target: {fileID: -8679921383154817045, guid: 7440f3e01c72ebe42a9e68db30fab99b,
        type: 3}
      propertyPath: m_LocalRotation.x
      value: 0
      objectReference: {fileID: 0}
    - target: {fileID: -8679921383154817045, guid: 7440f3e01c72ebe42a9e68db30fab99b,
        type: 3}
      propertyPath: m_LocalRotation.y
      value: -0
      objectReference: {fileID: 0}
    - target: {fileID: -8679921383154817045, guid: 7440f3e01c72ebe42a9e68db30fab99b,
        type: 3}
      propertyPath: m_LocalRotation.z
      value: -0
      objectReference: {fileID: 0}
    - target: {fileID: -8679921383154817045, guid: 7440f3e01c72ebe42a9e68db30fab99b,
        type: 3}
      propertyPath: m_LocalRotation.w
      value: 1
      objectReference: {fileID: 0}
    - target: {fileID: -8679921383154817045, guid: 7440f3e01c72ebe42a9e68db30fab99b,
        type: 3}
      propertyPath: m_RootOrder
      value: 0
      objectReference: {fileID: 0}
    - target: {fileID: -8679921383154817045, guid: 7440f3e01c72ebe42a9e68db30fab99b,
        type: 3}
      propertyPath: m_LocalEulerAnglesHint.x
      value: 0
      objectReference: {fileID: 0}
    - target: {fileID: -8679921383154817045, guid: 7440f3e01c72ebe42a9e68db30fab99b,
        type: 3}
      propertyPath: m_LocalEulerAnglesHint.y
      value: 0
      objectReference: {fileID: 0}
    - target: {fileID: -8679921383154817045, guid: 7440f3e01c72ebe42a9e68db30fab99b,
        type: 3}
      propertyPath: m_LocalEulerAnglesHint.z
      value: 0
      objectReference: {fileID: 0}
    - target: {fileID: -7511558181221131132, guid: 7440f3e01c72ebe42a9e68db30fab99b,
        type: 3}
      propertyPath: m_Materials.Array.data[1]
      value: 
      objectReference: {fileID: 2100000, guid: f07a2efd13200094bb1529d7ff11a997, type: 2}
    - target: {fileID: -7511558181221131132, guid: 7440f3e01c72ebe42a9e68db30fab99b,
        type: 3}
      propertyPath: m_Materials.Array.data[2]
      value: 
      objectReference: {fileID: 2100000, guid: a387f2b29be36e046ac440ab15d01e10, type: 2}
    - target: {fileID: -7511558181221131132, guid: 7440f3e01c72ebe42a9e68db30fab99b,
        type: 3}
      propertyPath: m_Materials.Array.data[0]
      value: 
      objectReference: {fileID: 2100000, guid: 298ecb35c1085484aa443f350922fcfe, type: 2}
    - target: {fileID: -7511558181221131132, guid: 7440f3e01c72ebe42a9e68db30fab99b,
        type: 3}
      propertyPath: m_Materials.Array.data[3]
      value: 
      objectReference: {fileID: 2100000, guid: ef4ca218143bb2e4f8e2fe92786d49b7, type: 2}
    - target: {fileID: 919132149155446097, guid: 7440f3e01c72ebe42a9e68db30fab99b,
        type: 3}
      propertyPath: m_Name
      value: SM_Chekerboard_Low
      objectReference: {fileID: 0}
    m_RemovedComponents: []
  m_SourcePrefab: {fileID: 100100000, guid: 7440f3e01c72ebe42a9e68db30fab99b, type: 3}
--- !u!1 &6655875385699433393 stripped
GameObject:
  m_CorrespondingSourceObject: {fileID: 919132149155446097, guid: 7440f3e01c72ebe42a9e68db30fab99b,
    type: 3}
  m_PrefabInstance: {fileID: 5809365032654096096}
  m_PrefabAsset: {fileID: 0}
--- !u!4 &6275128135211098379 stripped
Transform:
  m_CorrespondingSourceObject: {fileID: -8679921383154817045, guid: 7440f3e01c72ebe42a9e68db30fab99b,
    type: 3}
  m_PrefabInstance: {fileID: 5809365032654096096}
  m_PrefabAsset: {fileID: 0}
