%YAML 1.1
%TAG !u! tag:unity3d.com,2011:
--- !u!1 &1961256911531466009
GameObject:
  m_ObjectHideFlags: 0
  m_CorrespondingSourceObject: {fileID: 0}
  m_PrefabInstance: {fileID: 0}
  m_PrefabAsset: {fileID: 0}
  serializedVersion: 6
  m_Component:
  - component: {fileID: 5427374335532530541}
  m_Layer: 0
  m_Name: P_SM_Cup_Dice_High
  m_TagString: Untagged
  m_Icon: {fileID: 0}
  m_NavMeshLayer: 0
  m_StaticEditorFlags: 0
  m_IsActive: 1
--- !u!4 &5427374335532530541
Transform:
  m_ObjectHideFlags: 0
  m_CorrespondingSourceObject: {fileID: 0}
  m_PrefabInstance: {fileID: 0}
  m_PrefabAsset: {fileID: 0}
  m_GameObject: {fileID: 1961256911531466009}
  m_LocalRotation: {x: 0, y: 0, z: 0, w: 1}
  m_LocalPosition: {x: 0, y: 0, z: 0}
  m_LocalScale: {x: 1, y: 1, z: 1}
  m_Children:
  - {fileID: 7781364533900779335}
  m_Father: {fileID: 0}
  m_RootOrder: 0
  m_LocalEulerAnglesHint: {x: 0, y: 0, z: 0}
--- !u!65 &2717009063526275916
BoxCollider:
  m_ObjectHideFlags: 0
  m_CorrespondingSourceObject: {fileID: 0}
  m_PrefabInstance: {fileID: 0}
  m_PrefabAsset: {fileID: 0}
  m_GameObject: {fileID: 6969080164836361725}
  m_Material: {fileID: 0}
  m_IsTrigger: 0
  m_Enabled: 1
  serializedVersion: 2
  m_Size: {x: 0.09631702, y: 0.13912891, z: 0.09631702}
  m_Center: {x: 0, y: 0, z: 0}
--- !u!1001 &7815518511681763500
PrefabInstance:
  m_ObjectHideFlags: 0
  serializedVersion: 2
  m_Modification:
    m_TransformParent: {fileID: 5427374335532530541}
    m_Modifications:
    - target: {fileID: -8679921383154817045, guid: 836d49d1f8d70c64dbd6ef585480fa68,
        type: 3}
      propertyPath: m_LocalPosition.x
      value: -0
      objectReference: {fileID: 0}
    - target: {fileID: -8679921383154817045, guid: 836d49d1f8d70c64dbd6ef585480fa68,
        type: 3}
      propertyPath: m_LocalPosition.y
      value: 0
      objectReference: {fileID: 0}
    - target: {fileID: -8679921383154817045, guid: 836d49d1f8d70c64dbd6ef585480fa68,
        type: 3}
      propertyPath: m_LocalPosition.z
      value: 0
      objectReference: {fileID: 0}
    - target: {fileID: -8679921383154817045, guid: 836d49d1f8d70c64dbd6ef585480fa68,
        type: 3}
      propertyPath: m_LocalRotation.x
      value: 0
      objectReference: {fileID: 0}
    - target: {fileID: -8679921383154817045, guid: 836d49d1f8d70c64dbd6ef585480fa68,
        type: 3}
      propertyPath: m_LocalRotation.y
      value: -0
      objectReference: {fileID: 0}
    - target: {fileID: -8679921383154817045, guid: 836d49d1f8d70c64dbd6ef585480fa68,
        type: 3}
      propertyPath: m_LocalRotation.z
      value: -0
      objectReference: {fileID: 0}
    - target: {fileID: -8679921383154817045, guid: 836d49d1f8d70c64dbd6ef585480fa68,
        type: 3}
      propertyPath: m_LocalRotation.w
      value: 1
      objectReference: {fileID: 0}
    - target: {fileID: -8679921383154817045, guid: 836d49d1f8d70c64dbd6ef585480fa68,
        type: 3}
      propertyPath: m_RootOrder
      value: 0
      objectReference: {fileID: 0}
    - target: {fileID: -8679921383154817045, guid: 836d49d1f8d70c64dbd6ef585480fa68,
        type: 3}
      propertyPath: m_LocalEulerAnglesHint.x
      value: 0
      objectReference: {fileID: 0}
    - target: {fileID: -8679921383154817045, guid: 836d49d1f8d70c64dbd6ef585480fa68,
        type: 3}
      propertyPath: m_LocalEulerAnglesHint.y
      value: 0
      objectReference: {fileID: 0}
    - target: {fileID: -8679921383154817045, guid: 836d49d1f8d70c64dbd6ef585480fa68,
        type: 3}
      propertyPath: m_LocalEulerAnglesHint.z
      value: 0
      objectReference: {fileID: 0}
    - target: {fileID: -7511558181221131132, guid: 836d49d1f8d70c64dbd6ef585480fa68,
        type: 3}
      propertyPath: m_Materials.Array.data[0]
      value: 
      objectReference: {fileID: 2100000, guid: f07a2efd13200094bb1529d7ff11a997, type: 2}
    - target: {fileID: 919132149155446097, guid: 836d49d1f8d70c64dbd6ef585480fa68,
        type: 3}
      propertyPath: m_Name
      value: SM_Cup_Dice_High
      objectReference: {fileID: 0}
    m_RemovedComponents: []
  m_SourcePrefab: {fileID: 100100000, guid: 836d49d1f8d70c64dbd6ef585480fa68, type: 3}
--- !u!1 &6969080164836361725 stripped
GameObject:
  m_CorrespondingSourceObject: {fileID: 919132149155446097, guid: 836d49d1f8d70c64dbd6ef585480fa68,
    type: 3}
  m_PrefabInstance: {fileID: 7815518511681763500}
  m_PrefabAsset: {fileID: 0}
--- !u!4 &7781364533900779335 stripped
Transform:
  m_CorrespondingSourceObject: {fileID: -8679921383154817045, guid: 836d49d1f8d70c64dbd6ef585480fa68,
    type: 3}
  m_PrefabInstance: {fileID: 7815518511681763500}
  m_PrefabAsset: {fileID: 0}
