%YAML 1.1
%TAG !u! tag:unity3d.com,2011:
--- !u!65 &20164984730633908
BoxCollider:
  m_ObjectHideFlags: 0
  m_CorrespondingSourceObject: {fileID: 0}
  m_PrefabInstance: {fileID: 0}
  m_PrefabAsset: {fileID: 0}
  m_GameObject: {fileID: 5023949895741988769}
  m_Material: {fileID: 0}
  m_IsTrigger: 0
  m_Enabled: 1
  serializedVersion: 2
  m_Size: {x: 0.049999997, y: 0.00005, z: 0.089999996}
  m_Center: {x: 0, y: -0.000025, z: 0}
--- !u!1 &6352404320508058611
GameObject:
  m_ObjectHideFlags: 0
  m_CorrespondingSourceObject: {fileID: 0}
  m_PrefabInstance: {fileID: 0}
  m_PrefabAsset: {fileID: 0}
  serializedVersion: 6
  m_Component:
  - component: {fileID: 3928329520205749152}
  m_Layer: 0
  m_Name: P_SM_Money_5
  m_TagString: Untagged
  m_Icon: {fileID: 0}
  m_NavMeshLayer: 0
  m_StaticEditorFlags: 0
  m_IsActive: 1
--- !u!4 &3928329520205749152
Transform:
  m_ObjectHideFlags: 0
  m_CorrespondingSourceObject: {fileID: 0}
  m_PrefabInstance: {fileID: 0}
  m_PrefabAsset: {fileID: 0}
  m_GameObject: {fileID: 6352404320508058611}
  m_LocalRotation: {x: 0, y: 0, z: 0, w: 1}
  m_LocalPosition: {x: 0, y: 0, z: 0}
  m_LocalScale: {x: 1, y: 1, z: 1}
  m_Children:
  - {fileID: 5689022023326467355}
  m_Father: {fileID: 0}
  m_RootOrder: 0
  m_LocalEulerAnglesHint: {x: 0, y: 0, z: 0}
--- !u!1001 &5294489465413362416
PrefabInstance:
  m_ObjectHideFlags: 0
  serializedVersion: 2
  m_Modification:
    m_TransformParent: {fileID: 3928329520205749152}
    m_Modifications:
    - target: {fileID: -8679921383154817045, guid: 9ccbaa6188ed0794dbce2d537c2074d6,
        type: 3}
      propertyPath: m_LocalPosition.x
      value: -0
      objectReference: {fileID: 0}
    - target: {fileID: -8679921383154817045, guid: 9ccbaa6188ed0794dbce2d537c2074d6,
        type: 3}
      propertyPath: m_LocalPosition.y
      value: 0
      objectReference: {fileID: 0}
    - target: {fileID: -8679921383154817045, guid: 9ccbaa6188ed0794dbce2d537c2074d6,
        type: 3}
      propertyPath: m_LocalPosition.z
      value: 0
      objectReference: {fileID: 0}
    - target: {fileID: -8679921383154817045, guid: 9ccbaa6188ed0794dbce2d537c2074d6,
        type: 3}
      propertyPath: m_LocalRotation.x
      value: 0
      objectReference: {fileID: 0}
    - target: {fileID: -8679921383154817045, guid: 9ccbaa6188ed0794dbce2d537c2074d6,
        type: 3}
      propertyPath: m_LocalRotation.y
      value: -0
      objectReference: {fileID: 0}
    - target: {fileID: -8679921383154817045, guid: 9ccbaa6188ed0794dbce2d537c2074d6,
        type: 3}
      propertyPath: m_LocalRotation.z
      value: -0
      objectReference: {fileID: 0}
    - target: {fileID: -8679921383154817045, guid: 9ccbaa6188ed0794dbce2d537c2074d6,
        type: 3}
      propertyPath: m_LocalRotation.w
      value: 1
      objectReference: {fileID: 0}
    - target: {fileID: -8679921383154817045, guid: 9ccbaa6188ed0794dbce2d537c2074d6,
        type: 3}
      propertyPath: m_RootOrder
      value: 0
      objectReference: {fileID: 0}
    - target: {fileID: -8679921383154817045, guid: 9ccbaa6188ed0794dbce2d537c2074d6,
        type: 3}
      propertyPath: m_LocalEulerAnglesHint.x
      value: 0
      objectReference: {fileID: 0}
    - target: {fileID: -8679921383154817045, guid: 9ccbaa6188ed0794dbce2d537c2074d6,
        type: 3}
      propertyPath: m_LocalEulerAnglesHint.y
      value: 0
      objectReference: {fileID: 0}
    - target: {fileID: -8679921383154817045, guid: 9ccbaa6188ed0794dbce2d537c2074d6,
        type: 3}
      propertyPath: m_LocalEulerAnglesHint.z
      value: 0
      objectReference: {fileID: 0}
    - target: {fileID: -7511558181221131132, guid: 9ccbaa6188ed0794dbce2d537c2074d6,
        type: 3}
      propertyPath: m_Materials.Array.data[0]
      value: 
      objectReference: {fileID: 2100000, guid: 0694f61e324d25d4c95d37d995db8b32, type: 2}
    - target: {fileID: 919132149155446097, guid: 9ccbaa6188ed0794dbce2d537c2074d6,
        type: 3}
      propertyPath: m_Name
      value: SM_Money_5
      objectReference: {fileID: 0}
    m_RemovedComponents: []
  m_SourcePrefab: {fileID: 100100000, guid: 9ccbaa6188ed0794dbce2d537c2074d6, type: 3}
--- !u!1 &5023949895741988769 stripped
GameObject:
  m_CorrespondingSourceObject: {fileID: 919132149155446097, guid: 9ccbaa6188ed0794dbce2d537c2074d6,
    type: 3}
  m_PrefabInstance: {fileID: 5294489465413362416}
  m_PrefabAsset: {fileID: 0}
--- !u!4 &5689022023326467355 stripped
Transform:
  m_CorrespondingSourceObject: {fileID: -8679921383154817045, guid: 9ccbaa6188ed0794dbce2d537c2074d6,
    type: 3}
  m_PrefabInstance: {fileID: 5294489465413362416}
  m_PrefabAsset: {fileID: 0}
