%YAML 1.1
%TAG !u! tag:unity3d.com,2011:
--- !u!1 &1666465385761768321
GameObject:
  m_ObjectHideFlags: 0
  m_CorrespondingSourceObject: {fileID: 0}
  m_PrefabInstance: {fileID: 0}
  m_PrefabAsset: {fileID: 0}
  serializedVersion: 6
  m_Component:
  - component: {fileID: 3475974664412659019}
  m_Layer: 0
  m_Name: P_SM_Pawn_Train_Medium
  m_TagString: Untagged
  m_Icon: {fileID: 0}
  m_NavMeshLayer: 0
  m_StaticEditorFlags: 0
  m_IsActive: 1
--- !u!4 &3475974664412659019
Transform:
  m_ObjectHideFlags: 0
  m_CorrespondingSourceObject: {fileID: 0}
  m_PrefabInstance: {fileID: 0}
  m_PrefabAsset: {fileID: 0}
  m_GameObject: {fileID: 1666465385761768321}
  m_LocalRotation: {x: 0, y: 0, z: 0, w: 1}
  m_LocalPosition: {x: 0, y: 0, z: 0}
  m_LocalScale: {x: 1, y: 1, z: 1}
  m_Children:
  - {fileID: 4280587876394460957}
  m_Father: {fileID: 0}
  m_RootOrder: 0
  m_LocalEulerAnglesHint: {x: 0, y: 0, z: 0}
--- !u!65 &1305199209250965838
BoxCollider:
  m_ObjectHideFlags: 0
  m_CorrespondingSourceObject: {fileID: 0}
  m_PrefabInstance: {fileID: 0}
  m_PrefabAsset: {fileID: 0}
  m_GameObject: {fileID: 3471258620407430567}
  m_Material: {fileID: 0}
  m_IsTrigger: 0
  m_Enabled: 1
  serializedVersion: 2
  m_Size: {x: 0.018481137, y: 0.029667206, z: 0.043288577}
  m_Center: {x: 0, y: 0.015006382, z: 0}
--- !u!1001 &4390176769595441398
PrefabInstance:
  m_ObjectHideFlags: 0
  serializedVersion: 2
  m_Modification:
    m_TransformParent: {fileID: 3475974664412659019}
    m_Modifications:
    - target: {fileID: -8679921383154817045, guid: c8596149469a5d745a15e90dab5ae476,
        type: 3}
      propertyPath: m_LocalPosition.x
      value: -0
      objectReference: {fileID: 0}
    - target: {fileID: -8679921383154817045, guid: c8596149469a5d745a15e90dab5ae476,
        type: 3}
      propertyPath: m_LocalPosition.y
      value: 0
      objectReference: {fileID: 0}
    - target: {fileID: -8679921383154817045, guid: c8596149469a5d745a15e90dab5ae476,
        type: 3}
      propertyPath: m_LocalPosition.z
      value: 0
      objectReference: {fileID: 0}
    - target: {fileID: -8679921383154817045, guid: c8596149469a5d745a15e90dab5ae476,
        type: 3}
      propertyPath: m_LocalRotation.x
      value: 0
      objectReference: {fileID: 0}
    - target: {fileID: -8679921383154817045, guid: c8596149469a5d745a15e90dab5ae476,
        type: 3}
      propertyPath: m_LocalRotation.y
      value: -0
      objectReference: {fileID: 0}
    - target: {fileID: -8679921383154817045, guid: c8596149469a5d745a15e90dab5ae476,
        type: 3}
      propertyPath: m_LocalRotation.z
      value: -0
      objectReference: {fileID: 0}
    - target: {fileID: -8679921383154817045, guid: c8596149469a5d745a15e90dab5ae476,
        type: 3}
      propertyPath: m_LocalRotation.w
      value: 1
      objectReference: {fileID: 0}
    - target: {fileID: -8679921383154817045, guid: c8596149469a5d745a15e90dab5ae476,
        type: 3}
      propertyPath: m_RootOrder
      value: 0
      objectReference: {fileID: 0}
    - target: {fileID: -8679921383154817045, guid: c8596149469a5d745a15e90dab5ae476,
        type: 3}
      propertyPath: m_LocalEulerAnglesHint.x
      value: 0
      objectReference: {fileID: 0}
    - target: {fileID: -8679921383154817045, guid: c8596149469a5d745a15e90dab5ae476,
        type: 3}
      propertyPath: m_LocalEulerAnglesHint.y
      value: 0
      objectReference: {fileID: 0}
    - target: {fileID: -8679921383154817045, guid: c8596149469a5d745a15e90dab5ae476,
        type: 3}
      propertyPath: m_LocalEulerAnglesHint.z
      value: 0
      objectReference: {fileID: 0}
    - target: {fileID: -7511558181221131132, guid: c8596149469a5d745a15e90dab5ae476,
        type: 3}
      propertyPath: m_Materials.Array.data[0]
      value: 
      objectReference: {fileID: 2100000, guid: c62bd21bfb1bbbe4996700040d37d223, type: 2}
    - target: {fileID: 919132149155446097, guid: c8596149469a5d745a15e90dab5ae476,
        type: 3}
      propertyPath: m_Name
      value: SM_Pawn_Train_Medium
      objectReference: {fileID: 0}
    m_RemovedComponents: []
  m_SourcePrefab: {fileID: 100100000, guid: c8596149469a5d745a15e90dab5ae476, type: 3}
--- !u!1 &3471258620407430567 stripped
GameObject:
  m_CorrespondingSourceObject: {fileID: 919132149155446097, guid: c8596149469a5d745a15e90dab5ae476,
    type: 3}
  m_PrefabInstance: {fileID: 4390176769595441398}
  m_PrefabAsset: {fileID: 0}
--- !u!4 &4280587876394460957 stripped
Transform:
  m_CorrespondingSourceObject: {fileID: -8679921383154817045, guid: c8596149469a5d745a15e90dab5ae476,
    type: 3}
  m_PrefabInstance: {fileID: 4390176769595441398}
  m_PrefabAsset: {fileID: 0}
