%YAML 1.1
%TAG !u! tag:unity3d.com,2011:
--- !u!65 &5623319687385317545
BoxCollider:
  m_ObjectHideFlags: 0
  m_CorrespondingSourceObject: {fileID: 0}
  m_PrefabInstance: {fileID: 0}
  m_PrefabAsset: {fileID: 0}
  m_GameObject: {fileID: 2063485108447864480}
  m_Material: {fileID: 0}
  m_IsTrigger: 0
  m_Enabled: 1
  serializedVersion: 2
  m_Size: {x: 0.019833224, y: 0.025352996, z: 0.04695385}
  m_Center: {x: -0.00021660142, y: 0.012939071, z: 0.0018861452}
--- !u!1 &5649484979398638209
GameObject:
  m_ObjectHideFlags: 0
  m_CorrespondingSourceObject: {fileID: 0}
  m_PrefabInstance: {fileID: 0}
  m_PrefabAsset: {fileID: 0}
  serializedVersion: 6
  m_Component:
  - component: {fileID: 2022717368498517914}
  m_Layer: 0
  m_Name: P_SM_Pawn_Cannon_Low
  m_TagString: Untagged
  m_Icon: {fileID: 0}
  m_NavMeshLayer: 0
  m_StaticEditorFlags: 0
  m_IsActive: 1
--- !u!4 &2022717368498517914
Transform:
  m_ObjectHideFlags: 0
  m_CorrespondingSourceObject: {fileID: 0}
  m_PrefabInstance: {fileID: 0}
  m_PrefabAsset: {fileID: 0}
  m_GameObject: {fileID: 5649484979398638209}
  m_LocalRotation: {x: 0, y: 0, z: 0, w: 1}
  m_LocalPosition: {x: 0, y: 0, z: 0}
  m_LocalScale: {x: 1, y: 1, z: 1}
  m_Children:
  - {fileID: 1722952765541956634}
  m_Father: {fileID: 0}
  m_RootOrder: 0
  m_LocalEulerAnglesHint: {x: 0, y: 0, z: 0}
--- !u!1001 &1180947042862291953
PrefabInstance:
  m_ObjectHideFlags: 0
  serializedVersion: 2
  m_Modification:
    m_TransformParent: {fileID: 2022717368498517914}
    m_Modifications:
    - target: {fileID: -8679921383154817045, guid: 5b38af096889adb44bfcd5b099b93c86,
        type: 3}
      propertyPath: m_LocalPosition.x
      value: -0
      objectReference: {fileID: 0}
    - target: {fileID: -8679921383154817045, guid: 5b38af096889adb44bfcd5b099b93c86,
        type: 3}
      propertyPath: m_LocalPosition.y
      value: 0
      objectReference: {fileID: 0}
    - target: {fileID: -8679921383154817045, guid: 5b38af096889adb44bfcd5b099b93c86,
        type: 3}
      propertyPath: m_LocalPosition.z
      value: 0
      objectReference: {fileID: 0}
    - target: {fileID: -8679921383154817045, guid: 5b38af096889adb44bfcd5b099b93c86,
        type: 3}
      propertyPath: m_LocalRotation.x
      value: 0
      objectReference: {fileID: 0}
    - target: {fileID: -8679921383154817045, guid: 5b38af096889adb44bfcd5b099b93c86,
        type: 3}
      propertyPath: m_LocalRotation.y
      value: -0
      objectReference: {fileID: 0}
    - target: {fileID: -8679921383154817045, guid: 5b38af096889adb44bfcd5b099b93c86,
        type: 3}
      propertyPath: m_LocalRotation.z
      value: -0
      objectReference: {fileID: 0}
    - target: {fileID: -8679921383154817045, guid: 5b38af096889adb44bfcd5b099b93c86,
        type: 3}
      propertyPath: m_LocalRotation.w
      value: 1
      objectReference: {fileID: 0}
    - target: {fileID: -8679921383154817045, guid: 5b38af096889adb44bfcd5b099b93c86,
        type: 3}
      propertyPath: m_RootOrder
      value: 0
      objectReference: {fileID: 0}
    - target: {fileID: -8679921383154817045, guid: 5b38af096889adb44bfcd5b099b93c86,
        type: 3}
      propertyPath: m_LocalEulerAnglesHint.x
      value: 0
      objectReference: {fileID: 0}
    - target: {fileID: -8679921383154817045, guid: 5b38af096889adb44bfcd5b099b93c86,
        type: 3}
      propertyPath: m_LocalEulerAnglesHint.y
      value: 0
      objectReference: {fileID: 0}
    - target: {fileID: -8679921383154817045, guid: 5b38af096889adb44bfcd5b099b93c86,
        type: 3}
      propertyPath: m_LocalEulerAnglesHint.z
      value: 0
      objectReference: {fileID: 0}
    - target: {fileID: -7511558181221131132, guid: 5b38af096889adb44bfcd5b099b93c86,
        type: 3}
      propertyPath: m_Materials.Array.data[0]
      value: 
      objectReference: {fileID: 2100000, guid: c62bd21bfb1bbbe4996700040d37d223, type: 2}
    - target: {fileID: 919132149155446097, guid: 5b38af096889adb44bfcd5b099b93c86,
        type: 3}
      propertyPath: m_Name
      value: SM_Pawn_Cannon_Low
      objectReference: {fileID: 0}
    m_RemovedComponents: []
  m_SourcePrefab: {fileID: 100100000, guid: 5b38af096889adb44bfcd5b099b93c86, type: 3}
--- !u!1 &2063485108447864480 stripped
GameObject:
  m_CorrespondingSourceObject: {fileID: 919132149155446097, guid: 5b38af096889adb44bfcd5b099b93c86,
    type: 3}
  m_PrefabInstance: {fileID: 1180947042862291953}
  m_PrefabAsset: {fileID: 0}
--- !u!4 &1722952765541956634 stripped
Transform:
  m_CorrespondingSourceObject: {fileID: -8679921383154817045, guid: 5b38af096889adb44bfcd5b099b93c86,
    type: 3}
  m_PrefabInstance: {fileID: 1180947042862291953}
  m_PrefabAsset: {fileID: 0}
