%YAML 1.1
%TAG !u! tag:unity3d.com,2011:
--- !u!1 &2835004723548119417
GameObject:
  m_ObjectHideFlags: 0
  m_CorrespondingSourceObject: {fileID: 0}
  m_PrefabInstance: {fileID: 0}
  m_PrefabAsset: {fileID: 0}
  serializedVersion: 6
  m_Component:
  - component: {fileID: 6852747754792318653}
  m_Layer: 0
  m_Name: P_SM_Pawn_Tank_Low
  m_TagString: Untagged
  m_Icon: {fileID: 0}
  m_NavMeshLayer: 0
  m_StaticEditorFlags: 0
  m_IsActive: 1
--- !u!4 &6852747754792318653
Transform:
  m_ObjectHideFlags: 0
  m_CorrespondingSourceObject: {fileID: 0}
  m_PrefabInstance: {fileID: 0}
  m_PrefabAsset: {fileID: 0}
  m_GameObject: {fileID: 2835004723548119417}
  m_LocalRotation: {x: 0, y: 0, z: 0, w: 1}
  m_LocalPosition: {x: 0, y: 0, z: 0}
  m_LocalScale: {x: 1, y: 1, z: 1}
  m_Children:
  - {fileID: 4816774561741227738}
  m_Father: {fileID: 0}
  m_RootOrder: 0
  m_LocalEulerAnglesHint: {x: 0, y: 0, z: 0}
--- !u!65 &9111746135436454769
BoxCollider:
  m_ObjectHideFlags: 0
  m_CorrespondingSourceObject: {fileID: 0}
  m_PrefabInstance: {fileID: 0}
  m_PrefabAsset: {fileID: 0}
  m_GameObject: {fileID: 5301667347969940576}
  m_Material: {fileID: 0}
  m_IsTrigger: 0
  m_Enabled: 1
  serializedVersion: 2
  m_Size: {x: 0.02167723, y: 0.0191345, z: 0.048709583}
  m_Center: {x: 0, y: 0.00932893, z: -0.0029565617}
--- !u!1001 &4995098423066894641
PrefabInstance:
  m_ObjectHideFlags: 0
  serializedVersion: 2
  m_Modification:
    m_TransformParent: {fileID: 6852747754792318653}
    m_Modifications:
    - target: {fileID: -8679921383154817045, guid: 4729b57c2b0d40f4f9423bccd719b82b,
        type: 3}
      propertyPath: m_LocalPosition.x
      value: -0
      objectReference: {fileID: 0}
    - target: {fileID: -8679921383154817045, guid: 4729b57c2b0d40f4f9423bccd719b82b,
        type: 3}
      propertyPath: m_LocalPosition.y
      value: 0
      objectReference: {fileID: 0}
    - target: {fileID: -8679921383154817045, guid: 4729b57c2b0d40f4f9423bccd719b82b,
        type: 3}
      propertyPath: m_LocalPosition.z
      value: 0
      objectReference: {fileID: 0}
    - target: {fileID: -8679921383154817045, guid: 4729b57c2b0d40f4f9423bccd719b82b,
        type: 3}
      propertyPath: m_LocalRotation.x
      value: 0
      objectReference: {fileID: 0}
    - target: {fileID: -8679921383154817045, guid: 4729b57c2b0d40f4f9423bccd719b82b,
        type: 3}
      propertyPath: m_LocalRotation.y
      value: -0
      objectReference: {fileID: 0}
    - target: {fileID: -8679921383154817045, guid: 4729b57c2b0d40f4f9423bccd719b82b,
        type: 3}
      propertyPath: m_LocalRotation.z
      value: -0
      objectReference: {fileID: 0}
    - target: {fileID: -8679921383154817045, guid: 4729b57c2b0d40f4f9423bccd719b82b,
        type: 3}
      propertyPath: m_LocalRotation.w
      value: 1
      objectReference: {fileID: 0}
    - target: {fileID: -8679921383154817045, guid: 4729b57c2b0d40f4f9423bccd719b82b,
        type: 3}
      propertyPath: m_RootOrder
      value: 0
      objectReference: {fileID: 0}
    - target: {fileID: -8679921383154817045, guid: 4729b57c2b0d40f4f9423bccd719b82b,
        type: 3}
      propertyPath: m_LocalEulerAnglesHint.x
      value: 0
      objectReference: {fileID: 0}
    - target: {fileID: -8679921383154817045, guid: 4729b57c2b0d40f4f9423bccd719b82b,
        type: 3}
      propertyPath: m_LocalEulerAnglesHint.y
      value: 0
      objectReference: {fileID: 0}
    - target: {fileID: -8679921383154817045, guid: 4729b57c2b0d40f4f9423bccd719b82b,
        type: 3}
      propertyPath: m_LocalEulerAnglesHint.z
      value: 0
      objectReference: {fileID: 0}
    - target: {fileID: -7511558181221131132, guid: 4729b57c2b0d40f4f9423bccd719b82b,
        type: 3}
      propertyPath: m_Materials.Array.data[0]
      value: 
      objectReference: {fileID: 2100000, guid: c62bd21bfb1bbbe4996700040d37d223, type: 2}
    - target: {fileID: 919132149155446097, guid: 4729b57c2b0d40f4f9423bccd719b82b,
        type: 3}
      propertyPath: m_Name
      value: SM_Pawn_Tank_Low
      objectReference: {fileID: 0}
    m_RemovedComponents: []
  m_SourcePrefab: {fileID: 100100000, guid: 4729b57c2b0d40f4f9423bccd719b82b, type: 3}
--- !u!1 &5301667347969940576 stripped
GameObject:
  m_CorrespondingSourceObject: {fileID: 919132149155446097, guid: 4729b57c2b0d40f4f9423bccd719b82b,
    type: 3}
  m_PrefabInstance: {fileID: 4995098423066894641}
  m_PrefabAsset: {fileID: 0}
--- !u!4 &4816774561741227738 stripped
Transform:
  m_CorrespondingSourceObject: {fileID: -8679921383154817045, guid: 4729b57c2b0d40f4f9423bccd719b82b,
    type: 3}
  m_PrefabInstance: {fileID: 4995098423066894641}
  m_PrefabAsset: {fileID: 0}
