%YAML 1.1
%TAG !u! tag:unity3d.com,2011:
--- !u!65 &3164821269826830363
BoxCollider:
  m_ObjectHideFlags: 0
  m_CorrespondingSourceObject: {fileID: 0}
  m_PrefabInstance: {fileID: 0}
  m_PrefabAsset: {fileID: 0}
  m_GameObject: {fileID: 2462127570960576261}
  m_Material: {fileID: 0}
  m_IsTrigger: 0
  m_Enabled: 1
  serializedVersion: 2
  m_Size: {x: 0.020087346, y: 0.038518757, z: 0.020087346}
  m_Center: {x: 9.313226e-10, y: 0.018574193, z: 0}
--- !u!1 &3962776039140544270
GameObject:
  m_ObjectHideFlags: 0
  m_CorrespondingSourceObject: {fileID: 0}
  m_PrefabInstance: {fileID: 0}
  m_PrefabAsset: {fileID: 0}
  serializedVersion: 6
  m_Component:
  - component: {fileID: 2729653111202416784}
  m_Layer: 0
  m_Name: P_SM_Pawn_Basic_Low
  m_TagString: Untagged
  m_Icon: {fileID: 0}
  m_NavMeshLayer: 0
  m_StaticEditorFlags: 0
  m_IsActive: 1
--- !u!4 &2729653111202416784
Transform:
  m_ObjectHideFlags: 0
  m_CorrespondingSourceObject: {fileID: 0}
  m_PrefabInstance: {fileID: 0}
  m_PrefabAsset: {fileID: 0}
  m_GameObject: {fileID: 3962776039140544270}
  m_LocalRotation: {x: 0, y: 0, z: 0, w: 1}
  m_LocalPosition: {x: 0, y: 0, z: 0}
  m_LocalScale: {x: 1, y: 1, z: 1}
  m_Children:
  - {fileID: 2981641714369607103}
  m_Father: {fileID: 0}
  m_RootOrder: 0
  m_LocalEulerAnglesHint: {x: 0, y: 0, z: 0}
--- !u!1001 &3380604814911197780
PrefabInstance:
  m_ObjectHideFlags: 0
  serializedVersion: 2
  m_Modification:
    m_TransformParent: {fileID: 2729653111202416784}
    m_Modifications:
    - target: {fileID: -8679921383154817045, guid: d46bfb3893e03284eb12809d349c10d2,
        type: 3}
      propertyPath: m_LocalPosition.x
      value: -0
      objectReference: {fileID: 0}
    - target: {fileID: -8679921383154817045, guid: d46bfb3893e03284eb12809d349c10d2,
        type: 3}
      propertyPath: m_LocalPosition.y
      value: 0
      objectReference: {fileID: 0}
    - target: {fileID: -8679921383154817045, guid: d46bfb3893e03284eb12809d349c10d2,
        type: 3}
      propertyPath: m_LocalPosition.z
      value: 0
      objectReference: {fileID: 0}
    - target: {fileID: -8679921383154817045, guid: d46bfb3893e03284eb12809d349c10d2,
        type: 3}
      propertyPath: m_LocalRotation.x
      value: 0
      objectReference: {fileID: 0}
    - target: {fileID: -8679921383154817045, guid: d46bfb3893e03284eb12809d349c10d2,
        type: 3}
      propertyPath: m_LocalRotation.y
      value: -0
      objectReference: {fileID: 0}
    - target: {fileID: -8679921383154817045, guid: d46bfb3893e03284eb12809d349c10d2,
        type: 3}
      propertyPath: m_LocalRotation.z
      value: -0
      objectReference: {fileID: 0}
    - target: {fileID: -8679921383154817045, guid: d46bfb3893e03284eb12809d349c10d2,
        type: 3}
      propertyPath: m_LocalRotation.w
      value: 1
      objectReference: {fileID: 0}
    - target: {fileID: -8679921383154817045, guid: d46bfb3893e03284eb12809d349c10d2,
        type: 3}
      propertyPath: m_RootOrder
      value: 0
      objectReference: {fileID: 0}
    - target: {fileID: -8679921383154817045, guid: d46bfb3893e03284eb12809d349c10d2,
        type: 3}
      propertyPath: m_LocalEulerAnglesHint.x
      value: 0
      objectReference: {fileID: 0}
    - target: {fileID: -8679921383154817045, guid: d46bfb3893e03284eb12809d349c10d2,
        type: 3}
      propertyPath: m_LocalEulerAnglesHint.y
      value: 0
      objectReference: {fileID: 0}
    - target: {fileID: -8679921383154817045, guid: d46bfb3893e03284eb12809d349c10d2,
        type: 3}
      propertyPath: m_LocalEulerAnglesHint.z
      value: 0
      objectReference: {fileID: 0}
    - target: {fileID: -7511558181221131132, guid: d46bfb3893e03284eb12809d349c10d2,
        type: 3}
      propertyPath: m_Materials.Array.data[0]
      value: 
      objectReference: {fileID: 2100000, guid: f07a2efd13200094bb1529d7ff11a997, type: 2}
    - target: {fileID: 919132149155446097, guid: d46bfb3893e03284eb12809d349c10d2,
        type: 3}
      propertyPath: m_Name
      value: SM_Pawn_Basic_Low
      objectReference: {fileID: 0}
    m_RemovedComponents: []
  m_SourcePrefab: {fileID: 100100000, guid: d46bfb3893e03284eb12809d349c10d2, type: 3}
--- !u!1 &2462127570960576261 stripped
GameObject:
  m_CorrespondingSourceObject: {fileID: 919132149155446097, guid: d46bfb3893e03284eb12809d349c10d2,
    type: 3}
  m_PrefabInstance: {fileID: 3380604814911197780}
  m_PrefabAsset: {fileID: 0}
--- !u!4 &2981641714369607103 stripped
Transform:
  m_CorrespondingSourceObject: {fileID: -8679921383154817045, guid: d46bfb3893e03284eb12809d349c10d2,
    type: 3}
  m_PrefabInstance: {fileID: 3380604814911197780}
  m_PrefabAsset: {fileID: 0}
