%YAML 1.1
%TAG !u! tag:unity3d.com,2011:
--- !u!1 &207925434760817827
GameObject:
  m_ObjectHideFlags: 0
  m_CorrespondingSourceObject: {fileID: 0}
  m_PrefabInstance: {fileID: 0}
  m_PrefabAsset: {fileID: 0}
  serializedVersion: 6
  m_Component:
  - component: {fileID: 2789834876376097964}
  m_Layer: 0
  m_Name: P_SM_Poker_Chip_High
  m_TagString: Untagged
  m_Icon: {fileID: 0}
  m_NavMeshLayer: 0
  m_StaticEditorFlags: 0
  m_IsActive: 1
--- !u!4 &2789834876376097964
Transform:
  m_ObjectHideFlags: 0
  m_CorrespondingSourceObject: {fileID: 0}
  m_PrefabInstance: {fileID: 0}
  m_PrefabAsset: {fileID: 0}
  m_GameObject: {fileID: 207925434760817827}
  m_LocalRotation: {x: 0, y: 0, z: 0, w: 1}
  m_LocalPosition: {x: 0, y: 0, z: 0}
  m_LocalScale: {x: 1, y: 1, z: 1}
  m_Children:
  - {fileID: 699871017217415893}
  m_Father: {fileID: 0}
  m_RootOrder: 0
  m_LocalEulerAnglesHint: {x: 0, y: 0, z: 0}
--- !u!65 &6454673937414382556
BoxCollider:
  m_ObjectHideFlags: 0
  m_CorrespondingSourceObject: {fileID: 0}
  m_PrefabInstance: {fileID: 0}
  m_PrefabAsset: {fileID: 0}
  m_GameObject: {fileID: 215504656789766255}
  m_Material: {fileID: 0}
  m_IsTrigger: 0
  m_Enabled: 1
  serializedVersion: 2
  m_Size: {x: 0.077308975, y: 0.005, z: 0.077308975}
  m_Center: {x: 0, y: 0, z: 0}
--- !u!1001 &1025916392889171262
PrefabInstance:
  m_ObjectHideFlags: 0
  serializedVersion: 2
  m_Modification:
    m_TransformParent: {fileID: 2789834876376097964}
    m_Modifications:
    - target: {fileID: -8679921383154817045, guid: d7b345e094ed51b469ccdb63840eecae,
        type: 3}
      propertyPath: m_LocalPosition.x
      value: -0
      objectReference: {fileID: 0}
    - target: {fileID: -8679921383154817045, guid: d7b345e094ed51b469ccdb63840eecae,
        type: 3}
      propertyPath: m_LocalPosition.y
      value: 0
      objectReference: {fileID: 0}
    - target: {fileID: -8679921383154817045, guid: d7b345e094ed51b469ccdb63840eecae,
        type: 3}
      propertyPath: m_LocalPosition.z
      value: 0
      objectReference: {fileID: 0}
    - target: {fileID: -8679921383154817045, guid: d7b345e094ed51b469ccdb63840eecae,
        type: 3}
      propertyPath: m_LocalRotation.x
      value: 0
      objectReference: {fileID: 0}
    - target: {fileID: -8679921383154817045, guid: d7b345e094ed51b469ccdb63840eecae,
        type: 3}
      propertyPath: m_LocalRotation.y
      value: -0
      objectReference: {fileID: 0}
    - target: {fileID: -8679921383154817045, guid: d7b345e094ed51b469ccdb63840eecae,
        type: 3}
      propertyPath: m_LocalRotation.z
      value: -0
      objectReference: {fileID: 0}
    - target: {fileID: -8679921383154817045, guid: d7b345e094ed51b469ccdb63840eecae,
        type: 3}
      propertyPath: m_LocalRotation.w
      value: 1
      objectReference: {fileID: 0}
    - target: {fileID: -8679921383154817045, guid: d7b345e094ed51b469ccdb63840eecae,
        type: 3}
      propertyPath: m_RootOrder
      value: 0
      objectReference: {fileID: 0}
    - target: {fileID: -8679921383154817045, guid: d7b345e094ed51b469ccdb63840eecae,
        type: 3}
      propertyPath: m_LocalEulerAnglesHint.x
      value: 0
      objectReference: {fileID: 0}
    - target: {fileID: -8679921383154817045, guid: d7b345e094ed51b469ccdb63840eecae,
        type: 3}
      propertyPath: m_LocalEulerAnglesHint.y
      value: 0
      objectReference: {fileID: 0}
    - target: {fileID: -8679921383154817045, guid: d7b345e094ed51b469ccdb63840eecae,
        type: 3}
      propertyPath: m_LocalEulerAnglesHint.z
      value: 0
      objectReference: {fileID: 0}
    - target: {fileID: -7511558181221131132, guid: d7b345e094ed51b469ccdb63840eecae,
        type: 3}
      propertyPath: m_Materials.Array.data[0]
      value: 
      objectReference: {fileID: 2100000, guid: ad92c0a1fd7541544b77325329acb3b1, type: 2}
    - target: {fileID: 919132149155446097, guid: d7b345e094ed51b469ccdb63840eecae,
        type: 3}
      propertyPath: m_Name
      value: SM_Poker_Chip_High
      objectReference: {fileID: 0}
    m_RemovedComponents: []
  m_SourcePrefab: {fileID: 100100000, guid: d7b345e094ed51b469ccdb63840eecae, type: 3}
--- !u!1 &215504656789766255 stripped
GameObject:
  m_CorrespondingSourceObject: {fileID: 919132149155446097, guid: d7b345e094ed51b469ccdb63840eecae,
    type: 3}
  m_PrefabInstance: {fileID: 1025916392889171262}
  m_PrefabAsset: {fileID: 0}
--- !u!4 &699871017217415893 stripped
Transform:
  m_CorrespondingSourceObject: {fileID: -8679921383154817045, guid: d7b345e094ed51b469ccdb63840eecae,
    type: 3}
  m_PrefabInstance: {fileID: 1025916392889171262}
  m_PrefabAsset: {fileID: 0}
