%YAML 1.1
%TAG !u! tag:unity3d.com,2011:
--- !u!1 &1362612041084065660
GameObject:
  m_ObjectHideFlags: 0
  m_CorrespondingSourceObject: {fileID: 0}
  m_PrefabInstance: {fileID: 0}
  m_PrefabAsset: {fileID: 0}
  serializedVersion: 6
  m_Component:
  - component: {fileID: 4727544886153085985}
  m_Layer: 0
  m_Name: P_SM_Table_Round_Low
  m_TagString: Untagged
  m_Icon: {fileID: 0}
  m_NavMeshLayer: 0
  m_StaticEditorFlags: 0
  m_IsActive: 1
--- !u!4 &4727544886153085985
Transform:
  m_ObjectHideFlags: 0
  m_CorrespondingSourceObject: {fileID: 0}
  m_PrefabInstance: {fileID: 0}
  m_PrefabAsset: {fileID: 0}
  m_GameObject: {fileID: 1362612041084065660}
  m_LocalRotation: {x: 0, y: 0, z: 0, w: 1}
  m_LocalPosition: {x: 0, y: 0, z: 0}
  m_LocalScale: {x: 1, y: 1, z: 1}
  m_Children:
  - {fileID: 2329508919428129988}
  m_Father: {fileID: 0}
  m_RootOrder: 0
  m_LocalEulerAnglesHint: {x: 0, y: 0, z: 0}
--- !u!64 &7583257950267770194
MeshCollider:
  m_ObjectHideFlags: 0
  m_CorrespondingSourceObject: {fileID: 0}
  m_PrefabInstance: {fileID: 0}
  m_PrefabAsset: {fileID: 0}
  m_GameObject: {fileID: 3107418500204756606}
  m_Material: {fileID: 0}
  m_IsTrigger: 0
  m_Enabled: 1
  serializedVersion: 4
  m_Convex: 0
  m_CookingOptions: 30
  m_Mesh: {fileID: -9153916544163861694, guid: 1720d0ab36a183e44863b42611bac053, type: 3}
--- !u!1001 &2872924344913445679
PrefabInstance:
  m_ObjectHideFlags: 0
  serializedVersion: 2
  m_Modification:
    m_TransformParent: {fileID: 4727544886153085985}
    m_Modifications:
    - target: {fileID: -8679921383154817045, guid: 1720d0ab36a183e44863b42611bac053,
        type: 3}
      propertyPath: m_LocalPosition.x
      value: -0
      objectReference: {fileID: 0}
    - target: {fileID: -8679921383154817045, guid: 1720d0ab36a183e44863b42611bac053,
        type: 3}
      propertyPath: m_LocalPosition.y
      value: 0
      objectReference: {fileID: 0}
    - target: {fileID: -8679921383154817045, guid: 1720d0ab36a183e44863b42611bac053,
        type: 3}
      propertyPath: m_LocalPosition.z
      value: 0
      objectReference: {fileID: 0}
    - target: {fileID: -8679921383154817045, guid: 1720d0ab36a183e44863b42611bac053,
        type: 3}
      propertyPath: m_LocalRotation.x
      value: 0
      objectReference: {fileID: 0}
    - target: {fileID: -8679921383154817045, guid: 1720d0ab36a183e44863b42611bac053,
        type: 3}
      propertyPath: m_LocalRotation.y
      value: -0
      objectReference: {fileID: 0}
    - target: {fileID: -8679921383154817045, guid: 1720d0ab36a183e44863b42611bac053,
        type: 3}
      propertyPath: m_LocalRotation.z
      value: -0
      objectReference: {fileID: 0}
    - target: {fileID: -8679921383154817045, guid: 1720d0ab36a183e44863b42611bac053,
        type: 3}
      propertyPath: m_LocalRotation.w
      value: 1
      objectReference: {fileID: 0}
    - target: {fileID: -8679921383154817045, guid: 1720d0ab36a183e44863b42611bac053,
        type: 3}
      propertyPath: m_RootOrder
      value: 0
      objectReference: {fileID: 0}
    - target: {fileID: -8679921383154817045, guid: 1720d0ab36a183e44863b42611bac053,
        type: 3}
      propertyPath: m_LocalEulerAnglesHint.x
      value: 0
      objectReference: {fileID: 0}
    - target: {fileID: -8679921383154817045, guid: 1720d0ab36a183e44863b42611bac053,
        type: 3}
      propertyPath: m_LocalEulerAnglesHint.y
      value: 0
      objectReference: {fileID: 0}
    - target: {fileID: -8679921383154817045, guid: 1720d0ab36a183e44863b42611bac053,
        type: 3}
      propertyPath: m_LocalEulerAnglesHint.z
      value: 0
      objectReference: {fileID: 0}
    - target: {fileID: -7511558181221131132, guid: 1720d0ab36a183e44863b42611bac053,
        type: 3}
      propertyPath: m_Materials.Array.data[0]
      value: 
      objectReference: {fileID: 2100000, guid: a387f2b29be36e046ac440ab15d01e10, type: 2}
    - target: {fileID: -7511558181221131132, guid: 1720d0ab36a183e44863b42611bac053,
        type: 3}
      propertyPath: m_Materials.Array.data[1]
      value: 
      objectReference: {fileID: 2100000, guid: 77017fca2aa41fc4983e2ee56d47a9ec, type: 2}
    - target: {fileID: 919132149155446097, guid: 1720d0ab36a183e44863b42611bac053,
        type: 3}
      propertyPath: m_Name
      value: SM_Table_Round_Low
      objectReference: {fileID: 0}
    m_RemovedComponents: []
  m_SourcePrefab: {fileID: 100100000, guid: 1720d0ab36a183e44863b42611bac053, type: 3}
--- !u!1 &3107418500204756606 stripped
GameObject:
  m_CorrespondingSourceObject: {fileID: 919132149155446097, guid: 1720d0ab36a183e44863b42611bac053,
    type: 3}
  m_PrefabInstance: {fileID: 2872924344913445679}
  m_PrefabAsset: {fileID: 0}
--- !u!4 &2329508919428129988 stripped
Transform:
  m_CorrespondingSourceObject: {fileID: -8679921383154817045, guid: 1720d0ab36a183e44863b42611bac053,
    type: 3}
  m_PrefabInstance: {fileID: 2872924344913445679}
  m_PrefabAsset: {fileID: 0}
