%YAML 1.1
%TAG !u! tag:unity3d.com,2011:
--- !u!1 &2183709036728333737
GameObject:
  m_ObjectHideFlags: 0
  m_CorrespondingSourceObject: {fileID: 0}
  m_PrefabInstance: {fileID: 0}
  m_PrefabAsset: {fileID: 0}
  serializedVersion: 6
  m_Component:
  - component: {fileID: 3465151417544169449}
  m_Layer: 0
  m_Name: P_SM_Tile_Square_Thin
  m_TagString: Untagged
  m_Icon: {fileID: 0}
  m_NavMeshLayer: 0
  m_StaticEditorFlags: 0
  m_IsActive: 1
--- !u!4 &3465151417544169449
Transform:
  m_ObjectHideFlags: 0
  m_CorrespondingSourceObject: {fileID: 0}
  m_PrefabInstance: {fileID: 0}
  m_PrefabAsset: {fileID: 0}
  m_GameObject: {fileID: 2183709036728333737}
  m_LocalRotation: {x: 0, y: 0, z: 0, w: 1}
  m_LocalPosition: {x: 0, y: 0, z: 0}
  m_LocalScale: {x: 1, y: 1, z: 1}
  m_Children:
  - {fileID: 2696129833525063251}
  m_Father: {fileID: 0}
  m_RootOrder: 0
  m_LocalEulerAnglesHint: {x: 0, y: 0, z: 0}
--- !u!65 &6686791694120676676
BoxCollider:
  m_ObjectHideFlags: 0
  m_CorrespondingSourceObject: {fileID: 0}
  m_PrefabInstance: {fileID: 0}
  m_PrefabAsset: {fileID: 0}
  m_GameObject: {fileID: 3324012079994139881}
  m_Material: {fileID: 0}
  m_IsTrigger: 0
  m_Enabled: 1
  serializedVersion: 2
  m_Size: {x: 0.03764441, y: 0.001234874, z: 0.03764441}
  m_Center: {x: 0, y: 0, z: 0}
--- !u!1001 &2513055536017394104
PrefabInstance:
  m_ObjectHideFlags: 0
  serializedVersion: 2
  m_Modification:
    m_TransformParent: {fileID: 3465151417544169449}
    m_Modifications:
    - target: {fileID: -8679921383154817045, guid: cc6d4da501a3a7142a57989f8e0a409e,
        type: 3}
      propertyPath: m_LocalPosition.x
      value: -0
      objectReference: {fileID: 0}
    - target: {fileID: -8679921383154817045, guid: cc6d4da501a3a7142a57989f8e0a409e,
        type: 3}
      propertyPath: m_LocalPosition.y
      value: 0
      objectReference: {fileID: 0}
    - target: {fileID: -8679921383154817045, guid: cc6d4da501a3a7142a57989f8e0a409e,
        type: 3}
      propertyPath: m_LocalPosition.z
      value: 0
      objectReference: {fileID: 0}
    - target: {fileID: -8679921383154817045, guid: cc6d4da501a3a7142a57989f8e0a409e,
        type: 3}
      propertyPath: m_LocalRotation.x
      value: 0
      objectReference: {fileID: 0}
    - target: {fileID: -8679921383154817045, guid: cc6d4da501a3a7142a57989f8e0a409e,
        type: 3}
      propertyPath: m_LocalRotation.y
      value: -0
      objectReference: {fileID: 0}
    - target: {fileID: -8679921383154817045, guid: cc6d4da501a3a7142a57989f8e0a409e,
        type: 3}
      propertyPath: m_LocalRotation.z
      value: -0
      objectReference: {fileID: 0}
    - target: {fileID: -8679921383154817045, guid: cc6d4da501a3a7142a57989f8e0a409e,
        type: 3}
      propertyPath: m_LocalRotation.w
      value: 1
      objectReference: {fileID: 0}
    - target: {fileID: -8679921383154817045, guid: cc6d4da501a3a7142a57989f8e0a409e,
        type: 3}
      propertyPath: m_RootOrder
      value: 0
      objectReference: {fileID: 0}
    - target: {fileID: -8679921383154817045, guid: cc6d4da501a3a7142a57989f8e0a409e,
        type: 3}
      propertyPath: m_LocalEulerAnglesHint.x
      value: 0
      objectReference: {fileID: 0}
    - target: {fileID: -8679921383154817045, guid: cc6d4da501a3a7142a57989f8e0a409e,
        type: 3}
      propertyPath: m_LocalEulerAnglesHint.y
      value: 0
      objectReference: {fileID: 0}
    - target: {fileID: -8679921383154817045, guid: cc6d4da501a3a7142a57989f8e0a409e,
        type: 3}
      propertyPath: m_LocalEulerAnglesHint.z
      value: 0
      objectReference: {fileID: 0}
    - target: {fileID: -7511558181221131132, guid: cc6d4da501a3a7142a57989f8e0a409e,
        type: 3}
      propertyPath: m_Materials.Array.data[0]
      value: 
      objectReference: {fileID: 2100000, guid: 298ecb35c1085484aa443f350922fcfe, type: 2}
    - target: {fileID: 919132149155446097, guid: cc6d4da501a3a7142a57989f8e0a409e,
        type: 3}
      propertyPath: m_Name
      value: SM_Tile_Square_Thin
      objectReference: {fileID: 0}
    m_RemovedComponents: []
  m_SourcePrefab: {fileID: 100100000, guid: cc6d4da501a3a7142a57989f8e0a409e, type: 3}
--- !u!1 &3324012079994139881 stripped
GameObject:
  m_CorrespondingSourceObject: {fileID: 919132149155446097, guid: cc6d4da501a3a7142a57989f8e0a409e,
    type: 3}
  m_PrefabInstance: {fileID: 2513055536017394104}
  m_PrefabAsset: {fileID: 0}
--- !u!4 &2696129833525063251 stripped
Transform:
  m_CorrespondingSourceObject: {fileID: -8679921383154817045, guid: cc6d4da501a3a7142a57989f8e0a409e,
    type: 3}
  m_PrefabInstance: {fileID: 2513055536017394104}
  m_PrefabAsset: {fileID: 0}
